#Value,mx,my,mz,decomposeParDict_node,decomposeParDict_ppn,decomposeParDict_method,fvSolution_solvers_p_relTol,fvSolution_solvers_p_solver,fvSolution_solvers_p_preconditioner,fvSolution_solvers_pFinal_solver,fvSolution_solvers_pFinal_preconditioner,fvSolution_solvers_UFinal_solver,fvSolution_solvers_UFinal_preconditioner,WM_COMPILE_OPTION
30.22,480,260,192,1,40,scotch,0.05,PCG,DIC,PCG,DIC,PBiCG,DILU,d98ed66b3af59cad3802ce787865de91
30.195,480,260,192,1,40,scotch,0.05,PCG,DIC,PCG,DIC,PBiCG,DILU,e10ed177925dde7b122fe3820d51d784
30.0175,480,260,192,1,40,scotch,0.05,PCG,DIC,PCG,DIC,PBiCG,DILU,3337ff6850c6d522a2a2c589856dc227
30.2512,480,260,192,1,40,scotch,0.05,PCG,DIC,PCG,DIC,PBiCG,DILU,fa51e10fb10b88932431dddc7806aeb9
30.0787,480,260,192,1,40,scotch,0.05,PCG,DIC,PCG,DIC,PBiCG,DILU,33cdc08b167ef09b117ec10935ea06f7
30.2862,480,260,192,1,40,scotch,0.05,PCG,DIC,PCG,DIC,PBiCG,DILU,9557a4bf6544d4239d70ba572d3c102a
29.9587,480,260,192,1,40,scotch,0.05,PCG,DIC,PCG,DIC,PBiCG,DILU,a1021cee72a5cfd3ac5513e17fde1851
30.0188,480,260,192,1,40,scotch,0.05,PCG,DIC,PCG,DIC,PBiCG,DILU,88446eff28b29e8516d36050b6312428
30.1237,480,260,192,1,40,scotch,0.05,PCG,DIC,PCG,DIC,PBiCG,DILU,6cc6e1ccc8e615a505ae23547cafe61f
27.8188,480,260,192,1,80,scotch,0.05,PCG,DIC,PCG,DIC,PBiCG,DILU,d98ed66b3af59cad3802ce787865de91
26.9862,480,260,192,1,80,scotch,0.05,PCG,DIC,PCG,DIC,PBiCG,DILU,e10ed177925dde7b122fe3820d51d784
27.2438,480,260,192,1,80,scotch,0.05,PCG,DIC,PCG,DIC,PBiCG,DILU,3337ff6850c6d522a2a2c589856dc227
27.4038,480,260,192,1,80,scotch,0.05,PCG,DIC,PCG,DIC,PBiCG,DILU,fa51e10fb10b88932431dddc7806aeb9
27.1062,480,260,192,1,80,scotch,0.05,PCG,DIC,PCG,DIC,PBiCG,DILU,33cdc08b167ef09b117ec10935ea06f7
27.2437,480,260,192,1,80,scotch,0.05,PCG,DIC,PCG,DIC,PBiCG,DILU,9557a4bf6544d4239d70ba572d3c102a
27.1137,480,260,192,1,80,scotch,0.05,PCG,DIC,PCG,DIC,PBiCG,DILU,a1021cee72a5cfd3ac5513e17fde1851
27.1175,480,260,192,1,80,scotch,0.05,PCG,DIC,PCG,DIC,PBiCG,DILU,88446eff28b29e8516d36050b6312428
27.5162,480,260,192,1,80,scotch,0.05,PCG,DIC,PCG,DIC,PBiCG,DILU,6cc6e1ccc8e615a505ae23547cafe61f
13.7175,480,260,192,1,160,scotch,0.05,PCG,DIC,PCG,DIC,PBiCG,DILU,d98ed66b3af59cad3802ce787865de91
13.86,480,260,192,1,160,scotch,0.05,PCG,DIC,PCG,DIC,PBiCG,DILU,e10ed177925dde7b122fe3820d51d784
13.7563,480,260,192,1,160,scotch,0.05,PCG,DIC,PCG,DIC,PBiCG,DILU,3337ff6850c6d522a2a2c589856dc227
13.7312,480,260,192,1,160,scotch,0.05,PCG,DIC,PCG,DIC,PBiCG,DILU,fa51e10fb10b88932431dddc7806aeb9
13.7488,480,260,192,1,160,scotch,0.05,PCG,DIC,PCG,DIC,PBiCG,DILU,33cdc08b167ef09b117ec10935ea06f7
13.7175,480,260,192,1,160,scotch,0.05,PCG,DIC,PCG,DIC,PBiCG,DILU,9557a4bf6544d4239d70ba572d3c102a
13.7112,480,260,192,1,160,scotch,0.05,PCG,DIC,PCG,DIC,PBiCG,DILU,a1021cee72a5cfd3ac5513e17fde1851
13.7462,480,260,192,1,160,scotch,0.05,PCG,DIC,PCG,DIC,PBiCG,DILU,88446eff28b29e8516d36050b6312428
13.715,480,260,192,1,160,scotch,0.05,PCG,DIC,PCG,DIC,PBiCG,DILU,6cc6e1ccc8e615a505ae23547cafe61f
