#solveBatch,fvSolution,nCases,aveNodeTime,aveNodeTime/aveNodeTimeMin
n36-2.3.0-system-Gcc4_8_5-Opt-INTELMPI2018_3_222-6F,PCG-DIC,20,29.6103,1
n36-2.3.0-system-Gcc4_8_5-Opt-INTELMPI2018_3_222-6FTU,PCG-DIC,20,29.6198,1.00032
n36-2.3.0-system-Gcc4_8_5-Opt-INTELMPI2017_3_196-6FTU,PCG-DIC,20,29.6551,1.00151
n36-2.3.0-system-Gcc4_8_5-Opt-INTELMPI2018_3_222-6FLTU,PCG-DIC,20,29.6686,1.00197
n36-2.3.0-system-Gcc4_8_5-Opt-INTELMPI2018_3_222-6DF,PCG-DIC,20,29.6694,1.00199
n36-2.3.0-system-Gcc4_8_5-Opt-INTELMPI2017_3_196-6FLTU,PCG-DIC,20,29.6722,1.00209
n36-2.3.0-system-Gcc4_8_5-Opt-INTELMPI2018_1_163-6FTU,PCG-DIC,20,29.7041,1.00317
n36-2.3.0-system-Gcc4_8_5-Opt-INTELMPI2018_3_222-6FL,PCG-DIC,20,29.7182,1.00364
n36-2.3.0-system-Gcc4_8_5-Opt-SYSTEMOPENMPI3_1_1-DMRbr,PCG-DIC,20,29.7311,1.00408
n36-2.3.0-system-Gcc4_8_5-Opt-INTELMPI2018_1_163-6DTU,PCG-DIC,20,29.7451,1.00455
n36-2.3.0-system-Gcc4_8_5-Opt-INTELMPI2018_1_163-6FLTU,PCG-DIC,20,29.7607,1.00508
n36-2.3.0-system-Gcc4_8_5-Opt-INTELMPI2018_3_222-6DFLTU,PCG-DIC,20,29.7696,1.00538
n36-2.3.0-system-Gcc4_8_5-Opt-INTELMPI2017_3_196-6DFLTU,PCG-DIC,20,29.776,1.0056
n36-2.3.0-system-Gcc4_8_5-Opt-INTELMPI2018_1_163-6DFLTU,PCG-DIC,20,29.7894,1.00605
n36-2.3.0-system-Gcc4_8_5-Opt-INTELMPI2017_3_196-6DFTU,PCG-DIC,20,29.8038,1.00653
n36-2.3.0-system-Gcc4_8_5-Opt-INTELMPI2018_3_222-6DFTU,PCG-DIC,20,29.806,1.00661
n36-2.3.0-system-Gcc4_8_5-Opt-INTELMPI2018_3_222-6DFL,PCG-DIC,20,29.8072,1.00665
n36-2.3.0-system-Gcc4_8_5-Opt-SYSTEMOPENMPI3_1_1-DMRb,PCG-DIC,20,29.8099,1.00674
n36-2.3.0-system-Gcc4_8_5-Opt-SYSTEMOPENMPI3_1_1-DMRs,PCG-DIC,20,29.9426,1.01122
n36-2.3.0-system-Gcc4_8_5-Opt-SYSTEMOPENMPI3_1_1-DMR,PCG-DIC,20,29.9483,1.01142
n36-2.3.0-system-Gcc4_8_5-Opt-SYSTEMOPENMPI1_10_7-DMRb,PCG-DIC,20,30.1795,1.01922
n36-2.3.0-system-Gcc4_8_5-Opt-SYSTEMOPENMPI1_10_7-DMRbr,PCG-DIC,20,30.211,1.02029
n36-2.3.0-system-Gcc4_8_5-Opt-SYSTEMOPENMPI1_10_7-DMRs,PCG-DIC,20,30.3407,1.02467
n36-2.3.0-system-Gcc4_8_5-Opt-SYSTEMOPENMPI1_10_7-DMR,PCG-DIC,20,30.3697,1.02565
n36-2.3.0-system-Gcc4_8_5-Opt-INTELMPI5_1_3_258-6FLTU,PCG-DIC,20,33.0436,1.11595
n36-2.3.0-system-Gcc4_8_5-Opt-INTELMPI5_1_3_258-6FTU,PCG-DIC,20,33.1559,1.11974
n36-2.3.0-system-Gcc4_8_5-Opt-INTELMPI5_1_3_258-6DFLTU,PCG-DIC,20,33.2006,1.12125
n36-2.3.0-system-Gcc4_8_5-Opt-INTELMPI5_1_3_258-6DFTU,PCG-DIC,20,33.4466,1.12956
