#Directory,Host,Node,Proc,Case,TimeSteps,InitTime[s],LastTime[s],Time[s],AveTime[s],gpuALLOC,gpu_ave_util[%],gpu_max_util[%]
cases/proc_48/cases/v2406-FOAM-DIC-PCG.fixedNORM,Odyssey,1,48,v2406-FOAM-DIC-PCG.fixedNORM,11,1.42,11.3,9.88,0.988
cases/proc_48/cases/v2406-FOAM-DIC-PCG.fixedNORM,Odyssey,1,48,v2406-FOAM-DIC-PCG.fixedNORM,11,1.43,11.31,9.88,0.988
cases/proc_48/cases/v2406-FOAM-DIC-PCG.fixedNORM,Odyssey,1,48,v2406-FOAM-DIC-PCG.fixedNORM,11,1.43,11.33,9.9,0.99
cases/proc_48/cases/v2406-FOAM-DIC-PCG.fixedNORM,Odyssey,1,48,v2406-FOAM-DIC-PCG.fixedNORM,11,1.45,11.33,9.88,0.988
cases/proc_48/cases/v2406-FOAM-DIC-PCG.fixedNORM,Odyssey,1,48,v2406-FOAM-DIC-PCG.fixedNORM,11,1.49,11.36,9.87,0.987
cases/proc_48/cases/v2406-FOAM-GAMG-PCG.fixedNORM,Odyssey,1,48,v2406-FOAM-GAMG-PCG.fixedNORM,11,4.89,43.32,38.43,3.843
cases/proc_48/cases/v2406-FOAM-GAMG-PCG.fixedNORM,Odyssey,1,48,v2406-FOAM-GAMG-PCG.fixedNORM,11,4.92,43.34,38.42,3.842
cases/proc_48/cases/v2406-FOAM-GAMG-PCG.fixedNORM,Odyssey,1,48,v2406-FOAM-GAMG-PCG.fixedNORM,11,4.93,43.18,38.25,3.825
cases/proc_48/cases/v2406-FOAM-GAMG-PCG.fixedNORM,Odyssey,1,48,v2406-FOAM-GAMG-PCG.fixedNORM,11,4.95,43.49,38.54,3.854
cases/proc_48/cases/v2406-FOAM-GAMG-PCG.fixedNORM,Odyssey,1,48,v2406-FOAM-GAMG-PCG.fixedNORM,11,5.01,43.59,38.58,3.858
cases/proc_48/cases/v2406-PETSc-AMG-CG.mpiaij.fixedNORM,Odyssey,1,48,v2406-PETSc-AMG-CG.mpiaij.fixedNORM,11,1.61,12.54,10.93,1.093
cases/proc_48/cases/v2406-PETSc-AMG-CG.mpiaij.fixedNORM,Odyssey,1,48,v2406-PETSc-AMG-CG.mpiaij.fixedNORM,11,1.61,12.55,10.94,1.094
cases/proc_48/cases/v2406-PETSc-AMG-CG.mpiaij.fixedNORM,Odyssey,1,48,v2406-PETSc-AMG-CG.mpiaij.fixedNORM,11,1.61,12.57,10.96,1.096
cases/proc_48/cases/v2406-PETSc-AMG-CG.mpiaij.fixedNORM,Odyssey,1,48,v2406-PETSc-AMG-CG.mpiaij.fixedNORM,11,1.62,12.56,10.94,1.094
cases/proc_48/cases/v2406-PETSc-AMG-CG.mpiaij.fixedNORM,Odyssey,1,48,v2406-PETSc-AMG-CG.mpiaij.fixedNORM,11,1.65,12.62,10.97,1.097
cases/proc_48/cases/v2406-PETSc-AMG-CG.mpiaij.fixedNORM.caching,Odyssey,1,48,v2406-PETSc-AMG-CG.mpiaij.fixedNORM.caching,11,1.47,10.03,8.56,0.856
cases/proc_48/cases/v2406-PETSc-AMG-CG.mpiaij.fixedNORM.caching,Odyssey,1,48,v2406-PETSc-AMG-CG.mpiaij.fixedNORM.caching,11,1.49,10.07,8.58,0.858
cases/proc_48/cases/v2406-PETSc-AMG-CG.mpiaij.fixedNORM.caching,Odyssey,1,48,v2406-PETSc-AMG-CG.mpiaij.fixedNORM.caching,11,1.49,10.07,8.58,0.858
cases/proc_48/cases/v2406-PETSc-AMG-CG.mpiaij.fixedNORM.caching,Odyssey,1,48,v2406-PETSc-AMG-CG.mpiaij.fixedNORM.caching,11,1.49,10.07,8.58,0.858
cases/proc_48/cases/v2406-PETSc-AMG-CG.mpiaij.fixedNORM.caching,Odyssey,1,48,v2406-PETSc-AMG-CG.mpiaij.fixedNORM.caching,11,1.49,10.08,8.59,0.859
cases/proc_48/cases/v2406-PETSc-ICC-CG.mpiaij.fixedNORM,Odyssey,1,48,v2406-PETSc-ICC-CG.mpiaij.fixedNORM,11,3.04,25.67,22.63,2.263
cases/proc_48/cases/v2406-PETSc-ICC-CG.mpiaij.fixedNORM,Odyssey,1,48,v2406-PETSc-ICC-CG.mpiaij.fixedNORM,11,3.06,25.66,22.6,2.26
cases/proc_48/cases/v2406-PETSc-ICC-CG.mpiaij.fixedNORM,Odyssey,1,48,v2406-PETSc-ICC-CG.mpiaij.fixedNORM,11,3.06,25.8,22.74,2.274
cases/proc_48/cases/v2406-PETSc-ICC-CG.mpiaij.fixedNORM,Odyssey,1,48,v2406-PETSc-ICC-CG.mpiaij.fixedNORM,11,3.09,25.71,22.62,2.262
cases/proc_48/cases/v2406-PETSc-ICC-CG.mpiaij.fixedNORM,Odyssey,1,48,v2406-PETSc-ICC-CG.mpiaij.fixedNORM,11,3.12,25.73,22.61,2.261
cases/proc_96/cases/v2406-FOAM-DIC-PCG.fixedNORM,Odyssey,2,96,v2406-FOAM-DIC-PCG.fixedNORM,11,0.87,5.86,4.99,0.499
cases/proc_96/cases/v2406-FOAM-DIC-PCG.fixedNORM,Odyssey,2,96,v2406-FOAM-DIC-PCG.fixedNORM,11,0.89,5.87,4.98,0.498
cases/proc_96/cases/v2406-FOAM-DIC-PCG.fixedNORM,Odyssey,2,96,v2406-FOAM-DIC-PCG.fixedNORM,11,0.91,5.9,4.99,0.499
cases/proc_96/cases/v2406-FOAM-DIC-PCG.fixedNORM,Odyssey,2,96,v2406-FOAM-DIC-PCG.fixedNORM,11,0.91,5.91,5,0.5
cases/proc_96/cases/v2406-FOAM-DIC-PCG.fixedNORM,Odyssey,2,96,v2406-FOAM-DIC-PCG.fixedNORM,11,1.39,6.38,4.99,0.499
cases/proc_96/cases/v2406-FOAM-GAMG-PCG.fixedNORM,Odyssey,2,96,v2406-FOAM-GAMG-PCG.fixedNORM,11,4.19,35.63,31.44,3.144
cases/proc_96/cases/v2406-FOAM-GAMG-PCG.fixedNORM,Odyssey,2,96,v2406-FOAM-GAMG-PCG.fixedNORM,11,4.21,35.65,31.44,3.144
cases/proc_96/cases/v2406-FOAM-GAMG-PCG.fixedNORM,Odyssey,2,96,v2406-FOAM-GAMG-PCG.fixedNORM,11,4.21,36,31.79,3.179
cases/proc_96/cases/v2406-FOAM-GAMG-PCG.fixedNORM,Odyssey,2,96,v2406-FOAM-GAMG-PCG.fixedNORM,11,4.22,35.77,31.55,3.155
cases/proc_96/cases/v2406-FOAM-GAMG-PCG.fixedNORM,Odyssey,2,96,v2406-FOAM-GAMG-PCG.fixedNORM,11,4.24,35.87,31.63,3.163
cases/proc_96/cases/v2406-PETSc-AMG-CG.mpiaij.fixedNORM,Odyssey,2,96,v2406-PETSc-AMG-CG.mpiaij.fixedNORM,11,1.32,9.59,8.27,0.827
cases/proc_96/cases/v2406-PETSc-AMG-CG.mpiaij.fixedNORM,Odyssey,2,96,v2406-PETSc-AMG-CG.mpiaij.fixedNORM,11,1.32,9.61,8.29,0.829
cases/proc_96/cases/v2406-PETSc-AMG-CG.mpiaij.fixedNORM,Odyssey,2,96,v2406-PETSc-AMG-CG.mpiaij.fixedNORM,11,1.33,9.59,8.26,0.826
cases/proc_96/cases/v2406-PETSc-AMG-CG.mpiaij.fixedNORM,Odyssey,2,96,v2406-PETSc-AMG-CG.mpiaij.fixedNORM,11,1.41,9.67,8.26,0.826
cases/proc_96/cases/v2406-PETSc-AMG-CG.mpiaij.fixedNORM,Odyssey,2,96,v2406-PETSc-AMG-CG.mpiaij.fixedNORM,11,1.52,9.79,8.27,0.827
cases/proc_96/cases/v2406-PETSc-AMG-CG.mpiaij.fixedNORM.caching,Odyssey,2,96,v2406-PETSc-AMG-CG.mpiaij.fixedNORM.caching,11,1.19,7.21,6.02,0.602
cases/proc_96/cases/v2406-PETSc-AMG-CG.mpiaij.fixedNORM.caching,Odyssey,2,96,v2406-PETSc-AMG-CG.mpiaij.fixedNORM.caching,11,1.23,7.25,6.02,0.602
cases/proc_96/cases/v2406-PETSc-AMG-CG.mpiaij.fixedNORM.caching,Odyssey,2,96,v2406-PETSc-AMG-CG.mpiaij.fixedNORM.caching,11,1.26,7.26,6,0.6
cases/proc_96/cases/v2406-PETSc-AMG-CG.mpiaij.fixedNORM.caching,Odyssey,2,96,v2406-PETSc-AMG-CG.mpiaij.fixedNORM.caching,11,1.26,7.28,6.02,0.602
cases/proc_96/cases/v2406-PETSc-AMG-CG.mpiaij.fixedNORM.caching,Odyssey,2,96,v2406-PETSc-AMG-CG.mpiaij.fixedNORM.caching,11,1.29,7.29,6,0.6
cases/proc_96/cases/v2406-PETSc-ICC-CG.mpiaij.fixedNORM,Odyssey,2,96,v2406-PETSc-ICC-CG.mpiaij.fixedNORM,11,1.81,13.48,11.67,1.167
cases/proc_96/cases/v2406-PETSc-ICC-CG.mpiaij.fixedNORM,Odyssey,2,96,v2406-PETSc-ICC-CG.mpiaij.fixedNORM,11,1.81,13.49,11.68,1.168
cases/proc_96/cases/v2406-PETSc-ICC-CG.mpiaij.fixedNORM,Odyssey,2,96,v2406-PETSc-ICC-CG.mpiaij.fixedNORM,11,1.82,13.55,11.73,1.173
cases/proc_96/cases/v2406-PETSc-ICC-CG.mpiaij.fixedNORM,Odyssey,2,96,v2406-PETSc-ICC-CG.mpiaij.fixedNORM,11,1.82,13.56,11.74,1.174
cases/proc_96/cases/v2406-PETSc-ICC-CG.mpiaij.fixedNORM,Odyssey,2,96,v2406-PETSc-ICC-CG.mpiaij.fixedNORM,11,1.83,13.49,11.66,1.166
cases/proc_144/cases/v2406-FOAM-DIC-PCG.fixedNORM,Odyssey,3,144,v2406-FOAM-DIC-PCG.fixedNORM,11,0.71,4.5,3.79,0.379
cases/proc_144/cases/v2406-FOAM-DIC-PCG.fixedNORM,Odyssey,3,144,v2406-FOAM-DIC-PCG.fixedNORM,11,0.72,4.51,3.79,0.379
cases/proc_144/cases/v2406-FOAM-DIC-PCG.fixedNORM,Odyssey,3,144,v2406-FOAM-DIC-PCG.fixedNORM,11,0.74,4.55,3.81,0.381
cases/proc_144/cases/v2406-FOAM-DIC-PCG.fixedNORM,Odyssey,3,144,v2406-FOAM-DIC-PCG.fixedNORM,11,0.74,4.55,3.81,0.381
cases/proc_144/cases/v2406-FOAM-DIC-PCG.fixedNORM,Odyssey,3,144,v2406-FOAM-DIC-PCG.fixedNORM,11,0.75,4.56,3.81,0.381
cases/proc_144/cases/v2406-FOAM-GAMG-PCG.fixedNORM,Odyssey,3,144,v2406-FOAM-GAMG-PCG.fixedNORM,11,4.03,36.77,32.74,3.274
cases/proc_144/cases/v2406-FOAM-GAMG-PCG.fixedNORM,Odyssey,3,144,v2406-FOAM-GAMG-PCG.fixedNORM,11,4.04,37.02,32.98,3.298
cases/proc_144/cases/v2406-FOAM-GAMG-PCG.fixedNORM,Odyssey,3,144,v2406-FOAM-GAMG-PCG.fixedNORM,11,4.05,37.16,33.11,3.311
cases/proc_144/cases/v2406-FOAM-GAMG-PCG.fixedNORM,Odyssey,3,144,v2406-FOAM-GAMG-PCG.fixedNORM,11,4.06,37.05,32.99,3.299
cases/proc_144/cases/v2406-FOAM-GAMG-PCG.fixedNORM,Odyssey,3,144,v2406-FOAM-GAMG-PCG.fixedNORM,11,4.09,37.2,33.11,3.311
cases/proc_144/cases/v2406-PETSc-AMG-CG.mpiaij.fixedNORM,Odyssey,3,144,v2406-PETSc-AMG-CG.mpiaij.fixedNORM,11,1.28,9.65,8.37,0.837
cases/proc_144/cases/v2406-PETSc-AMG-CG.mpiaij.fixedNORM,Odyssey,3,144,v2406-PETSc-AMG-CG.mpiaij.fixedNORM,11,1.3,9.64,8.34,0.834
cases/proc_144/cases/v2406-PETSc-AMG-CG.mpiaij.fixedNORM,Odyssey,3,144,v2406-PETSc-AMG-CG.mpiaij.fixedNORM,11,1.3,9.66,8.36,0.836
cases/proc_144/cases/v2406-PETSc-AMG-CG.mpiaij.fixedNORM,Odyssey,3,144,v2406-PETSc-AMG-CG.mpiaij.fixedNORM,11,1.33,9.68,8.35,0.835
cases/proc_144/cases/v2406-PETSc-AMG-CG.mpiaij.fixedNORM,Odyssey,3,144,v2406-PETSc-AMG-CG.mpiaij.fixedNORM,11,1.34,9.68,8.34,0.834
cases/proc_144/cases/v2406-PETSc-AMG-CG.mpiaij.fixedNORM.caching,Odyssey,3,144,v2406-PETSc-AMG-CG.mpiaij.fixedNORM.caching,11,1.16,6.61,5.45,0.545
cases/proc_144/cases/v2406-PETSc-AMG-CG.mpiaij.fixedNORM.caching,Odyssey,3,144,v2406-PETSc-AMG-CG.mpiaij.fixedNORM.caching,11,1.17,6.63,5.46,0.546
cases/proc_144/cases/v2406-PETSc-AMG-CG.mpiaij.fixedNORM.caching,Odyssey,3,144,v2406-PETSc-AMG-CG.mpiaij.fixedNORM.caching,11,1.19,6.65,5.46,0.546
cases/proc_144/cases/v2406-PETSc-AMG-CG.mpiaij.fixedNORM.caching,Odyssey,3,144,v2406-PETSc-AMG-CG.mpiaij.fixedNORM.caching,11,1.2,6.66,5.46,0.546
cases/proc_144/cases/v2406-PETSc-AMG-CG.mpiaij.fixedNORM.caching,Odyssey,3,144,v2406-PETSc-AMG-CG.mpiaij.fixedNORM.caching,11,1.21,6.67,5.46,0.546
cases/proc_144/cases/v2406-PETSc-ICC-CG.mpiaij.fixedNORM,Odyssey,3,144,v2406-PETSc-ICC-CG.mpiaij.fixedNORM,11,1.42,10.41,8.99,0.899
cases/proc_144/cases/v2406-PETSc-ICC-CG.mpiaij.fixedNORM,Odyssey,3,144,v2406-PETSc-ICC-CG.mpiaij.fixedNORM,11,1.43,10.42,8.99,0.899
cases/proc_144/cases/v2406-PETSc-ICC-CG.mpiaij.fixedNORM,Odyssey,3,144,v2406-PETSc-ICC-CG.mpiaij.fixedNORM,11,1.44,10.38,8.94,0.894
cases/proc_144/cases/v2406-PETSc-ICC-CG.mpiaij.fixedNORM,Odyssey,3,144,v2406-PETSc-ICC-CG.mpiaij.fixedNORM,11,1.46,10.45,8.99,0.899
cases/proc_144/cases/v2406-PETSc-ICC-CG.mpiaij.fixedNORM,Odyssey,3,144,v2406-PETSc-ICC-CG.mpiaij.fixedNORM,11,1.48,10.45,8.97,0.897
cases/proc_192/cases/v2406-FOAM-DIC-PCG.fixedNORM,Odyssey,4,192,v2406-FOAM-DIC-PCG.fixedNORM,11,0.68,3.56,2.88,0.288
cases/proc_192/cases/v2406-FOAM-DIC-PCG.fixedNORM,Odyssey,4,192,v2406-FOAM-DIC-PCG.fixedNORM,11,0.68,3.57,2.89,0.289
cases/proc_192/cases/v2406-FOAM-DIC-PCG.fixedNORM,Odyssey,4,192,v2406-FOAM-DIC-PCG.fixedNORM,11,0.69,3.54,2.85,0.285
cases/proc_192/cases/v2406-FOAM-DIC-PCG.fixedNORM,Odyssey,4,192,v2406-FOAM-DIC-PCG.fixedNORM,11,0.71,3.56,2.85,0.285
cases/proc_192/cases/v2406-FOAM-DIC-PCG.fixedNORM,Odyssey,4,192,v2406-FOAM-DIC-PCG.fixedNORM,11,0.86,3.73,2.87,0.287
cases/proc_192/cases/v2406-FOAM-GAMG-PCG.fixedNORM,Odyssey,4,192,v2406-FOAM-GAMG-PCG.fixedNORM,11,3.6,33.04,29.44,2.944
cases/proc_192/cases/v2406-FOAM-GAMG-PCG.fixedNORM,Odyssey,4,192,v2406-FOAM-GAMG-PCG.fixedNORM,11,3.61,33.12,29.51,2.951
cases/proc_192/cases/v2406-FOAM-GAMG-PCG.fixedNORM,Odyssey,4,192,v2406-FOAM-GAMG-PCG.fixedNORM,11,3.63,32.81,29.18,2.918
cases/proc_192/cases/v2406-FOAM-GAMG-PCG.fixedNORM,Odyssey,4,192,v2406-FOAM-GAMG-PCG.fixedNORM,11,3.64,32.89,29.25,2.925
cases/proc_192/cases/v2406-FOAM-GAMG-PCG.fixedNORM,Odyssey,4,192,v2406-FOAM-GAMG-PCG.fixedNORM,11,3.72,33.16,29.44,2.944
cases/proc_192/cases/v2406-PETSc-AMG-CG.mpiaij.fixedNORM,Odyssey,4,192,v2406-PETSc-AMG-CG.mpiaij.fixedNORM,11,1.29,9.61,8.32,0.832
cases/proc_192/cases/v2406-PETSc-AMG-CG.mpiaij.fixedNORM,Odyssey,4,192,v2406-PETSc-AMG-CG.mpiaij.fixedNORM,11,1.32,9.64,8.32,0.832
cases/proc_192/cases/v2406-PETSc-AMG-CG.mpiaij.fixedNORM,Odyssey,4,192,v2406-PETSc-AMG-CG.mpiaij.fixedNORM,11,1.37,9.67,8.3,0.83
cases/proc_192/cases/v2406-PETSc-AMG-CG.mpiaij.fixedNORM,Odyssey,4,192,v2406-PETSc-AMG-CG.mpiaij.fixedNORM,11,1.42,9.74,8.32,0.832
cases/proc_192/cases/v2406-PETSc-AMG-CG.mpiaij.fixedNORM,Odyssey,4,192,v2406-PETSc-AMG-CG.mpiaij.fixedNORM,11,1.43,9.72,8.29,0.829
cases/proc_192/cases/v2406-PETSc-AMG-CG.mpiaij.fixedNORM.caching,Odyssey,4,192,v2406-PETSc-AMG-CG.mpiaij.fixedNORM.caching,11,1.16,6.29,5.13,0.513
cases/proc_192/cases/v2406-PETSc-AMG-CG.mpiaij.fixedNORM.caching,Odyssey,4,192,v2406-PETSc-AMG-CG.mpiaij.fixedNORM.caching,11,1.17,6.31,5.14,0.514
cases/proc_192/cases/v2406-PETSc-AMG-CG.mpiaij.fixedNORM.caching,Odyssey,4,192,v2406-PETSc-AMG-CG.mpiaij.fixedNORM.caching,11,1.19,6.33,5.14,0.514
cases/proc_192/cases/v2406-PETSc-AMG-CG.mpiaij.fixedNORM.caching,Odyssey,4,192,v2406-PETSc-AMG-CG.mpiaij.fixedNORM.caching,11,1.2,6.31,5.11,0.511
cases/proc_192/cases/v2406-PETSc-AMG-CG.mpiaij.fixedNORM.caching,Odyssey,4,192,v2406-PETSc-AMG-CG.mpiaij.fixedNORM.caching,11,1.21,6.37,5.16,0.516
cases/proc_192/cases/v2406-PETSc-ICC-CG.mpiaij.fixedNORM,Odyssey,4,192,v2406-PETSc-ICC-CG.mpiaij.fixedNORM,11,1.24,7.78,6.54,0.654
cases/proc_192/cases/v2406-PETSc-ICC-CG.mpiaij.fixedNORM,Odyssey,4,192,v2406-PETSc-ICC-CG.mpiaij.fixedNORM,11,1.26,7.83,6.57,0.657
cases/proc_192/cases/v2406-PETSc-ICC-CG.mpiaij.fixedNORM,Odyssey,4,192,v2406-PETSc-ICC-CG.mpiaij.fixedNORM,11,1.29,7.85,6.56,0.656
cases/proc_192/cases/v2406-PETSc-ICC-CG.mpiaij.fixedNORM,Odyssey,4,192,v2406-PETSc-ICC-CG.mpiaij.fixedNORM,11,1.35,7.89,6.54,0.654
cases/proc_192/cases/v2406-PETSc-ICC-CG.mpiaij.fixedNORM,Odyssey,4,192,v2406-PETSc-ICC-CG.mpiaij.fixedNORM,11,1.36,7.9,6.54,0.654
cases/proc_288/cases/v2406-FOAM-DIC-PCG.fixedNORM,Odyssey,6,288,v2406-FOAM-DIC-PCG.fixedNORM,11,0.63,2.92,2.29,0.229
cases/proc_288/cases/v2406-FOAM-DIC-PCG.fixedNORM,Odyssey,6,288,v2406-FOAM-DIC-PCG.fixedNORM,11,0.65,2.94,2.29,0.229
cases/proc_288/cases/v2406-FOAM-DIC-PCG.fixedNORM,Odyssey,6,288,v2406-FOAM-DIC-PCG.fixedNORM,11,0.69,2.99,2.3,0.23
cases/proc_288/cases/v2406-FOAM-DIC-PCG.fixedNORM,Odyssey,6,288,v2406-FOAM-DIC-PCG.fixedNORM,11,0.7,2.97,2.27,0.227
cases/proc_288/cases/v2406-FOAM-DIC-PCG.fixedNORM,Odyssey,6,288,v2406-FOAM-DIC-PCG.fixedNORM,11,0.85,3.14,2.29,0.229
cases/proc_288/cases/v2406-FOAM-GAMG-PCG.fixedNORM,Odyssey,6,288,v2406-FOAM-GAMG-PCG.fixedNORM,11,3.77,32.14,28.37,2.837
cases/proc_288/cases/v2406-FOAM-GAMG-PCG.fixedNORM,Odyssey,6,288,v2406-FOAM-GAMG-PCG.fixedNORM,11,3.79,32.36,28.57,2.857
cases/proc_288/cases/v2406-FOAM-GAMG-PCG.fixedNORM,Odyssey,6,288,v2406-FOAM-GAMG-PCG.fixedNORM,11,3.79,32.46,28.67,2.867
cases/proc_288/cases/v2406-FOAM-GAMG-PCG.fixedNORM,Odyssey,6,288,v2406-FOAM-GAMG-PCG.fixedNORM,11,3.8,32.43,28.63,2.863
cases/proc_288/cases/v2406-FOAM-GAMG-PCG.fixedNORM,Odyssey,6,288,v2406-FOAM-GAMG-PCG.fixedNORM,11,3.8,32.53,28.73,2.873
cases/proc_288/cases/v2406-PETSc-AMG-CG.mpiaij.fixedNORM,Odyssey,6,288,v2406-PETSc-AMG-CG.mpiaij.fixedNORM,11,1.36,9.32,7.96,0.796
cases/proc_288/cases/v2406-PETSc-AMG-CG.mpiaij.fixedNORM,Odyssey,6,288,v2406-PETSc-AMG-CG.mpiaij.fixedNORM,11,1.38,9.34,7.96,0.796
cases/proc_288/cases/v2406-PETSc-AMG-CG.mpiaij.fixedNORM,Odyssey,6,288,v2406-PETSc-AMG-CG.mpiaij.fixedNORM,11,1.39,9.36,7.97,0.797
cases/proc_288/cases/v2406-PETSc-AMG-CG.mpiaij.fixedNORM,Odyssey,6,288,v2406-PETSc-AMG-CG.mpiaij.fixedNORM,11,1.39,9.38,7.99,0.799
cases/proc_288/cases/v2406-PETSc-AMG-CG.mpiaij.fixedNORM,Odyssey,6,288,v2406-PETSc-AMG-CG.mpiaij.fixedNORM,11,1.7,9.64,7.94,0.794
cases/proc_288/cases/v2406-PETSc-AMG-CG.mpiaij.fixedNORM.caching,Odyssey,6,288,v2406-PETSc-AMG-CG.mpiaij.fixedNORM.caching,11,1.16,5.59,4.43,0.443
cases/proc_288/cases/v2406-PETSc-AMG-CG.mpiaij.fixedNORM.caching,Odyssey,6,288,v2406-PETSc-AMG-CG.mpiaij.fixedNORM.caching,11,1.2,5.62,4.42,0.442
cases/proc_288/cases/v2406-PETSc-AMG-CG.mpiaij.fixedNORM.caching,Odyssey,6,288,v2406-PETSc-AMG-CG.mpiaij.fixedNORM.caching,11,1.2,5.63,4.43,0.443
cases/proc_288/cases/v2406-PETSc-AMG-CG.mpiaij.fixedNORM.caching,Odyssey,6,288,v2406-PETSc-AMG-CG.mpiaij.fixedNORM.caching,11,1.24,5.64,4.4,0.44
cases/proc_288/cases/v2406-PETSc-AMG-CG.mpiaij.fixedNORM.caching,Odyssey,6,288,v2406-PETSc-AMG-CG.mpiaij.fixedNORM.caching,11,1.28,5.72,4.44,0.444
cases/proc_288/cases/v2406-PETSc-ICC-CG.mpiaij.fixedNORM,Odyssey,6,288,v2406-PETSc-ICC-CG.mpiaij.fixedNORM,11,1.11,6.56,5.45,0.545
cases/proc_288/cases/v2406-PETSc-ICC-CG.mpiaij.fixedNORM,Odyssey,6,288,v2406-PETSc-ICC-CG.mpiaij.fixedNORM,11,1.14,6.57,5.43,0.543
cases/proc_288/cases/v2406-PETSc-ICC-CG.mpiaij.fixedNORM,Odyssey,6,288,v2406-PETSc-ICC-CG.mpiaij.fixedNORM,11,1.17,6.62,5.45,0.545
cases/proc_288/cases/v2406-PETSc-ICC-CG.mpiaij.fixedNORM,Odyssey,6,288,v2406-PETSc-ICC-CG.mpiaij.fixedNORM,11,1.19,6.66,5.47,0.547
cases/proc_288/cases/v2406-PETSc-ICC-CG.mpiaij.fixedNORM,Odyssey,6,288,v2406-PETSc-ICC-CG.mpiaij.fixedNORM,11,1.21,6.65,5.44,0.544
cases/proc_384/cases/v2406-FOAM-DIC-PCG.fixedNORM,Odyssey,8,384,v2406-FOAM-DIC-PCG.fixedNORM,11,0.64,2.73,2.09,0.209
cases/proc_384/cases/v2406-FOAM-DIC-PCG.fixedNORM,Odyssey,8,384,v2406-FOAM-DIC-PCG.fixedNORM,11,0.65,2.74,2.09,0.209
cases/proc_384/cases/v2406-FOAM-DIC-PCG.fixedNORM,Odyssey,8,384,v2406-FOAM-DIC-PCG.fixedNORM,11,0.65,2.75,2.1,0.21
cases/proc_384/cases/v2406-FOAM-DIC-PCG.fixedNORM,Odyssey,8,384,v2406-FOAM-DIC-PCG.fixedNORM,11,0.68,2.76,2.08,0.208
cases/proc_384/cases/v2406-FOAM-DIC-PCG.fixedNORM,Odyssey,8,384,v2406-FOAM-DIC-PCG.fixedNORM,11,0.69,2.79,2.1,0.21
cases/proc_384/cases/v2406-FOAM-GAMG-PCG.fixedNORM,Odyssey,8,384,v2406-FOAM-GAMG-PCG.fixedNORM,11,3.47,29.47,26,2.6
cases/proc_384/cases/v2406-FOAM-GAMG-PCG.fixedNORM,Odyssey,8,384,v2406-FOAM-GAMG-PCG.fixedNORM,11,3.48,29.51,26.03,2.603
cases/proc_384/cases/v2406-FOAM-GAMG-PCG.fixedNORM,Odyssey,8,384,v2406-FOAM-GAMG-PCG.fixedNORM,11,3.48,29.52,26.04,2.604
cases/proc_384/cases/v2406-FOAM-GAMG-PCG.fixedNORM,Odyssey,8,384,v2406-FOAM-GAMG-PCG.fixedNORM,11,3.5,29.64,26.14,2.614
cases/proc_384/cases/v2406-FOAM-GAMG-PCG.fixedNORM,Odyssey,8,384,v2406-FOAM-GAMG-PCG.fixedNORM,11,3.54,29.98,26.44,2.644
cases/proc_384/cases/v2406-PETSc-AMG-CG.mpiaij.fixedNORM,Odyssey,8,384,v2406-PETSc-AMG-CG.mpiaij.fixedNORM,11,1.47,10.02,8.55,0.855
cases/proc_384/cases/v2406-PETSc-AMG-CG.mpiaij.fixedNORM,Odyssey,8,384,v2406-PETSc-AMG-CG.mpiaij.fixedNORM,11,1.47,9.95,8.48,0.848
cases/proc_384/cases/v2406-PETSc-AMG-CG.mpiaij.fixedNORM,Odyssey,8,384,v2406-PETSc-AMG-CG.mpiaij.fixedNORM,11,1.48,10.02,8.54,0.854
cases/proc_384/cases/v2406-PETSc-AMG-CG.mpiaij.fixedNORM,Odyssey,8,384,v2406-PETSc-AMG-CG.mpiaij.fixedNORM,11,1.51,10.02,8.51,0.851
cases/proc_384/cases/v2406-PETSc-AMG-CG.mpiaij.fixedNORM,Odyssey,8,384,v2406-PETSc-AMG-CG.mpiaij.fixedNORM,11,1.52,10.03,8.51,0.851
cases/proc_384/cases/v2406-PETSc-AMG-CG.mpiaij.fixedNORM.caching,Odyssey,8,384,v2406-PETSc-AMG-CG.mpiaij.fixedNORM.caching,11,1.28,5.98,4.7,0.47
cases/proc_384/cases/v2406-PETSc-AMG-CG.mpiaij.fixedNORM.caching,Odyssey,8,384,v2406-PETSc-AMG-CG.mpiaij.fixedNORM.caching,11,1.3,5.99,4.69,0.469
cases/proc_384/cases/v2406-PETSc-AMG-CG.mpiaij.fixedNORM.caching,Odyssey,8,384,v2406-PETSc-AMG-CG.mpiaij.fixedNORM.caching,11,1.32,6.04,4.72,0.472
cases/proc_384/cases/v2406-PETSc-AMG-CG.mpiaij.fixedNORM.caching,Odyssey,8,384,v2406-PETSc-AMG-CG.mpiaij.fixedNORM.caching,11,1.33,6.04,4.71,0.471
cases/proc_384/cases/v2406-PETSc-AMG-CG.mpiaij.fixedNORM.caching,Odyssey,8,384,v2406-PETSc-AMG-CG.mpiaij.fixedNORM.caching,11,1.49,6.22,4.73,0.473
cases/proc_384/cases/v2406-PETSc-ICC-CG.mpiaij.fixedNORM,Odyssey,8,384,v2406-PETSc-ICC-CG.mpiaij.fixedNORM,11,1.01,5.95,4.94,0.494
cases/proc_384/cases/v2406-PETSc-ICC-CG.mpiaij.fixedNORM,Odyssey,8,384,v2406-PETSc-ICC-CG.mpiaij.fixedNORM,11,1.06,6.01,4.95,0.495
cases/proc_384/cases/v2406-PETSc-ICC-CG.mpiaij.fixedNORM,Odyssey,8,384,v2406-PETSc-ICC-CG.mpiaij.fixedNORM,11,1.08,6.03,4.95,0.495
cases/proc_384/cases/v2406-PETSc-ICC-CG.mpiaij.fixedNORM,Odyssey,8,384,v2406-PETSc-ICC-CG.mpiaij.fixedNORM,11,1.11,6.06,4.95,0.495
cases/proc_384/cases/v2406-PETSc-ICC-CG.mpiaij.fixedNORM,Odyssey,8,384,v2406-PETSc-ICC-CG.mpiaij.fixedNORM,11,1.35,6.28,4.93,0.493
cases/proc_576/cases/v2406-FOAM-DIC-PCG.fixedNORM,Odyssey,12,576,v2406-FOAM-DIC-PCG.fixedNORM,11,0.7,2.22,1.52,0.152
cases/proc_576/cases/v2406-FOAM-DIC-PCG.fixedNORM,Odyssey,12,576,v2406-FOAM-DIC-PCG.fixedNORM,11,0.71,2.23,1.52,0.152
cases/proc_576/cases/v2406-FOAM-DIC-PCG.fixedNORM,Odyssey,12,576,v2406-FOAM-DIC-PCG.fixedNORM,11,0.74,2.26,1.52,0.152
cases/proc_576/cases/v2406-FOAM-DIC-PCG.fixedNORM,Odyssey,12,576,v2406-FOAM-DIC-PCG.fixedNORM,11,0.76,2.28,1.52,0.152
cases/proc_576/cases/v2406-FOAM-DIC-PCG.fixedNORM,Odyssey,12,576,v2406-FOAM-DIC-PCG.fixedNORM,11,0.77,2.28,1.51,0.151
cases/proc_576/cases/v2406-FOAM-GAMG-PCG.fixedNORM,Odyssey,12,576,v2406-FOAM-GAMG-PCG.fixedNORM,11,3.81,30.09,26.28,2.628
cases/proc_576/cases/v2406-FOAM-GAMG-PCG.fixedNORM,Odyssey,12,576,v2406-FOAM-GAMG-PCG.fixedNORM,11,3.82,30.17,26.35,2.635
cases/proc_576/cases/v2406-FOAM-GAMG-PCG.fixedNORM,Odyssey,12,576,v2406-FOAM-GAMG-PCG.fixedNORM,11,3.82,30.25,26.43,2.643
cases/proc_576/cases/v2406-FOAM-GAMG-PCG.fixedNORM,Odyssey,12,576,v2406-FOAM-GAMG-PCG.fixedNORM,11,3.84,30.41,26.57,2.657
cases/proc_576/cases/v2406-FOAM-GAMG-PCG.fixedNORM,Odyssey,12,576,v2406-FOAM-GAMG-PCG.fixedNORM,11,3.85,30.2,26.35,2.635
cases/proc_576/cases/v2406-PETSc-AMG-CG.mpiaij.fixedNORM,Odyssey,12,576,v2406-PETSc-AMG-CG.mpiaij.fixedNORM,11,1.56,9.79,8.23,0.823
cases/proc_576/cases/v2406-PETSc-AMG-CG.mpiaij.fixedNORM,Odyssey,12,576,v2406-PETSc-AMG-CG.mpiaij.fixedNORM,11,1.56,9.81,8.25,0.825
cases/proc_576/cases/v2406-PETSc-AMG-CG.mpiaij.fixedNORM,Odyssey,12,576,v2406-PETSc-AMG-CG.mpiaij.fixedNORM,11,1.59,9.85,8.26,0.826
cases/proc_576/cases/v2406-PETSc-AMG-CG.mpiaij.fixedNORM,Odyssey,12,576,v2406-PETSc-AMG-CG.mpiaij.fixedNORM,11,1.61,9.86,8.25,0.825
cases/proc_576/cases/v2406-PETSc-AMG-CG.mpiaij.fixedNORM,Odyssey,12,576,v2406-PETSc-AMG-CG.mpiaij.fixedNORM,11,1.73,9.97,8.24,0.824
cases/proc_576/cases/v2406-PETSc-AMG-CG.mpiaij.fixedNORM.caching,Odyssey,12,576,v2406-PETSc-AMG-CG.mpiaij.fixedNORM.caching,11,1.37,5.55,4.18,0.418
cases/proc_576/cases/v2406-PETSc-AMG-CG.mpiaij.fixedNORM.caching,Odyssey,12,576,v2406-PETSc-AMG-CG.mpiaij.fixedNORM.caching,11,1.39,5.6,4.21,0.421
cases/proc_576/cases/v2406-PETSc-AMG-CG.mpiaij.fixedNORM.caching,Odyssey,12,576,v2406-PETSc-AMG-CG.mpiaij.fixedNORM.caching,11,1.39,5.6,4.21,0.421
cases/proc_576/cases/v2406-PETSc-AMG-CG.mpiaij.fixedNORM.caching,Odyssey,12,576,v2406-PETSc-AMG-CG.mpiaij.fixedNORM.caching,11,1.41,5.65,4.24,0.424
cases/proc_576/cases/v2406-PETSc-AMG-CG.mpiaij.fixedNORM.caching,Odyssey,12,576,v2406-PETSc-AMG-CG.mpiaij.fixedNORM.caching,11,1.45,5.69,4.24,0.424
cases/proc_576/cases/v2406-PETSc-ICC-CG.mpiaij.fixedNORM,Odyssey,12,576,v2406-PETSc-ICC-CG.mpiaij.fixedNORM,11,0.99,4.36,3.37,0.337
cases/proc_576/cases/v2406-PETSc-ICC-CG.mpiaij.fixedNORM,Odyssey,12,576,v2406-PETSc-ICC-CG.mpiaij.fixedNORM,11,1.01,4.39,3.38,0.338
cases/proc_576/cases/v2406-PETSc-ICC-CG.mpiaij.fixedNORM,Odyssey,12,576,v2406-PETSc-ICC-CG.mpiaij.fixedNORM,11,1.03,4.42,3.39,0.339
cases/proc_576/cases/v2406-PETSc-ICC-CG.mpiaij.fixedNORM,Odyssey,12,576,v2406-PETSc-ICC-CG.mpiaij.fixedNORM,11,1.05,4.44,3.39,0.339
cases/proc_576/cases/v2406-PETSc-ICC-CG.mpiaij.fixedNORM,Odyssey,12,576,v2406-PETSc-ICC-CG.mpiaij.fixedNORM,11,1.33,4.69,3.36,0.336
cases/proc_1152/cases/v2406-FOAM-DIC-PCG.fixedNORM,Odyssey,24,1152,v2406-FOAM-DIC-PCG.fixedNORM,11,1.02,2.12,1.1,0.11
cases/proc_1152/cases/v2406-FOAM-DIC-PCG.fixedNORM,Odyssey,24,1152,v2406-FOAM-DIC-PCG.fixedNORM,11,1.02,2.13,1.11,0.111
cases/proc_1152/cases/v2406-FOAM-DIC-PCG.fixedNORM,Odyssey,24,1152,v2406-FOAM-DIC-PCG.fixedNORM,11,1.04,2.15,1.11,0.111
cases/proc_1152/cases/v2406-FOAM-DIC-PCG.fixedNORM,Odyssey,24,1152,v2406-FOAM-DIC-PCG.fixedNORM,11,1.05,2.16,1.11,0.111
cases/proc_1152/cases/v2406-FOAM-DIC-PCG.fixedNORM,Odyssey,24,1152,v2406-FOAM-DIC-PCG.fixedNORM,11,1.09,2.2,1.11,0.111
cases/proc_1152/cases/v2406-FOAM-GAMG-PCG.fixedNORM,Odyssey,24,1152,v2406-FOAM-GAMG-PCG.fixedNORM,11,3.66,26.16,22.5,2.25
cases/proc_1152/cases/v2406-FOAM-GAMG-PCG.fixedNORM,Odyssey,24,1152,v2406-FOAM-GAMG-PCG.fixedNORM,11,3.68,26.15,22.47,2.247
cases/proc_1152/cases/v2406-FOAM-GAMG-PCG.fixedNORM,Odyssey,24,1152,v2406-FOAM-GAMG-PCG.fixedNORM,11,3.7,26.26,22.56,2.256
cases/proc_1152/cases/v2406-FOAM-GAMG-PCG.fixedNORM,Odyssey,24,1152,v2406-FOAM-GAMG-PCG.fixedNORM,11,3.72,26.25,22.53,2.253
cases/proc_1152/cases/v2406-FOAM-GAMG-PCG.fixedNORM,Odyssey,24,1152,v2406-FOAM-GAMG-PCG.fixedNORM,11,3.74,26.21,22.47,2.247
cases/proc_1152/cases/v2406-PETSc-AMG-CG.mpiaij.fixedNORM,Odyssey,24,1152,v2406-PETSc-AMG-CG.mpiaij.fixedNORM,11,1.93,10.06,8.13,0.813
cases/proc_1152/cases/v2406-PETSc-AMG-CG.mpiaij.fixedNORM,Odyssey,24,1152,v2406-PETSc-AMG-CG.mpiaij.fixedNORM,11,1.97,10.03,8.06,0.806
cases/proc_1152/cases/v2406-PETSc-AMG-CG.mpiaij.fixedNORM,Odyssey,24,1152,v2406-PETSc-AMG-CG.mpiaij.fixedNORM,11,1.99,10.09,8.1,0.81
cases/proc_1152/cases/v2406-PETSc-AMG-CG.mpiaij.fixedNORM,Odyssey,24,1152,v2406-PETSc-AMG-CG.mpiaij.fixedNORM,11,2.02,10.12,8.1,0.81
cases/proc_1152/cases/v2406-PETSc-AMG-CG.mpiaij.fixedNORM,Odyssey,24,1152,v2406-PETSc-AMG-CG.mpiaij.fixedNORM,11,2.08,10.14,8.06,0.806
cases/proc_1152/cases/v2406-PETSc-AMG-CG.mpiaij.fixedNORM.caching,Odyssey,24,1152,v2406-PETSc-AMG-CG.mpiaij.fixedNORM.caching,11,1.76,5.7,3.94,0.394
cases/proc_1152/cases/v2406-PETSc-AMG-CG.mpiaij.fixedNORM.caching,Odyssey,24,1152,v2406-PETSc-AMG-CG.mpiaij.fixedNORM.caching,11,1.82,5.77,3.95,0.395
cases/proc_1152/cases/v2406-PETSc-AMG-CG.mpiaij.fixedNORM.caching,Odyssey,24,1152,v2406-PETSc-AMG-CG.mpiaij.fixedNORM.caching,11,1.86,5.86,4,0.4
cases/proc_1152/cases/v2406-PETSc-AMG-CG.mpiaij.fixedNORM.caching,Odyssey,24,1152,v2406-PETSc-AMG-CG.mpiaij.fixedNORM.caching,11,1.88,5.85,3.97,0.397
cases/proc_1152/cases/v2406-PETSc-AMG-CG.mpiaij.fixedNORM.caching,Odyssey,24,1152,v2406-PETSc-AMG-CG.mpiaij.fixedNORM.caching,11,2.09,6.07,3.98,0.398
cases/proc_1152/cases/v2406-PETSc-ICC-CG.mpiaij.fixedNORM,Odyssey,24,1152,v2406-PETSc-ICC-CG.mpiaij.fixedNORM,11,1.24,3.35,2.11,0.211
cases/proc_1152/cases/v2406-PETSc-ICC-CG.mpiaij.fixedNORM,Odyssey,24,1152,v2406-PETSc-ICC-CG.mpiaij.fixedNORM,11,1.25,3.35,2.1,0.21
cases/proc_1152/cases/v2406-PETSc-ICC-CG.mpiaij.fixedNORM,Odyssey,24,1152,v2406-PETSc-ICC-CG.mpiaij.fixedNORM,11,1.29,3.39,2.1,0.21
cases/proc_1152/cases/v2406-PETSc-ICC-CG.mpiaij.fixedNORM,Odyssey,24,1152,v2406-PETSc-ICC-CG.mpiaij.fixedNORM,11,1.32,3.43,2.11,0.211
cases/proc_1152/cases/v2406-PETSc-ICC-CG.mpiaij.fixedNORM,Odyssey,24,1152,v2406-PETSc-ICC-CG.mpiaij.fixedNORM,11,1.35,3.44,2.09,0.209
cases/proc_2304/cases/v2406-FOAM-DIC-PCG.fixedNORM,Odyssey,48,2304,v2406-FOAM-DIC-PCG.fixedNORM,11,6.85,7.83,0.98,0.098
cases/proc_2304/cases/v2406-FOAM-DIC-PCG.fixedNORM,Odyssey,48,2304,v2406-FOAM-DIC-PCG.fixedNORM,11,7.56,8.55,0.99,0.099
cases/proc_2304/cases/v2406-FOAM-DIC-PCG.fixedNORM,Odyssey,48,2304,v2406-FOAM-DIC-PCG.fixedNORM,11,7.57,8.56,0.99,0.099
cases/proc_2304/cases/v2406-FOAM-DIC-PCG.fixedNORM,Odyssey,48,2304,v2406-FOAM-DIC-PCG.fixedNORM,11,7.78,8.78,1,0.1
cases/proc_2304/cases/v2406-FOAM-DIC-PCG.fixedNORM,Odyssey,48,2304,v2406-FOAM-DIC-PCG.fixedNORM,11,7.96,8.95,0.99,0.099
cases/proc_2304/cases/v2406-FOAM-GAMG-PCG.fixedNORM,Odyssey,48,2304,v2406-FOAM-GAMG-PCG.fixedNORM,11,10.31,31.88,21.57,2.157
cases/proc_2304/cases/v2406-FOAM-GAMG-PCG.fixedNORM,Odyssey,48,2304,v2406-FOAM-GAMG-PCG.fixedNORM,11,11.67,34.38,22.71,2.271
cases/proc_2304/cases/v2406-FOAM-GAMG-PCG.fixedNORM,Odyssey,48,2304,v2406-FOAM-GAMG-PCG.fixedNORM,11,12.25,33.75,21.5,2.15
cases/proc_2304/cases/v2406-FOAM-GAMG-PCG.fixedNORM,Odyssey,48,2304,v2406-FOAM-GAMG-PCG.fixedNORM,11,13,35.35,22.35,2.235
cases/proc_2304/cases/v2406-FOAM-GAMG-PCG.fixedNORM,Odyssey,48,2304,v2406-FOAM-GAMG-PCG.fixedNORM,11,9.97,33.11,23.14,2.314
cases/proc_2304/cases/v2406-PETSc-AMG-CG.mpiaij.fixedNORM,Odyssey,48,2304,v2406-PETSc-AMG-CG.mpiaij.fixedNORM,11,10.51,18.95,8.44,0.844
cases/proc_2304/cases/v2406-PETSc-AMG-CG.mpiaij.fixedNORM,Odyssey,48,2304,v2406-PETSc-AMG-CG.mpiaij.fixedNORM,11,6.53,14.97,8.44,0.844
cases/proc_2304/cases/v2406-PETSc-AMG-CG.mpiaij.fixedNORM,Odyssey,48,2304,v2406-PETSc-AMG-CG.mpiaij.fixedNORM,11,6.74,15.16,8.42,0.842
cases/proc_2304/cases/v2406-PETSc-AMG-CG.mpiaij.fixedNORM,Odyssey,48,2304,v2406-PETSc-AMG-CG.mpiaij.fixedNORM,11,8.05,16.47,8.42,0.842
cases/proc_2304/cases/v2406-PETSc-AMG-CG.mpiaij.fixedNORM,Odyssey,48,2304,v2406-PETSc-AMG-CG.mpiaij.fixedNORM,11,8.12,16.51,8.39,0.839
cases/proc_2304/cases/v2406-PETSc-AMG-CG.mpiaij.fixedNORM.caching,Odyssey,48,2304,v2406-PETSc-AMG-CG.mpiaij.fixedNORM.caching,11,10.58,14.24,3.66,0.366
cases/proc_2304/cases/v2406-PETSc-AMG-CG.mpiaij.fixedNORM.caching,Odyssey,48,2304,v2406-PETSc-AMG-CG.mpiaij.fixedNORM.caching,11,7.28,10.98,3.7,0.37
cases/proc_2304/cases/v2406-PETSc-AMG-CG.mpiaij.fixedNORM.caching,Odyssey,48,2304,v2406-PETSc-AMG-CG.mpiaij.fixedNORM.caching,11,7.79,11.5,3.71,0.371
cases/proc_2304/cases/v2406-PETSc-AMG-CG.mpiaij.fixedNORM.caching,Odyssey,48,2304,v2406-PETSc-AMG-CG.mpiaij.fixedNORM.caching,11,8.23,11.91,3.68,0.368
cases/proc_2304/cases/v2406-PETSc-AMG-CG.mpiaij.fixedNORM.caching,Odyssey,48,2304,v2406-PETSc-AMG-CG.mpiaij.fixedNORM.caching,11,9.14,12.84,3.7,0.37
cases/proc_2304/cases/v2406-PETSc-ICC-CG.mpiaij.fixedNORM,Odyssey,48,2304,v2406-PETSc-ICC-CG.mpiaij.fixedNORM,11,5.57,7.1,1.53,0.153
cases/proc_2304/cases/v2406-PETSc-ICC-CG.mpiaij.fixedNORM,Odyssey,48,2304,v2406-PETSc-ICC-CG.mpiaij.fixedNORM,11,5.61,7.14,1.53,0.153
cases/proc_2304/cases/v2406-PETSc-ICC-CG.mpiaij.fixedNORM,Odyssey,48,2304,v2406-PETSc-ICC-CG.mpiaij.fixedNORM,11,7.04,8.59,1.55,0.155
cases/proc_2304/cases/v2406-PETSc-ICC-CG.mpiaij.fixedNORM,Odyssey,48,2304,v2406-PETSc-ICC-CG.mpiaij.fixedNORM,11,7.55,9.08,1.53,0.153
cases/proc_2304/cases/v2406-PETSc-ICC-CG.mpiaij.fixedNORM,Odyssey,48,2304,v2406-PETSc-ICC-CG.mpiaij.fixedNORM,11,7.95,9.48,1.53,0.153
cases/proc_4608/cases/v2406-FOAM-DIC-PCG.fixedNORM,Odyssey,96,4608,v2406-FOAM-DIC-PCG.fixedNORM,11,133.9,134.96,1.06,0.106
cases/proc_4608/cases/v2406-FOAM-DIC-PCG.fixedNORM,Odyssey,96,4608,v2406-FOAM-DIC-PCG.fixedNORM,11,137.2,138.26,1.06,0.106
cases/proc_4608/cases/v2406-FOAM-DIC-PCG.fixedNORM,Odyssey,96,4608,v2406-FOAM-DIC-PCG.fixedNORM,11,138.89,139.95,1.06,0.106
cases/proc_4608/cases/v2406-FOAM-DIC-PCG.fixedNORM,Odyssey,96,4608,v2406-FOAM-DIC-PCG.fixedNORM,11,143.4,144.46,1.06,0.106
cases/proc_4608/cases/v2406-FOAM-DIC-PCG.fixedNORM,Odyssey,96,4608,v2406-FOAM-DIC-PCG.fixedNORM,11,144.89,145.96,1.07,0.107
cases/proc_4608/cases/v2406-FOAM-GAMG-PCG.fixedNORM,Odyssey,96,4608,v2406-FOAM-GAMG-PCG.fixedNORM,11,132.51,154.09,21.58,2.158
cases/proc_4608/cases/v2406-FOAM-GAMG-PCG.fixedNORM,Odyssey,96,4608,v2406-FOAM-GAMG-PCG.fixedNORM,11,146.71,168.79,22.08,2.208
cases/proc_4608/cases/v2406-FOAM-GAMG-PCG.fixedNORM,Odyssey,96,4608,v2406-FOAM-GAMG-PCG.fixedNORM,11,147.53,169.18,21.65,2.165
cases/proc_4608/cases/v2406-FOAM-GAMG-PCG.fixedNORM,Odyssey,96,4608,v2406-FOAM-GAMG-PCG.fixedNORM,11,147.66,169.84,22.18,2.218
cases/proc_4608/cases/v2406-FOAM-GAMG-PCG.fixedNORM,Odyssey,96,4608,v2406-FOAM-GAMG-PCG.fixedNORM,11,150.06,172.56,22.5,2.25
cases/proc_4608/cases/v2406-PETSc-AMG-CG.mpiaij.fixedNORM,Odyssey,96,4608,v2406-PETSc-AMG-CG.mpiaij.fixedNORM,11,134.69,144.59,9.9,0.99
cases/proc_4608/cases/v2406-PETSc-AMG-CG.mpiaij.fixedNORM,Odyssey,96,4608,v2406-PETSc-AMG-CG.mpiaij.fixedNORM,11,140.24,150.13,9.89,0.989
cases/proc_4608/cases/v2406-PETSc-AMG-CG.mpiaij.fixedNORM,Odyssey,96,4608,v2406-PETSc-AMG-CG.mpiaij.fixedNORM,11,145.36,155.28,9.92,0.992
cases/proc_4608/cases/v2406-PETSc-AMG-CG.mpiaij.fixedNORM,Odyssey,96,4608,v2406-PETSc-AMG-CG.mpiaij.fixedNORM,11,145.54,155.46,9.92,0.992
cases/proc_4608/cases/v2406-PETSc-AMG-CG.mpiaij.fixedNORM,Odyssey,96,4608,v2406-PETSc-AMG-CG.mpiaij.fixedNORM,11,149.78,159.67,9.89,0.989
cases/proc_4608/cases/v2406-PETSc-AMG-CG.mpiaij.fixedNORM.caching,Odyssey,96,4608,v2406-PETSc-AMG-CG.mpiaij.fixedNORM.caching,11,133,136.9,3.9,0.39
cases/proc_4608/cases/v2406-PETSc-AMG-CG.mpiaij.fixedNORM.caching,Odyssey,96,4608,v2406-PETSc-AMG-CG.mpiaij.fixedNORM.caching,11,137.89,141.77,3.88,0.388
cases/proc_4608/cases/v2406-PETSc-AMG-CG.mpiaij.fixedNORM.caching,Odyssey,96,4608,v2406-PETSc-AMG-CG.mpiaij.fixedNORM.caching,11,143.51,147.36,3.85,0.385
cases/proc_4608/cases/v2406-PETSc-AMG-CG.mpiaij.fixedNORM.caching,Odyssey,96,4608,v2406-PETSc-AMG-CG.mpiaij.fixedNORM.caching,11,144.29,148.16,3.87,0.387
cases/proc_4608/cases/v2406-PETSc-AMG-CG.mpiaij.fixedNORM.caching,Odyssey,96,4608,v2406-PETSc-AMG-CG.mpiaij.fixedNORM.caching,11,148.3,152.15,3.85,0.385
cases/proc_4608/cases/v2406-PETSc-ICC-CG.mpiaij.fixedNORM,Odyssey,96,4608,v2406-PETSc-ICC-CG.mpiaij.fixedNORM,11,135.27,136.79,1.52,0.152
cases/proc_4608/cases/v2406-PETSc-ICC-CG.mpiaij.fixedNORM,Odyssey,96,4608,v2406-PETSc-ICC-CG.mpiaij.fixedNORM,11,138.82,140.31,1.49,0.149
cases/proc_4608/cases/v2406-PETSc-ICC-CG.mpiaij.fixedNORM,Odyssey,96,4608,v2406-PETSc-ICC-CG.mpiaij.fixedNORM,11,143.79,145.29,1.5,0.15
cases/proc_4608/cases/v2406-PETSc-ICC-CG.mpiaij.fixedNORM,Odyssey,96,4608,v2406-PETSc-ICC-CG.mpiaij.fixedNORM,11,146.3,147.81,1.51,0.151
cases/proc_4608/cases/v2406-PETSc-ICC-CG.mpiaij.fixedNORM,Odyssey,96,4608,v2406-PETSc-ICC-CG.mpiaij.fixedNORM,11,147.22,148.71,1.49,0.149
