{
    "mesh.sh":
    {
	"mx": [ 120 ],
	"my": [ 65 ],
	"mz": [ 48 ]
    },
    "decomposeParDict.sh":
    {
	"node": [ 1, 2, 4 ],
	"ppn": [ 2 ],
	"method": [ "scotch" ]
    },
    "solver.sh":
    {
	"system": [ "Aquarius" ],
	"OpenFOAM_VERSION": [ "RapidCFD-dev" ],
	"WM_COMPILER_TYPE": [ "system" ],
	"WM_COMPILER": [ "Nvcc11.2Gcc4.8.5", "Nvcc11.2Gcc7.5.0" ],
	"WM_PRECISION_OPTION": [ "DP", "SP" ],
	"WM_LABEL_SIZE": [ 32 ],
	"WM_COMPILE_OPTION": [ "Opt" ],
	"WM_MPLIB": [ "SYSTEMOPENMPI" ],
	"favourSpeedOverMemory":  [ "2" ],
	"fvSolution_solvers_p_relTol": [ 0.05 ],
	"fvSolution_solvers_p_solver": [ "PCG" ],
	"fvSolution_solvers_p_preconditioner": [ "DIC" ],
	"fvSolution_solvers_pFinal_solver": [ "PCG" ],
	"fvSolution_solvers_pFinal_preconditioner": [ "DIC" ],
	"fvSolution_solvers_UFinal_solver": [ "PBiCG" ],
	"fvSolution_solvers_UFinal_preconditioner": [ "DILU" ],
	"gpuDirectTransfer":  [ "0" ],
	"policy": [ "compact", "scatter" ],
	"profiling": [ "" ]
    }
}
