#Value,mx,my,mz,node,ppn,method,system,OpenFOAM_VERSION,WM_COMPILER_TYPE,WM_COMPILER,WM_PRECISION_OPTION,WM_LABEL_SIZE,WM_COMPILE_OPTION,WM_MPLIB,favourSpeedOverMemory,fvSolution_solvers_p_relTol,fvSolution_solvers_p_solver,fvSolution_solvers_p_preconditioner,fvSolution_solvers_pFinal_solver,fvSolution_solvers_pFinal_preconditioner,fvSolution_solvers_UFinal_solver,fvSolution_solvers_UFinal_preconditioner,gpuDirectTransfer,policy,profiling
1.4912,240,130,96,1,1,scotch,share,RapidCFD-dev,system,Nvcc11.2Gcc4.8.5,DP,32,Opt,SYSTEMOPENMPI,2,0.05,PCG,DIC,PCG,DIC,PBiCG,DILU,0,compact,
1.1776,240,130,96,1,1,scotch,share,RapidCFD-dev,system,Nvcc11.2Gcc4.8.5,SP,32,Opt,SYSTEMOPENMPI,2,0.05,PCG,DIC,PCG,DIC,PBiCG,DILU,0,compact,
1.4916,240,130,96,1,1,scotch,share,RapidCFD-dev,system,Nvcc11.2Gcc7.5.0,DP,32,Opt,SYSTEMOPENMPI,2,0.05,PCG,DIC,PCG,DIC,PBiCG,DILU,0,compact,
1.1764,240,130,96,1,1,scotch,share,RapidCFD-dev,system,Nvcc11.2Gcc7.5.0,SP,32,Opt,SYSTEMOPENMPI,2,0.05,PCG,DIC,PCG,DIC,PBiCG,DILU,0,compact,
1.4896,240,130,96,1,1,scotch,share,RapidCFD-dev,system,Nvcc11.2Gcc8.3.1,DP,32,Opt,SYSTEMOPENMPI,2,0.05,PCG,DIC,PCG,DIC,PBiCG,DILU,0,compact,
1.1608,240,130,96,1,1,scotch,share,RapidCFD-dev,system,Nvcc11.2Gcc8.3.1,SP,32,Opt,SYSTEMOPENMPI,2,0.05,PCG,DIC,PCG,DIC,PBiCG,DILU,0,compact,
1.2994,240,130,96,1,2,scotch,share,RapidCFD-dev,system,Nvcc11.2Gcc4.8.5,DP,32,Opt,SYSTEMOPENMPI,2,0.05,PCG,DIC,PCG,DIC,PBiCG,DILU,0,compact,
1.084,240,130,96,1,2,scotch,share,RapidCFD-dev,system,Nvcc11.2Gcc4.8.5,SP,32,Opt,SYSTEMOPENMPI,2,0.05,PCG,DIC,PCG,DIC,PBiCG,DILU,0,compact,
1.2976,240,130,96,1,2,scotch,share,RapidCFD-dev,system,Nvcc11.2Gcc7.5.0,DP,32,Opt,SYSTEMOPENMPI,2,0.05,PCG,DIC,PCG,DIC,PBiCG,DILU,0,compact,
1.0814,240,130,96,1,2,scotch,share,RapidCFD-dev,system,Nvcc11.2Gcc7.5.0,SP,32,Opt,SYSTEMOPENMPI,2,0.05,PCG,DIC,PCG,DIC,PBiCG,DILU,0,compact,
1.306,240,130,96,1,2,scotch,share,RapidCFD-dev,system,Nvcc11.2Gcc8.3.1,DP,32,Opt,SYSTEMOPENMPI,2,0.05,PCG,DIC,PCG,DIC,PBiCG,DILU,0,compact,
1.0888,240,130,96,1,2,scotch,share,RapidCFD-dev,system,Nvcc11.2Gcc8.3.1,SP,32,Opt,SYSTEMOPENMPI,2,0.05,PCG,DIC,PCG,DIC,PBiCG,DILU,0,compact,
1.0794,240,130,96,1,4,scotch,share,RapidCFD-dev,system,Nvcc11.2Gcc4.8.5,DP,32,Opt,SYSTEMOPENMPI,2,0.05,PCG,DIC,PCG,DIC,PBiCG,DILU,0,compact,
0.9448,240,130,96,1,4,scotch,share,RapidCFD-dev,system,Nvcc11.2Gcc4.8.5,SP,32,Opt,SYSTEMOPENMPI,2,0.05,PCG,DIC,PCG,DIC,PBiCG,DILU,0,compact,
1.0804,240,130,96,1,4,scotch,share,RapidCFD-dev,system,Nvcc11.2Gcc7.5.0,DP,32,Opt,SYSTEMOPENMPI,2,0.05,PCG,DIC,PCG,DIC,PBiCG,DILU,0,compact,
0.9372,240,130,96,1,4,scotch,share,RapidCFD-dev,system,Nvcc11.2Gcc7.5.0,SP,32,Opt,SYSTEMOPENMPI,2,0.05,PCG,DIC,PCG,DIC,PBiCG,DILU,0,compact,
1.11,240,130,96,1,4,scotch,share,RapidCFD-dev,system,Nvcc11.2Gcc8.3.1,DP,32,Opt,SYSTEMOPENMPI,2,0.05,PCG,DIC,PCG,DIC,PBiCG,DILU,0,compact,
0.9372,240,130,96,1,4,scotch,share,RapidCFD-dev,system,Nvcc11.2Gcc8.3.1,SP,32,Opt,SYSTEMOPENMPI,2,0.05,PCG,DIC,PCG,DIC,PBiCG,DILU,0,compact,
