#Value,mx,my,mz,node,ppn,method,system,OpenFOAM_VERSION,WM_COMPILER_TYPE,WM_COMPILER,WM_PRECISION_OPTION,WM_LABEL_SIZE,WM_COMPILE_OPTION,WM_MPLIB,favourSpeedOverMemory,fvSolution_solvers_p_relTol,fvSolution_solvers_p_solver,fvSolution_solvers_p_preconditioner,fvSolution_solvers_pFinal_solver,fvSolution_solvers_pFinal_preconditioner,fvSolution_solvers_UFinal_solver,fvSolution_solvers_UFinal_preconditioner,gpuDirectTransfer,policy,profiling
0.3148,120,65,48,1,1,scotch,share,RapidCFD-dev,system,Nvcc11.2Gcc4.8.5,DP,32,Opt,SYSTEMOPENMPI,2,0.05,PCG,DIC,PCG,DIC,PBiCG,DILU,0,compact,
0.3008,120,65,48,1,1,scotch,share,RapidCFD-dev,system,Nvcc11.2Gcc4.8.5,SP,32,Opt,SYSTEMOPENMPI,2,0.05,PCG,DIC,PCG,DIC,PBiCG,DILU,0,compact,
0.3174,120,65,48,1,1,scotch,share,RapidCFD-dev,system,Nvcc11.2Gcc7.5.0,DP,32,Opt,SYSTEMOPENMPI,2,0.05,PCG,DIC,PCG,DIC,PBiCG,DILU,0,compact,
0.3026,120,65,48,1,1,scotch,share,RapidCFD-dev,system,Nvcc11.2Gcc7.5.0,SP,32,Opt,SYSTEMOPENMPI,2,0.05,PCG,DIC,PCG,DIC,PBiCG,DILU,0,compact,
0.3248,120,65,48,1,1,scotch,share,RapidCFD-dev,system,Nvcc11.2Gcc8.3.1,DP,32,Opt,SYSTEMOPENMPI,2,0.05,PCG,DIC,PCG,DIC,PBiCG,DILU,0,compact,
0.3386,120,65,48,1,1,scotch,share,RapidCFD-dev,system,Nvcc11.2Gcc8.3.1,SP,32,Opt,SYSTEMOPENMPI,2,0.05,PCG,DIC,PCG,DIC,PBiCG,DILU,0,compact,
0.3758,120,65,48,1,2,scotch,share,RapidCFD-dev,system,Nvcc11.2Gcc4.8.5,DP,32,Opt,SYSTEMOPENMPI,2,0.05,PCG,DIC,PCG,DIC,PBiCG,DILU,0,compact,
0.3812,120,65,48,1,2,scotch,share,RapidCFD-dev,system,Nvcc11.2Gcc4.8.5,SP,32,Opt,SYSTEMOPENMPI,2,0.05,PCG,DIC,PCG,DIC,PBiCG,DILU,0,compact,
0.3752,120,65,48,1,2,scotch,share,RapidCFD-dev,system,Nvcc11.2Gcc7.5.0,DP,32,Opt,SYSTEMOPENMPI,2,0.05,PCG,DIC,PCG,DIC,PBiCG,DILU,0,compact,
0.3798,120,65,48,1,2,scotch,share,RapidCFD-dev,system,Nvcc11.2Gcc7.5.0,SP,32,Opt,SYSTEMOPENMPI,2,0.05,PCG,DIC,PCG,DIC,PBiCG,DILU,0,compact,
0.374,120,65,48,1,2,scotch,share,RapidCFD-dev,system,Nvcc11.2Gcc8.3.1,DP,32,Opt,SYSTEMOPENMPI,2,0.05,PCG,DIC,PCG,DIC,PBiCG,DILU,0,compact,
0.3794,120,65,48,1,2,scotch,share,RapidCFD-dev,system,Nvcc11.2Gcc8.3.1,SP,32,Opt,SYSTEMOPENMPI,2,0.05,PCG,DIC,PCG,DIC,PBiCG,DILU,0,compact,
0.3898,120,65,48,1,4,scotch,share,RapidCFD-dev,system,Nvcc11.2Gcc4.8.5,DP,32,Opt,SYSTEMOPENMPI,2,0.05,PCG,DIC,PCG,DIC,PBiCG,DILU,0,compact,
0.3926,120,65,48,1,4,scotch,share,RapidCFD-dev,system,Nvcc11.2Gcc4.8.5,SP,32,Opt,SYSTEMOPENMPI,2,0.05,PCG,DIC,PCG,DIC,PBiCG,DILU,0,compact,
0.3882,120,65,48,1,4,scotch,share,RapidCFD-dev,system,Nvcc11.2Gcc7.5.0,DP,32,Opt,SYSTEMOPENMPI,2,0.05,PCG,DIC,PCG,DIC,PBiCG,DILU,0,compact,
0.3946,120,65,48,1,4,scotch,share,RapidCFD-dev,system,Nvcc11.2Gcc7.5.0,SP,32,Opt,SYSTEMOPENMPI,2,0.05,PCG,DIC,PCG,DIC,PBiCG,DILU,0,compact,
0.3874,120,65,48,1,4,scotch,share,RapidCFD-dev,system,Nvcc11.2Gcc8.3.1,DP,32,Opt,SYSTEMOPENMPI,2,0.05,PCG,DIC,PCG,DIC,PBiCG,DILU,0,compact,
0.3936,120,65,48,1,4,scotch,share,RapidCFD-dev,system,Nvcc11.2Gcc8.3.1,SP,32,Opt,SYSTEMOPENMPI,2,0.05,PCG,DIC,PCG,DIC,PBiCG,DILU,0,compact,
