#Value,mx,my,mz,node,ppn,method,system,OpenFOAM_VERSION,WM_COMPILER_TYPE,WM_COMPILER,WM_PRECISION_OPTION,WM_LABEL_SIZE,WM_COMPILE_OPTION,WM_MPLIB,favourSpeedOverMemory,fvSolution_solvers_p_relTol,fvSolution_solvers_p_solver,fvSolution_solvers_p_preconditioner,fvSolution_solvers_pFinal_solver,fvSolution_solvers_pFinal_preconditioner,fvSolution_solvers_UFinal_solver,fvSolution_solvers_UFinal_preconditioner,gpuDirectTransfer,policy,profiling
0.4236,120,65,48,1,8,scotch,Aquarius,RapidCFD-dev,system,Nvcc11.2Gcc4.8.5,DP,32,Opt,SYSTEMOPENMPI,2,0.05,PCG,DIC,PCG,DIC,PBiCG,DILU,0,compact,
0.431,120,65,48,1,8,scotch,Aquarius,RapidCFD-dev,system,Nvcc11.2Gcc4.8.5,DP,32,Opt,SYSTEMOPENMPI,2,0.05,PCG,DIC,PCG,DIC,PBiCG,DILU,0,scatter,
0.4318,120,65,48,1,8,scotch,Aquarius,RapidCFD-dev,system,Nvcc11.2Gcc4.8.5,SP,32,Opt,SYSTEMOPENMPI,2,0.05,PCG,DIC,PCG,DIC,PBiCG,DILU,0,compact,
0.435,120,65,48,1,8,scotch,Aquarius,RapidCFD-dev,system,Nvcc11.2Gcc4.8.5,SP,32,Opt,SYSTEMOPENMPI,2,0.05,PCG,DIC,PCG,DIC,PBiCG,DILU,0,scatter,
0.4278,120,65,48,1,8,scotch,Aquarius,RapidCFD-dev,system,Nvcc11.2Gcc7.5.0,DP,32,Opt,SYSTEMOPENMPI,2,0.05,PCG,DIC,PCG,DIC,PBiCG,DILU,0,compact,
0.4292,120,65,48,1,8,scotch,Aquarius,RapidCFD-dev,system,Nvcc11.2Gcc7.5.0,DP,32,Opt,SYSTEMOPENMPI,2,0.05,PCG,DIC,PCG,DIC,PBiCG,DILU,0,scatter,
0.4334,120,65,48,1,8,scotch,Aquarius,RapidCFD-dev,system,Nvcc11.2Gcc7.5.0,SP,32,Opt,SYSTEMOPENMPI,2,0.05,PCG,DIC,PCG,DIC,PBiCG,DILU,0,compact,
0.4308,120,65,48,1,8,scotch,Aquarius,RapidCFD-dev,system,Nvcc11.2Gcc7.5.0,SP,32,Opt,SYSTEMOPENMPI,2,0.05,PCG,DIC,PCG,DIC,PBiCG,DILU,0,scatter,
0.4352,120,65,48,2,8,scotch,Aquarius,RapidCFD-dev,system,Nvcc11.2Gcc4.8.5,DP,32,Opt,SYSTEMOPENMPI,2,0.05,PCG,DIC,PCG,DIC,PBiCG,DILU,0,compact,
0.4256,120,65,48,2,8,scotch,Aquarius,RapidCFD-dev,system,Nvcc11.2Gcc4.8.5,DP,32,Opt,SYSTEMOPENMPI,2,0.05,PCG,DIC,PCG,DIC,PBiCG,DILU,0,scatter,
0.4808,120,65,48,2,8,scotch,Aquarius,RapidCFD-dev,system,Nvcc11.2Gcc4.8.5,SP,32,Opt,SYSTEMOPENMPI,2,0.05,PCG,DIC,PCG,DIC,PBiCG,DILU,0,compact,
0.4668,120,65,48,2,8,scotch,Aquarius,RapidCFD-dev,system,Nvcc11.2Gcc4.8.5,SP,32,Opt,SYSTEMOPENMPI,2,0.05,PCG,DIC,PCG,DIC,PBiCG,DILU,0,scatter,
0.436,120,65,48,2,8,scotch,Aquarius,RapidCFD-dev,system,Nvcc11.2Gcc7.5.0,DP,32,Opt,SYSTEMOPENMPI,2,0.05,PCG,DIC,PCG,DIC,PBiCG,DILU,0,compact,
0.4254,120,65,48,2,8,scotch,Aquarius,RapidCFD-dev,system,Nvcc11.2Gcc7.5.0,DP,32,Opt,SYSTEMOPENMPI,2,0.05,PCG,DIC,PCG,DIC,PBiCG,DILU,0,scatter,
0.4796,120,65,48,2,8,scotch,Aquarius,RapidCFD-dev,system,Nvcc11.2Gcc7.5.0,SP,32,Opt,SYSTEMOPENMPI,2,0.05,PCG,DIC,PCG,DIC,PBiCG,DILU,0,compact,
0.4654,120,65,48,2,8,scotch,Aquarius,RapidCFD-dev,system,Nvcc11.2Gcc7.5.0,SP,32,Opt,SYSTEMOPENMPI,2,0.05,PCG,DIC,PCG,DIC,PBiCG,DILU,0,scatter,
0.4178,120,65,48,4,8,scotch,Aquarius,RapidCFD-dev,system,Nvcc11.2Gcc4.8.5,DP,32,Opt,SYSTEMOPENMPI,2,0.05,PCG,DIC,PCG,DIC,PBiCG,DILU,0,compact,
0.4122,120,65,48,4,8,scotch,Aquarius,RapidCFD-dev,system,Nvcc11.2Gcc4.8.5,DP,32,Opt,SYSTEMOPENMPI,2,0.05,PCG,DIC,PCG,DIC,PBiCG,DILU,0,scatter,
0.6042,120,65,48,4,8,scotch,Aquarius,RapidCFD-dev,system,Nvcc11.2Gcc4.8.5,SP,32,Opt,SYSTEMOPENMPI,2,0.05,PCG,DIC,PCG,DIC,PBiCG,DILU,0,compact,
0.5982,120,65,48,4,8,scotch,Aquarius,RapidCFD-dev,system,Nvcc11.2Gcc4.8.5,SP,32,Opt,SYSTEMOPENMPI,2,0.05,PCG,DIC,PCG,DIC,PBiCG,DILU,0,scatter,
0.4178,120,65,48,4,8,scotch,Aquarius,RapidCFD-dev,system,Nvcc11.2Gcc7.5.0,DP,32,Opt,SYSTEMOPENMPI,2,0.05,PCG,DIC,PCG,DIC,PBiCG,DILU,0,compact,
0.4132,120,65,48,4,8,scotch,Aquarius,RapidCFD-dev,system,Nvcc11.2Gcc7.5.0,DP,32,Opt,SYSTEMOPENMPI,2,0.05,PCG,DIC,PCG,DIC,PBiCG,DILU,0,scatter,
0.6048,120,65,48,4,8,scotch,Aquarius,RapidCFD-dev,system,Nvcc11.2Gcc7.5.0,SP,32,Opt,SYSTEMOPENMPI,2,0.05,PCG,DIC,PCG,DIC,PBiCG,DILU,0,compact,
0.5978,120,65,48,4,8,scotch,Aquarius,RapidCFD-dev,system,Nvcc11.2Gcc7.5.0,SP,32,Opt,SYSTEMOPENMPI,2,0.05,PCG,DIC,PCG,DIC,PBiCG,DILU,0,scatter,
