{
    "mesh.sh":
    {
	"mx": [ 120 ],
	"my": [ 65 ],
	"mz": [ 48 ]
    },
    "decomposeParDict.sh":
    {
	"node": [ "1", "2:noncont", "2:mesh", "4:noncont", "4:mesh", "2x2:mesh", "8:noncont", "8:mesh", "2x4:mesh", "2x2x2:mesh", "12:noncont", "12:mesh", "12:torus", "3x4:mesh", "3x4:torus", "2x6:mesh", "2x6:torus", "2x2x3:mesh", "2x2x3:torus", "24:noncont", "24:mesh", "24:torus", "4x6:mesh", "4x6:torus", "3x8:mesh", "3x8:torus", "2x12:mesh", "2x12:torus", "2x3x4:mesh", "2x3x4:torus", "48:noncont", "48:mesh", "48:torus", "6x8:mesh", "6x8:torus", "4x12:mesh", "4x12:torus", "3x16:mesh", "3x16:torus", "3x4x4:mesh", "3x4x4:torus", "2x3x8:mesh", "2x3x8:torus", "2x4x6:mesh", "2x4x6:torus" ],
	"ppn": [ 48 ],
	"method": [ "scotch" ]
    },
    "solver.sh":
    {
	"system": [ "Odyssey" ],
	"OpenFOAM_VERSION": [ "OpenFOAM-v2012" ],
	"WM_COMPILER_TYPE": [ "system" ],
	"WM_COMPILER": [ "Fcc1.2.31" ],
	"WM_PRECISION_OPTION": [ "DP", "SP" ],
	"WM_LABEL_SIZE": [ 32 ],
	"WM_COMPILE_OPTION": [ "Opt" ],
	"WM_MPLIB": [ "FJMPI" ],
	"fvSolution_solvers_p_relTol": [ 0.05 ],
	"fvSolution_solvers_p_solver": [ "PCG" ],
	"fvSolution_solvers_p_preconditioner": [ "DIC" ],
	"fvSolution_solvers_pFinal_solver": [ "PCG" ],
	"fvSolution_solvers_pFinal_preconditioner": [ "DIC" ],
	"fvSolution_solvers_UFinal_solver": [ "PBiCG" ],
	"fvSolution_solvers_UFinal_preconditioner": [ "DILU" ],
	"profiling": [ "" ],
	"fj_version": [ "1.2.31" ]
    }
}
