#Log,Host,Node,Proc,Case,TimeSteps,InitTime[s],LastTime[s],Time[s],AveTime[s],SM
cases/proc_112/cases/gccModule-FOAM-DIC-PCG.fixedNORM/log.icoFoam.280818,Miyabi-C,1,112,gccModule-FOAM-DIC-PCG.fixedNORM,2,81.18,116.8,35.62,35.62,132
cases/proc_112/cases/gccModule-FOAM-DIC-PCG.fixedNORM/log.icoFoam.280819,Miyabi-C,1,112,gccModule-FOAM-DIC-PCG.fixedNORM,2,127.36,186.54,59.18,59.18,132
cases/proc_112/cases/gccModule-FOAM-DIC-PCG.fixedNORM/log.icoFoam.280820,Miyabi-C,1,112,gccModule-FOAM-DIC-PCG.fixedNORM,2,104.7,148.36,43.66,43.66,132
cases/proc_112/cases/gccModule-FOAM-DIC-PCG.fixedNORM/log.icoFoam.280821,Miyabi-C,1,112,gccModule-FOAM-DIC-PCG.fixedNORM,2,128.02,187.58,59.56,59.56,132
cases/proc_112/cases/gccModule-FOAM-DIC-PCG.fixedNORM/log.icoFoam.280822,Miyabi-C,1,112,gccModule-FOAM-DIC-PCG.fixedNORM,2,102.75,151.76,49.01,49.01,132
cases/proc_112/cases/gccModule-FOAM-GAMG-PCG.fixedNORM/log.icoFoam.280812,Miyabi-C,1,112,gccModule-FOAM-GAMG-PCG.fixedNORM,2,18.78,30.58,11.8,11.8,132
cases/proc_112/cases/gccModule-FOAM-GAMG-PCG.fixedNORM/log.icoFoam.280814,Miyabi-C,1,112,gccModule-FOAM-GAMG-PCG.fixedNORM,2,24.24,38.22,13.98,13.98,132
cases/proc_112/cases/gccModule-FOAM-GAMG-PCG.fixedNORM/log.icoFoam.280815,Miyabi-C,1,112,gccModule-FOAM-GAMG-PCG.fixedNORM,2,21.54,37.41,15.87,15.87,132
cases/proc_112/cases/gccModule-FOAM-GAMG-PCG.fixedNORM/log.icoFoam.280816,Miyabi-C,1,112,gccModule-FOAM-GAMG-PCG.fixedNORM,2,20.51,34.21,13.7,13.7,132
cases/proc_112/cases/gccModule-FOAM-GAMG-PCG.fixedNORM/log.icoFoam.280817,Miyabi-C,1,112,gccModule-FOAM-GAMG-PCG.fixedNORM,2,22.07,38.19,16.12,16.12,132
cases/proc_112/cases/Icx-FOAM-DIC-PCG.fixedNORM/log.icoFoam.280828,Miyabi-C,1,112,Icx-FOAM-DIC-PCG.fixedNORM,2,111.76,165.33,53.57,53.57,132
cases/proc_112/cases/Icx-FOAM-DIC-PCG.fixedNORM/log.icoFoam.280829,Miyabi-C,1,112,Icx-FOAM-DIC-PCG.fixedNORM,2,62.27,89.62,27.35,27.35,132
cases/proc_112/cases/Icx-FOAM-DIC-PCG.fixedNORM/log.icoFoam.280830,Miyabi-C,1,112,Icx-FOAM-DIC-PCG.fixedNORM,2,98.66,134.13,35.47,35.47,132
cases/proc_112/cases/Icx-FOAM-DIC-PCG.fixedNORM/log.icoFoam.280831,Miyabi-C,1,112,Icx-FOAM-DIC-PCG.fixedNORM,2,108.97,164.96,55.99,55.99,132
cases/proc_112/cases/Icx-FOAM-DIC-PCG.fixedNORM/log.icoFoam.280833,Miyabi-C,1,112,Icx-FOAM-DIC-PCG.fixedNORM,2,101.9,139.72,37.82,37.82,132
cases/proc_112/cases/Icx-FOAM-GAMG-PCG.fixedNORM/log.icoFoam.280823,Miyabi-C,1,112,Icx-FOAM-GAMG-PCG.fixedNORM,2,15.78,26.1,10.32,10.32,132
cases/proc_112/cases/Icx-FOAM-GAMG-PCG.fixedNORM/log.icoFoam.280824,Miyabi-C,1,112,Icx-FOAM-GAMG-PCG.fixedNORM,2,15.64,26.27,10.63,10.63,132
cases/proc_112/cases/Icx-FOAM-GAMG-PCG.fixedNORM/log.icoFoam.280825,Miyabi-C,1,112,Icx-FOAM-GAMG-PCG.fixedNORM,2,22.5,38.8,16.3,16.3,132
cases/proc_112/cases/Icx-FOAM-GAMG-PCG.fixedNORM/log.icoFoam.280826,Miyabi-C,1,112,Icx-FOAM-GAMG-PCG.fixedNORM,2,23.13,39.2,16.07,16.07,132
cases/proc_112/cases/Icx-FOAM-GAMG-PCG.fixedNORM/log.icoFoam.280827,Miyabi-C,1,112,Icx-FOAM-GAMG-PCG.fixedNORM,2,22.02,37,14.98,14.98,132
cases/proc_112/cases/Icx-PETSc-AMG-CG.mpiaij.fixedNORM.caching/log.icoFoam.280834,Miyabi-C,1,112,Icx-PETSc-AMG-CG.mpiaij.fixedNORM.caching,2,37.29,53.85,16.56,16.56,132
cases/proc_112/cases/Icx-PETSc-AMG-CG.mpiaij.fixedNORM.caching/log.icoFoam.280841,Miyabi-C,1,112,Icx-PETSc-AMG-CG.mpiaij.fixedNORM.caching,2,36.37,49.37,13,13,132
cases/proc_112/cases/Icx-PETSc-AMG-CG.mpiaij.fixedNORM.caching/log.icoFoam.280842,Miyabi-C,1,112,Icx-PETSc-AMG-CG.mpiaij.fixedNORM.caching,2,30.81,44.43,13.62,13.62,132
cases/proc_112/cases/Icx-PETSc-AMG-CG.mpiaij.fixedNORM.caching/log.icoFoam.280844,Miyabi-C,1,112,Icx-PETSc-AMG-CG.mpiaij.fixedNORM.caching,2,24.93,37.99,13.06,13.06,132
cases/proc_112/cases/Icx-PETSc-AMG-CG.mpiaij.fixedNORM.caching/log.icoFoam.280845,Miyabi-C,1,112,Icx-PETSc-AMG-CG.mpiaij.fixedNORM.caching,2,34.47,47.99,13.52,13.52,132
cases/proc_112/cases/Icx-PETSc-ICC-CG.mpiaij.fixedNORM/log.icoFoam.280853,Miyabi-C,1,112,Icx-PETSc-ICC-CG.mpiaij.fixedNORM,2,107.93,154.65,46.72,46.72,132
cases/proc_112/cases/Icx-PETSc-ICC-CG.mpiaij.fixedNORM/log.icoFoam.280854,Miyabi-C,1,112,Icx-PETSc-ICC-CG.mpiaij.fixedNORM,2,83.73,118.81,35.08,35.08,132
cases/proc_112/cases/Icx-PETSc-ICC-CG.mpiaij.fixedNORM/log.icoFoam.280856,Miyabi-C,1,112,Icx-PETSc-ICC-CG.mpiaij.fixedNORM,2,120.24,172.8,52.56,52.56,132
cases/proc_112/cases/Icx-PETSc-ICC-CG.mpiaij.fixedNORM/log.icoFoam.280857,Miyabi-C,1,112,Icx-PETSc-ICC-CG.mpiaij.fixedNORM,2,97.22,138.89,41.67,41.67,132
cases/proc_112/cases/Icx-PETSc-ICC-CG.mpiaij.fixedNORM/log.icoFoam.280859,Miyabi-C,1,112,Icx-PETSc-ICC-CG.mpiaij.fixedNORM,2,110.91,159.14,48.23,48.23,132
cases/proc_224/cases/gccModule-FOAM-DIC-PCG.fixedNORM/log.icoFoam.280872,Miyabi-C,2,224,gccModule-FOAM-DIC-PCG.fixedNORM,2,33.41,47.01,13.6,13.6,132
cases/proc_224/cases/gccModule-FOAM-DIC-PCG.fixedNORM/log.icoFoam.280873,Miyabi-C,2,224,gccModule-FOAM-DIC-PCG.fixedNORM,2,33.63,47.17,13.54,13.54,132
cases/proc_224/cases/gccModule-FOAM-DIC-PCG.fixedNORM/log.icoFoam.280874,Miyabi-C,2,224,gccModule-FOAM-DIC-PCG.fixedNORM,2,32.7,46.41,13.71,13.71,132
cases/proc_224/cases/gccModule-FOAM-DIC-PCG.fixedNORM/log.icoFoam.280876,Miyabi-C,2,224,gccModule-FOAM-DIC-PCG.fixedNORM,2,32.58,46.28,13.7,13.7,132
cases/proc_224/cases/gccModule-FOAM-DIC-PCG.fixedNORM/log.icoFoam.280877,Miyabi-C,2,224,gccModule-FOAM-DIC-PCG.fixedNORM,2,33.43,46.99,13.56,13.56,132
cases/proc_224/cases/gccModule-FOAM-GAMG-PCG.fixedNORM/log.icoFoam.280860,Miyabi-C,2,224,gccModule-FOAM-GAMG-PCG.fixedNORM,2,12.6,20.69,8.09,8.09,132
cases/proc_224/cases/gccModule-FOAM-GAMG-PCG.fixedNORM/log.icoFoam.280866,Miyabi-C,2,224,gccModule-FOAM-GAMG-PCG.fixedNORM,2,12.2,20.31,8.11,8.11,132
cases/proc_224/cases/gccModule-FOAM-GAMG-PCG.fixedNORM/log.icoFoam.280867,Miyabi-C,2,224,gccModule-FOAM-GAMG-PCG.fixedNORM,2,10.86,18.97,8.11,8.11,132
cases/proc_224/cases/gccModule-FOAM-GAMG-PCG.fixedNORM/log.icoFoam.280868,Miyabi-C,2,224,gccModule-FOAM-GAMG-PCG.fixedNORM,2,12.37,20.54,8.17,8.17,132
cases/proc_224/cases/gccModule-FOAM-GAMG-PCG.fixedNORM/log.icoFoam.280870,Miyabi-C,2,224,gccModule-FOAM-GAMG-PCG.fixedNORM,2,11.56,19.66,8.1,8.1,132
cases/proc_224/cases/Icx-FOAM-DIC-PCG.fixedNORM/log.icoFoam.280887,Miyabi-C,2,224,Icx-FOAM-DIC-PCG.fixedNORM,2,33.61,47.29,13.68,13.68,132
cases/proc_224/cases/Icx-FOAM-DIC-PCG.fixedNORM/log.icoFoam.280888,Miyabi-C,2,224,Icx-FOAM-DIC-PCG.fixedNORM,2,33.56,47.24,13.68,13.68,132
cases/proc_224/cases/Icx-FOAM-DIC-PCG.fixedNORM/log.icoFoam.280891,Miyabi-C,2,224,Icx-FOAM-DIC-PCG.fixedNORM,2,34.62,48.33,13.71,13.71,132
cases/proc_224/cases/Icx-FOAM-DIC-PCG.fixedNORM/log.icoFoam.280892,Miyabi-C,2,224,Icx-FOAM-DIC-PCG.fixedNORM,2,34.23,47.77,13.54,13.54,132
cases/proc_224/cases/Icx-FOAM-DIC-PCG.fixedNORM/log.icoFoam.280895,Miyabi-C,2,224,Icx-FOAM-DIC-PCG.fixedNORM,2,34.73,48.43,13.7,13.7,132
cases/proc_224/cases/Icx-FOAM-GAMG-PCG.fixedNORM/log.icoFoam.280878,Miyabi-C,2,224,Icx-FOAM-GAMG-PCG.fixedNORM,2,10.6,18.81,8.21,8.21,132
cases/proc_224/cases/Icx-FOAM-GAMG-PCG.fixedNORM/log.icoFoam.280881,Miyabi-C,2,224,Icx-FOAM-GAMG-PCG.fixedNORM,2,12.41,20.54,8.13,8.13,132
cases/proc_224/cases/Icx-FOAM-GAMG-PCG.fixedNORM/log.icoFoam.280883,Miyabi-C,2,224,Icx-FOAM-GAMG-PCG.fixedNORM,2,10.38,19.85,9.47,9.47,132
cases/proc_224/cases/Icx-FOAM-GAMG-PCG.fixedNORM/log.icoFoam.280885,Miyabi-C,2,224,Icx-FOAM-GAMG-PCG.fixedNORM,2,10.43,18.63,8.2,8.2,132
cases/proc_224/cases/Icx-FOAM-GAMG-PCG.fixedNORM/log.icoFoam.280886,Miyabi-C,2,224,Icx-FOAM-GAMG-PCG.fixedNORM,2,12.22,20.48,8.26,8.26,132
cases/proc_224/cases/Icx-PETSc-AMG-CG.mpiaij.fixedNORM.caching/log.icoFoam.280896,Miyabi-C,2,224,Icx-PETSc-AMG-CG.mpiaij.fixedNORM.caching,2,10.67,15.33,4.66,4.66,132
cases/proc_224/cases/Icx-PETSc-AMG-CG.mpiaij.fixedNORM.caching/log.icoFoam.280900,Miyabi-C,2,224,Icx-PETSc-AMG-CG.mpiaij.fixedNORM.caching,2,13.56,19.59,6.03,6.03,132
cases/proc_224/cases/Icx-PETSc-AMG-CG.mpiaij.fixedNORM.caching/log.icoFoam.280901,Miyabi-C,2,224,Icx-PETSc-AMG-CG.mpiaij.fixedNORM.caching,2,12.92,18.02,5.1,5.1,132
cases/proc_224/cases/Icx-PETSc-AMG-CG.mpiaij.fixedNORM.caching/log.icoFoam.280905,Miyabi-C,2,224,Icx-PETSc-AMG-CG.mpiaij.fixedNORM.caching,2,13.34,19.33,5.99,5.99,132
cases/proc_224/cases/Icx-PETSc-AMG-CG.mpiaij.fixedNORM.caching/log.icoFoam.280906,Miyabi-C,2,224,Icx-PETSc-AMG-CG.mpiaij.fixedNORM.caching,2,14.55,19.67,5.12,5.12,132
cases/proc_224/cases/Icx-PETSc-AMG-CG.mpiaij.fixedNORM/log.icoFoam.280909,Miyabi-C,2,224,Icx-PETSc-AMG-CG.mpiaij.fixedNORM,2,14.28,21.28,7,7,132
cases/proc_224/cases/Icx-PETSc-AMG-CG.mpiaij.fixedNORM/log.icoFoam.280911,Miyabi-C,2,224,Icx-PETSc-AMG-CG.mpiaij.fixedNORM,2,16.13,22.11,5.98,5.98,132
cases/proc_224/cases/Icx-PETSc-AMG-CG.mpiaij.fixedNORM/log.icoFoam.280912,Miyabi-C,2,224,Icx-PETSc-AMG-CG.mpiaij.fixedNORM,2,13.77,20.53,6.76,6.76,132
cases/proc_224/cases/Icx-PETSc-AMG-CG.mpiaij.fixedNORM/log.icoFoam.280913,Miyabi-C,2,224,Icx-PETSc-AMG-CG.mpiaij.fixedNORM,2,12.21,18.13,5.92,5.92,132
cases/proc_224/cases/Icx-PETSc-AMG-CG.mpiaij.fixedNORM/log.icoFoam.280915,Miyabi-C,2,224,Icx-PETSc-AMG-CG.mpiaij.fixedNORM,2,12.42,19.22,6.8,6.8,132
cases/proc_224/cases/Icx-PETSc-ICC-CG.mpiaij.fixedNORM/log.icoFoam.280916,Miyabi-C,2,224,Icx-PETSc-ICC-CG.mpiaij.fixedNORM,2,49.74,70.79,21.05,21.05,132
cases/proc_224/cases/Icx-PETSc-ICC-CG.mpiaij.fixedNORM/log.icoFoam.280918,Miyabi-C,2,224,Icx-PETSc-ICC-CG.mpiaij.fixedNORM,2,44.14,62.19,18.05,18.05,132
cases/proc_224/cases/Icx-PETSc-ICC-CG.mpiaij.fixedNORM/log.icoFoam.280921,Miyabi-C,2,224,Icx-PETSc-ICC-CG.mpiaij.fixedNORM,2,47.67,68.38,20.71,20.71,132
cases/proc_224/cases/Icx-PETSc-ICC-CG.mpiaij.fixedNORM/log.icoFoam.280922,Miyabi-C,2,224,Icx-PETSc-ICC-CG.mpiaij.fixedNORM,2,47.12,68.06,20.94,20.94,132
cases/proc_224/cases/Icx-PETSc-ICC-CG.mpiaij.fixedNORM/log.icoFoam.280925,Miyabi-C,2,224,Icx-PETSc-ICC-CG.mpiaij.fixedNORM,2,48.08,69.84,21.76,21.76,132
cases/proc_448/cases/gccModule-FOAM-DIC-PCG.fixedNORM/log.icoFoam.280935,Miyabi-C,4,448,gccModule-FOAM-DIC-PCG.fixedNORM,2,17.84,31.34,13.5,13.5,132
cases/proc_448/cases/gccModule-FOAM-DIC-PCG.fixedNORM/log.icoFoam.280936,Miyabi-C,4,448,gccModule-FOAM-DIC-PCG.fixedNORM,2,20.03,33.69,13.66,13.66,132
cases/proc_448/cases/gccModule-FOAM-DIC-PCG.fixedNORM/log.icoFoam.280937,Miyabi-C,4,448,gccModule-FOAM-DIC-PCG.fixedNORM,2,17.49,30.26,12.77,12.77,132
cases/proc_448/cases/gccModule-FOAM-DIC-PCG.fixedNORM/log.icoFoam.280939,Miyabi-C,4,448,gccModule-FOAM-DIC-PCG.fixedNORM,2,18.41,31.63,13.22,13.22,132
cases/proc_448/cases/gccModule-FOAM-DIC-PCG.fixedNORM/log.icoFoam.280940,Miyabi-C,4,448,gccModule-FOAM-DIC-PCG.fixedNORM,2,17.38,30.24,12.86,12.86,132
cases/proc_448/cases/gccModule-FOAM-GAMG-PCG.fixedNORM/log.icoFoam.280927,Miyabi-C,4,448,gccModule-FOAM-GAMG-PCG.fixedNORM,2,13.5,20.06,6.56,6.56,132
cases/proc_448/cases/gccModule-FOAM-GAMG-PCG.fixedNORM/log.icoFoam.280931,Miyabi-C,4,448,gccModule-FOAM-GAMG-PCG.fixedNORM,2,12.63,19.07,6.44,6.44,132
cases/proc_448/cases/gccModule-FOAM-GAMG-PCG.fixedNORM/log.icoFoam.280932,Miyabi-C,4,448,gccModule-FOAM-GAMG-PCG.fixedNORM,2,12.67,19.12,6.45,6.45,132
cases/proc_448/cases/gccModule-FOAM-GAMG-PCG.fixedNORM/log.icoFoam.280933,Miyabi-C,4,448,gccModule-FOAM-GAMG-PCG.fixedNORM,2,14.88,21.44,6.56,6.56,132
cases/proc_448/cases/gccModule-FOAM-GAMG-PCG.fixedNORM/log.icoFoam.280934,Miyabi-C,4,448,gccModule-FOAM-GAMG-PCG.fixedNORM,2,12.54,19,6.46,6.46,132
cases/proc_448/cases/Icx-FOAM-DIC-PCG.fixedNORM/log.icoFoam.280953,Miyabi-C,4,448,Icx-FOAM-DIC-PCG.fixedNORM,2,17.62,30.47,12.85,12.85,132
cases/proc_448/cases/Icx-FOAM-DIC-PCG.fixedNORM/log.icoFoam.280954,Miyabi-C,4,448,Icx-FOAM-DIC-PCG.fixedNORM,2,17.97,30.54,12.57,12.57,132
cases/proc_448/cases/Icx-FOAM-DIC-PCG.fixedNORM/log.icoFoam.280956,Miyabi-C,4,448,Icx-FOAM-DIC-PCG.fixedNORM,2,17.78,30.41,12.63,12.63,132
cases/proc_448/cases/Icx-FOAM-DIC-PCG.fixedNORM/log.icoFoam.280957,Miyabi-C,4,448,Icx-FOAM-DIC-PCG.fixedNORM,2,17.51,30.19,12.68,12.68,132
cases/proc_448/cases/Icx-FOAM-DIC-PCG.fixedNORM/log.icoFoam.280960,Miyabi-C,4,448,Icx-FOAM-DIC-PCG.fixedNORM,2,17.58,30.17,12.59,12.59,132
cases/proc_448/cases/Icx-FOAM-GAMG-PCG.fixedNORM/log.icoFoam.280942,Miyabi-C,4,448,Icx-FOAM-GAMG-PCG.fixedNORM,2,13.02,19.69,6.67,6.67,132
cases/proc_448/cases/Icx-FOAM-GAMG-PCG.fixedNORM/log.icoFoam.280946,Miyabi-C,4,448,Icx-FOAM-GAMG-PCG.fixedNORM,2,12.76,20.68,7.92,7.92,132
cases/proc_448/cases/Icx-FOAM-GAMG-PCG.fixedNORM/log.icoFoam.280947,Miyabi-C,4,448,Icx-FOAM-GAMG-PCG.fixedNORM,2,12.68,19.08,6.4,6.4,132
cases/proc_448/cases/Icx-FOAM-GAMG-PCG.fixedNORM/log.icoFoam.280948,Miyabi-C,4,448,Icx-FOAM-GAMG-PCG.fixedNORM,2,12.51,18.91,6.4,6.4,132
cases/proc_448/cases/Icx-FOAM-GAMG-PCG.fixedNORM/log.icoFoam.280949,Miyabi-C,4,448,Icx-FOAM-GAMG-PCG.fixedNORM,2,12.76,19.39,6.63,6.63,132
cases/proc_448/cases/Icx-PETSc-AMG-CG.mpiaij.fixedNORM.caching/log.icoFoam.280961,Miyabi-C,4,448,Icx-PETSc-AMG-CG.mpiaij.fixedNORM.caching,2,10.95,14.44,3.49,3.49,132
cases/proc_448/cases/Icx-PETSc-AMG-CG.mpiaij.fixedNORM.caching/log.icoFoam.280964,Miyabi-C,4,448,Icx-PETSc-AMG-CG.mpiaij.fixedNORM.caching,2,8.97,12.41,3.44,3.44,132
cases/proc_448/cases/Icx-PETSc-AMG-CG.mpiaij.fixedNORM.caching/log.icoFoam.280965,Miyabi-C,4,448,Icx-PETSc-AMG-CG.mpiaij.fixedNORM.caching,2,11.26,14.69,3.43,3.43,132
cases/proc_448/cases/Icx-PETSc-AMG-CG.mpiaij.fixedNORM.caching/log.icoFoam.280966,Miyabi-C,4,448,Icx-PETSc-AMG-CG.mpiaij.fixedNORM.caching,2,9.13,12.59,3.46,3.46,132
cases/proc_448/cases/Icx-PETSc-AMG-CG.mpiaij.fixedNORM.caching/log.icoFoam.280967,Miyabi-C,4,448,Icx-PETSc-AMG-CG.mpiaij.fixedNORM.caching,2,9.9,13.39,3.49,3.49,132
cases/proc_448/cases/Icx-PETSc-AMG-CG.mpiaij.fixedNORM/log.icoFoam.280968,Miyabi-C,4,448,Icx-PETSc-AMG-CG.mpiaij.fixedNORM,2,9.64,13.36,3.72,3.72,132
cases/proc_448/cases/Icx-PETSc-AMG-CG.mpiaij.fixedNORM/log.icoFoam.280970,Miyabi-C,4,448,Icx-PETSc-AMG-CG.mpiaij.fixedNORM,2,9.46,12.97,3.51,3.51,132
cases/proc_448/cases/Icx-PETSc-AMG-CG.mpiaij.fixedNORM/log.icoFoam.280971,Miyabi-C,4,448,Icx-PETSc-AMG-CG.mpiaij.fixedNORM,2,9.94,13.56,3.62,3.62,132
cases/proc_448/cases/Icx-PETSc-AMG-CG.mpiaij.fixedNORM/log.icoFoam.280973,Miyabi-C,4,448,Icx-PETSc-AMG-CG.mpiaij.fixedNORM,2,9.47,13.06,3.59,3.59,132
cases/proc_448/cases/Icx-PETSc-AMG-CG.mpiaij.fixedNORM/log.icoFoam.280975,Miyabi-C,4,448,Icx-PETSc-AMG-CG.mpiaij.fixedNORM,2,9.22,12.74,3.52,3.52,132
cases/proc_448/cases/Icx-PETSc-ICC-CG.mpiaij.fixedNORM/log.icoFoam.280976,Miyabi-C,4,448,Icx-PETSc-ICC-CG.mpiaij.fixedNORM,2,20.96,36.83,15.87,15.87,132
cases/proc_448/cases/Icx-PETSc-ICC-CG.mpiaij.fixedNORM/log.icoFoam.280978,Miyabi-C,4,448,Icx-PETSc-ICC-CG.mpiaij.fixedNORM,2,20.88,36.45,15.57,15.57,132
cases/proc_448/cases/Icx-PETSc-ICC-CG.mpiaij.fixedNORM/log.icoFoam.280980,Miyabi-C,4,448,Icx-PETSc-ICC-CG.mpiaij.fixedNORM,2,20.92,36.52,15.6,15.6,132
cases/proc_448/cases/Icx-PETSc-ICC-CG.mpiaij.fixedNORM/log.icoFoam.280982,Miyabi-C,4,448,Icx-PETSc-ICC-CG.mpiaij.fixedNORM,2,20.7,36.41,15.71,15.71,132
cases/proc_448/cases/Icx-PETSc-ICC-CG.mpiaij.fixedNORM/log.icoFoam.280985,Miyabi-C,4,448,Icx-PETSc-ICC-CG.mpiaij.fixedNORM,2,20.72,36.57,15.85,15.85,132
cases/proc_896/cases/gccModule-FOAM-DIC-PCG.fixedNORM/log.icoFoam.280995,Miyabi-C,8,896,gccModule-FOAM-DIC-PCG.fixedNORM,2,11.31,17.2,5.89,5.89,132
cases/proc_896/cases/gccModule-FOAM-DIC-PCG.fixedNORM/log.icoFoam.280997,Miyabi-C,8,896,gccModule-FOAM-DIC-PCG.fixedNORM,2,11.29,16.99,5.7,5.7,132
cases/proc_896/cases/gccModule-FOAM-DIC-PCG.fixedNORM/log.icoFoam.280998,Miyabi-C,8,896,gccModule-FOAM-DIC-PCG.fixedNORM,2,12.55,18.3,5.75,5.75,132
cases/proc_896/cases/gccModule-FOAM-DIC-PCG.fixedNORM/log.icoFoam.281000,Miyabi-C,8,896,gccModule-FOAM-DIC-PCG.fixedNORM,2,12.23,18.06,5.83,5.83,132
cases/proc_896/cases/gccModule-FOAM-DIC-PCG.fixedNORM/log.icoFoam.281001,Miyabi-C,8,896,gccModule-FOAM-DIC-PCG.fixedNORM,2,11.26,17.19,5.93,5.93,132
cases/proc_896/cases/gccModule-FOAM-GAMG-PCG.fixedNORM/log.icoFoam.280987,Miyabi-C,8,896,gccModule-FOAM-GAMG-PCG.fixedNORM,2,13.7,18.82,5.12,5.12,132
cases/proc_896/cases/gccModule-FOAM-GAMG-PCG.fixedNORM/log.icoFoam.280989,Miyabi-C,8,896,gccModule-FOAM-GAMG-PCG.fixedNORM,2,12.36,17.56,5.2,5.2,132
cases/proc_896/cases/gccModule-FOAM-GAMG-PCG.fixedNORM/log.icoFoam.280991,Miyabi-C,8,896,gccModule-FOAM-GAMG-PCG.fixedNORM,2,12.97,18.31,5.34,5.34,132
cases/proc_896/cases/gccModule-FOAM-GAMG-PCG.fixedNORM/log.icoFoam.280993,Miyabi-C,8,896,gccModule-FOAM-GAMG-PCG.fixedNORM,2,12.61,17.82,5.21,5.21,132
cases/proc_896/cases/gccModule-FOAM-GAMG-PCG.fixedNORM/log.icoFoam.280994,Miyabi-C,8,896,gccModule-FOAM-GAMG-PCG.fixedNORM,2,11.56,16.74,5.18,5.18,132
cases/proc_896/cases/Icx-FOAM-DIC-PCG.fixedNORM/log.icoFoam.269873,Miyabi-C,8,896,Icx-FOAM-DIC-PCG.fixedNORM,2,14.26,20.89,6.63,6.63,132
cases/proc_896/cases/Icx-FOAM-DIC-PCG.fixedNORM/log.icoFoam.279894,Miyabi-C,8,896,Icx-FOAM-DIC-PCG.fixedNORM,2,11.16,16.93,5.77,5.77,132
cases/proc_896/cases/Icx-FOAM-DIC-PCG.fixedNORM/log.icoFoam.279895,Miyabi-C,8,896,Icx-FOAM-DIC-PCG.fixedNORM,2,11.69,18.42,6.73,6.73,132
cases/proc_896/cases/Icx-FOAM-DIC-PCG.fixedNORM/log.icoFoam.279897,Miyabi-C,8,896,Icx-FOAM-DIC-PCG.fixedNORM,2,11.34,17.15,5.81,5.81,132
cases/proc_896/cases/Icx-FOAM-DIC-PCG.fixedNORM/log.icoFoam.279898,Miyabi-C,8,896,Icx-FOAM-DIC-PCG.fixedNORM,2,13.74,19.37,5.63,5.63,132
cases/proc_896/cases/Icx-FOAM-GAMG-PCG.fixedNORM/log.icoFoam.269872,Miyabi-C,8,896,Icx-FOAM-GAMG-PCG.fixedNORM,2,10.65,15.79,5.14,5.14,132
cases/proc_896/cases/Icx-FOAM-GAMG-PCG.fixedNORM/log.icoFoam.279888,Miyabi-C,8,896,Icx-FOAM-GAMG-PCG.fixedNORM,2,10.67,15.7,5.03,5.03,132
cases/proc_896/cases/Icx-FOAM-GAMG-PCG.fixedNORM/log.icoFoam.279889,Miyabi-C,8,896,Icx-FOAM-GAMG-PCG.fixedNORM,2,11.25,16.8,5.55,5.55,132
cases/proc_896/cases/Icx-FOAM-GAMG-PCG.fixedNORM/log.icoFoam.279891,Miyabi-C,8,896,Icx-FOAM-GAMG-PCG.fixedNORM,2,10.9,16.01,5.11,5.11,132
cases/proc_896/cases/Icx-FOAM-GAMG-PCG.fixedNORM/log.icoFoam.279892,Miyabi-C,8,896,Icx-FOAM-GAMG-PCG.fixedNORM,2,10.88,15.94,5.06,5.06,132
cases/proc_896/cases/Icx-PETSc-AMG-CG.mpiaij.fixedNORM.caching/log.icoFoam.269871,Miyabi-C,8,896,Icx-PETSc-AMG-CG.mpiaij.fixedNORM.caching,2,8.91,10.64,1.73,1.73,132
cases/proc_896/cases/Icx-PETSc-AMG-CG.mpiaij.fixedNORM.caching/log.icoFoam.279884,Miyabi-C,8,896,Icx-PETSc-AMG-CG.mpiaij.fixedNORM.caching,2,8.72,10.36,1.64,1.64,132
cases/proc_896/cases/Icx-PETSc-AMG-CG.mpiaij.fixedNORM.caching/log.icoFoam.279885,Miyabi-C,8,896,Icx-PETSc-AMG-CG.mpiaij.fixedNORM.caching,2,9.97,11.85,1.88,1.88,132
cases/proc_896/cases/Icx-PETSc-AMG-CG.mpiaij.fixedNORM.caching/log.icoFoam.279886,Miyabi-C,8,896,Icx-PETSc-AMG-CG.mpiaij.fixedNORM.caching,2,9.46,11.23,1.77,1.77,132
cases/proc_896/cases/Icx-PETSc-AMG-CG.mpiaij.fixedNORM.caching/log.icoFoam.279887,Miyabi-C,8,896,Icx-PETSc-AMG-CG.mpiaij.fixedNORM.caching,2,8.78,10.52,1.74,1.74,132
cases/proc_896/cases/Icx-PETSc-AMG-CG.mpiaij.fixedNORM/log.icoFoam.269874,Miyabi-C,8,896,Icx-PETSc-AMG-CG.mpiaij.fixedNORM,2,9.2,12.45,3.25,3.25,132
cases/proc_896/cases/Icx-PETSc-AMG-CG.mpiaij.fixedNORM/log.icoFoam.279900,Miyabi-C,8,896,Icx-PETSc-AMG-CG.mpiaij.fixedNORM,2,8.62,11.11,2.49,2.49,132
cases/proc_896/cases/Icx-PETSc-AMG-CG.mpiaij.fixedNORM/log.icoFoam.279901,Miyabi-C,8,896,Icx-PETSc-AMG-CG.mpiaij.fixedNORM,2,8.37,10.81,2.44,2.44,132
cases/proc_896/cases/Icx-PETSc-AMG-CG.mpiaij.fixedNORM/log.icoFoam.279902,Miyabi-C,8,896,Icx-PETSc-AMG-CG.mpiaij.fixedNORM,2,8.68,11.05,2.37,2.37,132
cases/proc_896/cases/Icx-PETSc-AMG-CG.mpiaij.fixedNORM/log.icoFoam.279903,Miyabi-C,8,896,Icx-PETSc-AMG-CG.mpiaij.fixedNORM,2,8.12,10.51,2.39,2.39,132
cases/proc_896/cases/Icx-PETSc-ICC-CG.mpiaij.fixedNORM/log.icoFoam.269875,Miyabi-C,8,896,Icx-PETSc-ICC-CG.mpiaij.fixedNORM,2,14.66,22.92,8.26,8.26,132
cases/proc_896/cases/Icx-PETSc-ICC-CG.mpiaij.fixedNORM/log.icoFoam.279906,Miyabi-C,8,896,Icx-PETSc-ICC-CG.mpiaij.fixedNORM,2,14.33,22.58,8.25,8.25,132
cases/proc_896/cases/Icx-PETSc-ICC-CG.mpiaij.fixedNORM/log.icoFoam.279907,Miyabi-C,8,896,Icx-PETSc-ICC-CG.mpiaij.fixedNORM,2,14.32,22.63,8.31,8.31,132
cases/proc_896/cases/Icx-PETSc-ICC-CG.mpiaij.fixedNORM/log.icoFoam.279908,Miyabi-C,8,896,Icx-PETSc-ICC-CG.mpiaij.fixedNORM,2,14.21,22.27,8.06,8.06,132
cases/proc_896/cases/Icx-PETSc-ICC-CG.mpiaij.fixedNORM/log.icoFoam.279909,Miyabi-C,8,896,Icx-PETSc-ICC-CG.mpiaij.fixedNORM,2,14.21,22.8,8.59,8.59,132
cases/proc_1792/cases/gccModule-FOAM-DIC-PCG.fixedNORM/log.icoFoam.281012,Miyabi-C,16,1792,gccModule-FOAM-DIC-PCG.fixedNORM,2,10.24,13.01,2.77,2.77,132
cases/proc_1792/cases/gccModule-FOAM-DIC-PCG.fixedNORM/log.icoFoam.281013,Miyabi-C,16,1792,gccModule-FOAM-DIC-PCG.fixedNORM,2,10.79,13.69,2.9,2.9,132
cases/proc_1792/cases/gccModule-FOAM-DIC-PCG.fixedNORM/log.icoFoam.281014,Miyabi-C,16,1792,gccModule-FOAM-DIC-PCG.fixedNORM,2,9.89,12.55,2.66,2.66,132
cases/proc_1792/cases/gccModule-FOAM-DIC-PCG.fixedNORM/log.icoFoam.281015,Miyabi-C,16,1792,gccModule-FOAM-DIC-PCG.fixedNORM,2,10.12,13.12,3,3,132
cases/proc_1792/cases/gccModule-FOAM-DIC-PCG.fixedNORM/log.icoFoam.281016,Miyabi-C,16,1792,gccModule-FOAM-DIC-PCG.fixedNORM,2,10.84,13.48,2.64,2.64,132
cases/proc_1792/cases/gccModule-FOAM-GAMG-PCG.fixedNORM/log.icoFoam.281004,Miyabi-C,16,1792,gccModule-FOAM-GAMG-PCG.fixedNORM,2,15.53,20.73,5.2,5.2,132
cases/proc_1792/cases/gccModule-FOAM-GAMG-PCG.fixedNORM/log.icoFoam.281005,Miyabi-C,16,1792,gccModule-FOAM-GAMG-PCG.fixedNORM,2,13.93,19.33,5.4,5.4,132
cases/proc_1792/cases/gccModule-FOAM-GAMG-PCG.fixedNORM/log.icoFoam.281007,Miyabi-C,16,1792,gccModule-FOAM-GAMG-PCG.fixedNORM,2,15.27,20.53,5.26,5.26,132
cases/proc_1792/cases/gccModule-FOAM-GAMG-PCG.fixedNORM/log.icoFoam.281008,Miyabi-C,16,1792,gccModule-FOAM-GAMG-PCG.fixedNORM,2,13.42,18.48,5.06,5.06,132
cases/proc_1792/cases/gccModule-FOAM-GAMG-PCG.fixedNORM/log.icoFoam.281011,Miyabi-C,16,1792,gccModule-FOAM-GAMG-PCG.fixedNORM,2,13.42,18.5,5.08,5.08,132
cases/proc_1792/cases/Icx-FOAM-DIC-PCG.fixedNORM/log.icoFoam.269878,Miyabi-C,16,1792,Icx-FOAM-DIC-PCG.fixedNORM,2,13.38,16.16,2.78,2.78,132
cases/proc_1792/cases/Icx-FOAM-DIC-PCG.fixedNORM/log.icoFoam.279920,Miyabi-C,16,1792,Icx-FOAM-DIC-PCG.fixedNORM,2,10.97,14.68,3.71,3.71,132
cases/proc_1792/cases/Icx-FOAM-DIC-PCG.fixedNORM/log.icoFoam.279922,Miyabi-C,16,1792,Icx-FOAM-DIC-PCG.fixedNORM,2,10.21,12.87,2.66,2.66,132
cases/proc_1792/cases/Icx-FOAM-DIC-PCG.fixedNORM/log.icoFoam.279923,Miyabi-C,16,1792,Icx-FOAM-DIC-PCG.fixedNORM,2,10.19,13.12,2.93,2.93,132
cases/proc_1792/cases/Icx-FOAM-DIC-PCG.fixedNORM/log.icoFoam.279924,Miyabi-C,16,1792,Icx-FOAM-DIC-PCG.fixedNORM,2,10.34,13.16,2.82,2.82,132
cases/proc_1792/cases/Icx-FOAM-GAMG-PCG.fixedNORM/log.icoFoam.269877,Miyabi-C,16,1792,Icx-FOAM-GAMG-PCG.fixedNORM,2,13.6,18.84,5.24,5.24,132
cases/proc_1792/cases/Icx-FOAM-GAMG-PCG.fixedNORM/log.icoFoam.279915,Miyabi-C,16,1792,Icx-FOAM-GAMG-PCG.fixedNORM,2,13.07,18.38,5.31,5.31,132
cases/proc_1792/cases/Icx-FOAM-GAMG-PCG.fixedNORM/log.icoFoam.279917,Miyabi-C,16,1792,Icx-FOAM-GAMG-PCG.fixedNORM,2,13.36,18.42,5.06,5.06,132
cases/proc_1792/cases/Icx-FOAM-GAMG-PCG.fixedNORM/log.icoFoam.279918,Miyabi-C,16,1792,Icx-FOAM-GAMG-PCG.fixedNORM,2,13.69,19.04,5.35,5.35,132
cases/proc_1792/cases/Icx-FOAM-GAMG-PCG.fixedNORM/log.icoFoam.279919,Miyabi-C,16,1792,Icx-FOAM-GAMG-PCG.fixedNORM,2,13.24,18.43,5.19,5.19,132
cases/proc_1792/cases/Icx-PETSc-AMG-CG.mpiaij.fixedNORM.caching/log.icoFoam.269876,Miyabi-C,16,1792,Icx-PETSc-AMG-CG.mpiaij.fixedNORM.caching,2,12.43,13.85,1.42,1.42,132
cases/proc_1792/cases/Icx-PETSc-AMG-CG.mpiaij.fixedNORM.caching/log.icoFoam.279910,Miyabi-C,16,1792,Icx-PETSc-AMG-CG.mpiaij.fixedNORM.caching,2,11.16,12.48,1.32,1.32,132
cases/proc_1792/cases/Icx-PETSc-AMG-CG.mpiaij.fixedNORM.caching/log.icoFoam.279912,Miyabi-C,16,1792,Icx-PETSc-AMG-CG.mpiaij.fixedNORM.caching,2,12.17,13.49,1.32,1.32,132
cases/proc_1792/cases/Icx-PETSc-AMG-CG.mpiaij.fixedNORM.caching/log.icoFoam.279913,Miyabi-C,16,1792,Icx-PETSc-AMG-CG.mpiaij.fixedNORM.caching,2,9.87,11.2,1.33,1.33,132
cases/proc_1792/cases/Icx-PETSc-AMG-CG.mpiaij.fixedNORM.caching/log.icoFoam.279914,Miyabi-C,16,1792,Icx-PETSc-AMG-CG.mpiaij.fixedNORM.caching,2,9.32,10.79,1.47,1.47,132
cases/proc_1792/cases/Icx-PETSc-AMG-CG.mpiaij.fixedNORM/log.icoFoam.269879,Miyabi-C,16,1792,Icx-PETSc-AMG-CG.mpiaij.fixedNORM,2,10.92,13.02,2.1,2.1,132
cases/proc_1792/cases/Icx-PETSc-AMG-CG.mpiaij.fixedNORM/log.icoFoam.279925,Miyabi-C,16,1792,Icx-PETSc-AMG-CG.mpiaij.fixedNORM,2,10.24,12.29,2.05,2.05,132
cases/proc_1792/cases/Icx-PETSc-AMG-CG.mpiaij.fixedNORM/log.icoFoam.279926,Miyabi-C,16,1792,Icx-PETSc-AMG-CG.mpiaij.fixedNORM,2,10.18,12.42,2.24,2.24,132
cases/proc_1792/cases/Icx-PETSc-AMG-CG.mpiaij.fixedNORM/log.icoFoam.279928,Miyabi-C,16,1792,Icx-PETSc-AMG-CG.mpiaij.fixedNORM,2,10.02,12.06,2.04,2.04,132
cases/proc_1792/cases/Icx-PETSc-AMG-CG.mpiaij.fixedNORM/log.icoFoam.279929,Miyabi-C,16,1792,Icx-PETSc-AMG-CG.mpiaij.fixedNORM,2,9.38,11.37,1.99,1.99,132
cases/proc_1792/cases/Icx-PETSc-ICC-CG.mpiaij.fixedNORM/log.icoFoam.269880,Miyabi-C,16,1792,Icx-PETSc-ICC-CG.mpiaij.fixedNORM,2,13.04,18.41,5.37,5.37,132
cases/proc_1792/cases/Icx-PETSc-ICC-CG.mpiaij.fixedNORM/log.icoFoam.279930,Miyabi-C,16,1792,Icx-PETSc-ICC-CG.mpiaij.fixedNORM,2,12.81,17.53,4.72,4.72,132
cases/proc_1792/cases/Icx-PETSc-ICC-CG.mpiaij.fixedNORM/log.icoFoam.279932,Miyabi-C,16,1792,Icx-PETSc-ICC-CG.mpiaij.fixedNORM,2,12.59,17.33,4.74,4.74,132
cases/proc_1792/cases/Icx-PETSc-ICC-CG.mpiaij.fixedNORM/log.icoFoam.279933,Miyabi-C,16,1792,Icx-PETSc-ICC-CG.mpiaij.fixedNORM,2,12.6,17.57,4.97,4.97,132
cases/proc_1792/cases/Icx-PETSc-ICC-CG.mpiaij.fixedNORM/log.icoFoam.279934,Miyabi-C,16,1792,Icx-PETSc-ICC-CG.mpiaij.fixedNORM,2,12.53,17.59,5.06,5.06,132
cases/proc_3584/cases/gccModule-FOAM-DIC-PCG.fixedNORM/log.icoFoam.281023,Miyabi-C,32,3584,gccModule-FOAM-DIC-PCG.fixedNORM,2,11.83,13.37,1.54,1.54,132
cases/proc_3584/cases/gccModule-FOAM-DIC-PCG.fixedNORM/log.icoFoam.281027,Miyabi-C,32,3584,gccModule-FOAM-DIC-PCG.fixedNORM,2,13,14.78,1.78,1.78,132
cases/proc_3584/cases/gccModule-FOAM-DIC-PCG.fixedNORM/log.icoFoam.281028,Miyabi-C,32,3584,gccModule-FOAM-DIC-PCG.fixedNORM,2,11.37,13.08,1.71,1.71,132
cases/proc_3584/cases/gccModule-FOAM-DIC-PCG.fixedNORM/log.icoFoam.281029,Miyabi-C,32,3584,gccModule-FOAM-DIC-PCG.fixedNORM,2,12.37,13.85,1.48,1.48,132
cases/proc_3584/cases/gccModule-FOAM-DIC-PCG.fixedNORM/log.icoFoam.281030,Miyabi-C,32,3584,gccModule-FOAM-DIC-PCG.fixedNORM,2,12.67,14.17,1.5,1.5,132
cases/proc_3584/cases/gccModule-FOAM-GAMG-PCG.fixedNORM/log.icoFoam.281017,Miyabi-C,32,3584,gccModule-FOAM-GAMG-PCG.fixedNORM,2,18.97,24.77,5.8,5.8,132
cases/proc_3584/cases/gccModule-FOAM-GAMG-PCG.fixedNORM/log.icoFoam.281018,Miyabi-C,32,3584,gccModule-FOAM-GAMG-PCG.fixedNORM,2,17.92,24.03,6.11,6.11,132
cases/proc_3584/cases/gccModule-FOAM-GAMG-PCG.fixedNORM/log.icoFoam.281019,Miyabi-C,32,3584,gccModule-FOAM-GAMG-PCG.fixedNORM,2,16.76,22.69,5.93,5.93,132
cases/proc_3584/cases/gccModule-FOAM-GAMG-PCG.fixedNORM/log.icoFoam.281020,Miyabi-C,32,3584,gccModule-FOAM-GAMG-PCG.fixedNORM,2,16.85,23,6.15,6.15,132
cases/proc_3584/cases/gccModule-FOAM-GAMG-PCG.fixedNORM/log.icoFoam.281022,Miyabi-C,32,3584,gccModule-FOAM-GAMG-PCG.fixedNORM,2,17,22.94,5.94,5.94,132
cases/proc_3584/cases/Icx-FOAM-DIC-PCG.fixedNORM/log.icoFoam.269883,Miyabi-C,32,3584,Icx-FOAM-DIC-PCG.fixedNORM,2,16.48,18.16,1.68,1.68,132
cases/proc_3584/cases/Icx-FOAM-DIC-PCG.fixedNORM/log.icoFoam.279947,Miyabi-C,32,3584,Icx-FOAM-DIC-PCG.fixedNORM,2,16.03,17.78,1.75,1.75,132
cases/proc_3584/cases/Icx-FOAM-DIC-PCG.fixedNORM/log.icoFoam.279948,Miyabi-C,32,3584,Icx-FOAM-DIC-PCG.fixedNORM,2,11.89,13.3,1.41,1.41,132
cases/proc_3584/cases/Icx-FOAM-DIC-PCG.fixedNORM/log.icoFoam.279950,Miyabi-C,32,3584,Icx-FOAM-DIC-PCG.fixedNORM,2,12.31,13.87,1.56,1.56,132
cases/proc_3584/cases/Icx-FOAM-DIC-PCG.fixedNORM/log.icoFoam.279951,Miyabi-C,32,3584,Icx-FOAM-DIC-PCG.fixedNORM,2,12.9,14.38,1.48,1.48,132
cases/proc_3584/cases/Icx-FOAM-GAMG-PCG.fixedNORM/log.icoFoam.269882,Miyabi-C,32,3584,Icx-FOAM-GAMG-PCG.fixedNORM,2,22.96,29.16,6.2,6.2,132
cases/proc_3584/cases/Icx-FOAM-GAMG-PCG.fixedNORM/log.icoFoam.279941,Miyabi-C,32,3584,Icx-FOAM-GAMG-PCG.fixedNORM,2,16.73,22.8,6.07,6.07,132
cases/proc_3584/cases/Icx-FOAM-GAMG-PCG.fixedNORM/log.icoFoam.279943,Miyabi-C,32,3584,Icx-FOAM-GAMG-PCG.fixedNORM,2,17.5,23.39,5.89,5.89,132
cases/proc_3584/cases/Icx-FOAM-GAMG-PCG.fixedNORM/log.icoFoam.279944,Miyabi-C,32,3584,Icx-FOAM-GAMG-PCG.fixedNORM,2,17.45,23.92,6.47,6.47,132
cases/proc_3584/cases/Icx-FOAM-GAMG-PCG.fixedNORM/log.icoFoam.279945,Miyabi-C,32,3584,Icx-FOAM-GAMG-PCG.fixedNORM,2,16.89,22.49,5.6,5.6,132
cases/proc_3584/cases/Icx-PETSc-AMG-CG.mpiaij.fixedNORM.caching/log.icoFoam.269881,Miyabi-C,32,3584,Icx-PETSc-AMG-CG.mpiaij.fixedNORM.caching,2,14.51,15.76,1.25,1.25,132
cases/proc_3584/cases/Icx-PETSc-AMG-CG.mpiaij.fixedNORM.caching/log.icoFoam.279935,Miyabi-C,32,3584,Icx-PETSc-AMG-CG.mpiaij.fixedNORM.caching,2,13.66,15.09,1.43,1.43,132
cases/proc_3584/cases/Icx-PETSc-AMG-CG.mpiaij.fixedNORM.caching/log.icoFoam.279937,Miyabi-C,32,3584,Icx-PETSc-AMG-CG.mpiaij.fixedNORM.caching,2,13.81,15.32,1.51,1.51,132
cases/proc_3584/cases/Icx-PETSc-AMG-CG.mpiaij.fixedNORM.caching/log.icoFoam.279938,Miyabi-C,32,3584,Icx-PETSc-AMG-CG.mpiaij.fixedNORM.caching,2,13.21,14.5,1.29,1.29,132
cases/proc_3584/cases/Icx-PETSc-AMG-CG.mpiaij.fixedNORM.caching/log.icoFoam.279940,Miyabi-C,32,3584,Icx-PETSc-AMG-CG.mpiaij.fixedNORM.caching,2,13.13,14.5,1.37,1.37,132
cases/proc_3584/cases/Icx-PETSc-AMG-CG.mpiaij.fixedNORM/log.icoFoam.269884,Miyabi-C,32,3584,Icx-PETSc-AMG-CG.mpiaij.fixedNORM,2,18.08,20.51,2.43,2.43,132
cases/proc_3584/cases/Icx-PETSc-AMG-CG.mpiaij.fixedNORM/log.icoFoam.279953,Miyabi-C,32,3584,Icx-PETSc-AMG-CG.mpiaij.fixedNORM,2,18.13,20.46,2.33,2.33,132
cases/proc_3584/cases/Icx-PETSc-AMG-CG.mpiaij.fixedNORM/log.icoFoam.279954,Miyabi-C,32,3584,Icx-PETSc-AMG-CG.mpiaij.fixedNORM,2,19.22,21.55,2.33,2.33,132
cases/proc_3584/cases/Icx-PETSc-AMG-CG.mpiaij.fixedNORM/log.icoFoam.279955,Miyabi-C,32,3584,Icx-PETSc-AMG-CG.mpiaij.fixedNORM,2,18,20.18,2.18,2.18,132
cases/proc_3584/cases/Icx-PETSc-AMG-CG.mpiaij.fixedNORM/log.icoFoam.279956,Miyabi-C,32,3584,Icx-PETSc-AMG-CG.mpiaij.fixedNORM,2,19.41,21.52,2.11,2.11,132
cases/proc_3584/cases/Icx-PETSc-ICC-CG.mpiaij.fixedNORM/log.icoFoam.269885,Miyabi-C,32,3584,Icx-PETSc-ICC-CG.mpiaij.fixedNORM,2,18.72,22.12,3.4,3.4,132
cases/proc_3584/cases/Icx-PETSc-ICC-CG.mpiaij.fixedNORM/log.icoFoam.279957,Miyabi-C,32,3584,Icx-PETSc-ICC-CG.mpiaij.fixedNORM,2,18.33,21.71,3.38,3.38,132
cases/proc_3584/cases/Icx-PETSc-ICC-CG.mpiaij.fixedNORM/log.icoFoam.279958,Miyabi-C,32,3584,Icx-PETSc-ICC-CG.mpiaij.fixedNORM,2,20.06,23.62,3.56,3.56,132
cases/proc_3584/cases/Icx-PETSc-ICC-CG.mpiaij.fixedNORM/log.icoFoam.279959,Miyabi-C,32,3584,Icx-PETSc-ICC-CG.mpiaij.fixedNORM,2,18.74,22.37,3.63,3.63,132
cases/proc_3584/cases/Icx-PETSc-ICC-CG.mpiaij.fixedNORM/log.icoFoam.279960,Miyabi-C,32,3584,Icx-PETSc-ICC-CG.mpiaij.fixedNORM,2,18.86,22.13,3.27,3.27,132
cases/proc_7168/cases/gccModule-FOAM-DIC-PCG.fixedNORM/log.icoFoam.281048,Miyabi-C,64,7168,gccModule-FOAM-DIC-PCG.fixedNORM,2,17.03,25.14,8.11,8.11,132
cases/proc_7168/cases/gccModule-FOAM-DIC-PCG.fixedNORM/log.icoFoam.281051,Miyabi-C,64,7168,gccModule-FOAM-DIC-PCG.fixedNORM,2,17.24,25.41,8.17,8.17,132
cases/proc_7168/cases/gccModule-FOAM-DIC-PCG.fixedNORM/log.icoFoam.281060,Miyabi-C,64,7168,gccModule-FOAM-DIC-PCG.fixedNORM,2,16.62,25.26,8.64,8.64,132
cases/proc_7168/cases/gccModule-FOAM-DIC-PCG.fixedNORM/log.icoFoam.281066,Miyabi-C,64,7168,gccModule-FOAM-DIC-PCG.fixedNORM,2,17.23,25.5,8.27,8.27,132
cases/proc_7168/cases/gccModule-FOAM-DIC-PCG.fixedNORM/log.icoFoam.281067,Miyabi-C,64,7168,gccModule-FOAM-DIC-PCG.fixedNORM,2,17.73,26.16,8.43,8.43,132
cases/proc_7168/cases/gccModule-FOAM-GAMG-PCG.fixedNORM/log.icoFoam.281033,Miyabi-C,64,7168,gccModule-FOAM-GAMG-PCG.fixedNORM,2,94.82,176.49,81.67,81.67,132
cases/proc_7168/cases/gccModule-FOAM-GAMG-PCG.fixedNORM/log.icoFoam.281034,Miyabi-C,64,7168,gccModule-FOAM-GAMG-PCG.fixedNORM,2,91.46,174.77,83.31,83.31,132
cases/proc_7168/cases/gccModule-FOAM-GAMG-PCG.fixedNORM/log.icoFoam.281035,Miyabi-C,64,7168,gccModule-FOAM-GAMG-PCG.fixedNORM,2,95.09,177.66,82.57,82.57,132
cases/proc_7168/cases/gccModule-FOAM-GAMG-PCG.fixedNORM/log.icoFoam.281036,Miyabi-C,64,7168,gccModule-FOAM-GAMG-PCG.fixedNORM,2,89.14,169.59,80.45,80.45,132
cases/proc_7168/cases/gccModule-FOAM-GAMG-PCG.fixedNORM/log.icoFoam.281044,Miyabi-C,64,7168,gccModule-FOAM-GAMG-PCG.fixedNORM,2,88.71,168.2,79.49,79.49,132
cases/proc_7168/cases/Icx-FOAM-DIC-PCG.fixedNORM/log.icoFoam.269888,Miyabi-C,64,7168,Icx-FOAM-DIC-PCG.fixedNORM,2,20.3,28.83,8.53,8.53,132
cases/proc_7168/cases/Icx-FOAM-DIC-PCG.fixedNORM/log.icoFoam.280196,Miyabi-C,64,7168,Icx-FOAM-DIC-PCG.fixedNORM,2,16.93,25.01,8.08,8.08,132
cases/proc_7168/cases/Icx-FOAM-DIC-PCG.fixedNORM/log.icoFoam.280199,Miyabi-C,64,7168,Icx-FOAM-DIC-PCG.fixedNORM,2,16.32,25,8.68,8.68,132
cases/proc_7168/cases/Icx-FOAM-DIC-PCG.fixedNORM/log.icoFoam.280201,Miyabi-C,64,7168,Icx-FOAM-DIC-PCG.fixedNORM,2,16.6,24.7,8.1,8.1,132
cases/proc_7168/cases/Icx-FOAM-DIC-PCG.fixedNORM/log.icoFoam.280202,Miyabi-C,64,7168,Icx-FOAM-DIC-PCG.fixedNORM,2,16.85,25.05,8.2,8.2,132
cases/proc_7168/cases/Icx-FOAM-GAMG-PCG.fixedNORM/log.icoFoam.269887,Miyabi-C,64,7168,Icx-FOAM-GAMG-PCG.fixedNORM,2,99.44,182.89,83.45,83.45,132
cases/proc_7168/cases/Icx-FOAM-GAMG-PCG.fixedNORM/log.icoFoam.280182,Miyabi-C,64,7168,Icx-FOAM-GAMG-PCG.fixedNORM,2,93.56,180.08,86.52,86.52,132
cases/proc_7168/cases/Icx-FOAM-GAMG-PCG.fixedNORM/log.icoFoam.280186,Miyabi-C,64,7168,Icx-FOAM-GAMG-PCG.fixedNORM,2,88.82,168.26,79.44,79.44,132
cases/proc_7168/cases/Icx-FOAM-GAMG-PCG.fixedNORM/log.icoFoam.280188,Miyabi-C,64,7168,Icx-FOAM-GAMG-PCG.fixedNORM,2,91.88,171.62,79.74,79.74,132
cases/proc_7168/cases/Icx-FOAM-GAMG-PCG.fixedNORM/log.icoFoam.280190,Miyabi-C,64,7168,Icx-FOAM-GAMG-PCG.fixedNORM,2,91.19,171.91,80.72,80.72,132
cases/proc_7168/cases/Icx-PETSc-AMG-CG.mpiaij.fixedNORM.caching/log.icoFoam.269886,Miyabi-C,64,7168,Icx-PETSc-AMG-CG.mpiaij.fixedNORM.caching,2,15.18,17.74,2.56,2.56,132
cases/proc_7168/cases/Icx-PETSc-AMG-CG.mpiaij.fixedNORM.caching/log.icoFoam.280172,Miyabi-C,64,7168,Icx-PETSc-AMG-CG.mpiaij.fixedNORM.caching,2,16.69,19.33,2.64,2.64,132
cases/proc_7168/cases/Icx-PETSc-AMG-CG.mpiaij.fixedNORM.caching/log.icoFoam.280175,Miyabi-C,64,7168,Icx-PETSc-AMG-CG.mpiaij.fixedNORM.caching,2,16.71,19.4,2.69,2.69,132
cases/proc_7168/cases/Icx-PETSc-AMG-CG.mpiaij.fixedNORM.caching/log.icoFoam.280177,Miyabi-C,64,7168,Icx-PETSc-AMG-CG.mpiaij.fixedNORM.caching,2,16.71,19.62,2.91,2.91,132
cases/proc_7168/cases/Icx-PETSc-AMG-CG.mpiaij.fixedNORM.caching/log.icoFoam.280178,Miyabi-C,64,7168,Icx-PETSc-AMG-CG.mpiaij.fixedNORM.caching,2,12.6,15.38,2.78,2.78,132
cases/proc_7168/cases/Icx-PETSc-AMG-CG.mpiaij.fixedNORM/log.icoFoam.269889,Miyabi-C,64,7168,Icx-PETSc-AMG-CG.mpiaij.fixedNORM,2,14.52,18.96,4.44,4.44,132
cases/proc_7168/cases/Icx-PETSc-AMG-CG.mpiaij.fixedNORM/log.icoFoam.280203,Miyabi-C,64,7168,Icx-PETSc-AMG-CG.mpiaij.fixedNORM,2,13.04,17.53,4.49,4.49,132
cases/proc_7168/cases/Icx-PETSc-AMG-CG.mpiaij.fixedNORM/log.icoFoam.280206,Miyabi-C,64,7168,Icx-PETSc-AMG-CG.mpiaij.fixedNORM,2,14.35,18.4,4.05,4.05,132
cases/proc_7168/cases/Icx-PETSc-AMG-CG.mpiaij.fixedNORM/log.icoFoam.280207,Miyabi-C,64,7168,Icx-PETSc-AMG-CG.mpiaij.fixedNORM,2,15.58,19.43,3.85,3.85,132
cases/proc_7168/cases/Icx-PETSc-AMG-CG.mpiaij.fixedNORM/log.icoFoam.280208,Miyabi-C,64,7168,Icx-PETSc-AMG-CG.mpiaij.fixedNORM,2,13.2,17.43,4.23,4.23,132
cases/proc_7168/cases/Icx-PETSc-ICC-CG.mpiaij.fixedNORM/log.icoFoam.269890,Miyabi-C,64,7168,Icx-PETSc-ICC-CG.mpiaij.fixedNORM,2,17.66,26.55,8.89,8.89,132
cases/proc_7168/cases/Icx-PETSc-ICC-CG.mpiaij.fixedNORM/log.icoFoam.280209,Miyabi-C,64,7168,Icx-PETSc-ICC-CG.mpiaij.fixedNORM,2,16.98,25.64,8.66,8.66,132
cases/proc_7168/cases/Icx-PETSc-ICC-CG.mpiaij.fixedNORM/log.icoFoam.280212,Miyabi-C,64,7168,Icx-PETSc-ICC-CG.mpiaij.fixedNORM,2,17.29,25.79,8.5,8.5,132
cases/proc_7168/cases/Icx-PETSc-ICC-CG.mpiaij.fixedNORM/log.icoFoam.280213,Miyabi-C,64,7168,Icx-PETSc-ICC-CG.mpiaij.fixedNORM,2,18.93,27.16,8.23,8.23,132
cases/proc_7168/cases/Icx-PETSc-ICC-CG.mpiaij.fixedNORM/log.icoFoam.280214,Miyabi-C,64,7168,Icx-PETSc-ICC-CG.mpiaij.fixedNORM,2,17.48,26.04,8.56,8.56,132
