#Value,mx,my,mz,decomposeParDict_node,decomposeParDict_ppn,decomposeParDict_method,OpenFOAM_VERSION,WM_COMPILER_TYPE,WM_COMPILER,WM_PRECISION_OPTION,WM_LABEL_SIZE,WM_COMPILE_OPTION,WM_MPLIB,favourSpeedOverMemory,fvSolution_solvers_p_relTol,fvSolution_solvers_p_solver,fvSolution_solvers_p_preconditioner,fvSolution_solvers_pFinal_solver,fvSolution_solvers_pFinal_preconditioner,fvSolution_solvers_UFinal_solver,fvSolution_solvers_UFinal_preconditioner,gpuDirectTransfer,policy,profiling
0.3448,120,65,48,1,1,scotch,RapidCFD-dev,system,Nvcc,DP,32,Opt,SYSTEMOPENMPI,2,0.05,PCG,DIC,PCG,DIC,PBiCG,DILU,0,compact,
0.3462,120,65,48,1,1,scotch,RapidCFD-dev,system,Nvcc,DP,32,Opt,SYSTEMOPENMPI,2,0.05,PCG,DIC,PCG,DIC,PBiCG,DILU,0,scatter,
0.3466,120,65,48,1,1,scotch,RapidCFD-dev,system,Nvcc,DP,32,Opt,SYSTEMOPENMPI,2,0.05,PCG,DIC,PCG,DIC,PBiCG,DILU,1,compact,
0.3448,120,65,48,1,1,scotch,RapidCFD-dev,system,Nvcc,DP,32,Opt,SYSTEMOPENMPI,2,0.05,PCG,DIC,PCG,DIC,PBiCG,DILU,1,scatter,
0.2848,120,65,48,1,1,scotch,RapidCFD-dev,system,Nvcc,SP,32,Opt,SYSTEMOPENMPI,2,0.05,PCG,DIC,PCG,DIC,PBiCG,DILU,0,compact,
0.289,120,65,48,1,1,scotch,RapidCFD-dev,system,Nvcc,SP,32,Opt,SYSTEMOPENMPI,2,0.05,PCG,DIC,PCG,DIC,PBiCG,DILU,0,scatter,
0.2884,120,65,48,1,1,scotch,RapidCFD-dev,system,Nvcc,SP,32,Opt,SYSTEMOPENMPI,2,0.05,PCG,DIC,PCG,DIC,PBiCG,DILU,1,compact,
0.2848,120,65,48,1,1,scotch,RapidCFD-dev,system,Nvcc,SP,32,Opt,SYSTEMOPENMPI,2,0.05,PCG,DIC,PCG,DIC,PBiCG,DILU,1,scatter,
0.33,120,65,48,1,2,scotch,RapidCFD-dev,system,Nvcc,DP,32,Opt,SYSTEMOPENMPI,2,0.05,PCG,DIC,PCG,DIC,PBiCG,DILU,0,compact,
0.3438,120,65,48,1,2,scotch,RapidCFD-dev,system,Nvcc,DP,32,Opt,SYSTEMOPENMPI,2,0.05,PCG,DIC,PCG,DIC,PBiCG,DILU,0,scatter,
0.3366,120,65,48,1,2,scotch,RapidCFD-dev,system,Nvcc,DP,32,Opt,SYSTEMOPENMPI,2,0.05,PCG,DIC,PCG,DIC,PBiCG,DILU,1,compact,
0.3412,120,65,48,1,2,scotch,RapidCFD-dev,system,Nvcc,DP,32,Opt,SYSTEMOPENMPI,2,0.05,PCG,DIC,PCG,DIC,PBiCG,DILU,1,scatter,
0.3266,120,65,48,1,2,scotch,RapidCFD-dev,system,Nvcc,SP,32,Opt,SYSTEMOPENMPI,2,0.05,PCG,DIC,PCG,DIC,PBiCG,DILU,0,compact,
0.3368,120,65,48,1,2,scotch,RapidCFD-dev,system,Nvcc,SP,32,Opt,SYSTEMOPENMPI,2,0.05,PCG,DIC,PCG,DIC,PBiCG,DILU,0,scatter,
0.337,120,65,48,1,2,scotch,RapidCFD-dev,system,Nvcc,SP,32,Opt,SYSTEMOPENMPI,2,0.05,PCG,DIC,PCG,DIC,PBiCG,DILU,1,compact,
0.3438,120,65,48,1,2,scotch,RapidCFD-dev,system,Nvcc,SP,32,Opt,SYSTEMOPENMPI,2,0.05,PCG,DIC,PCG,DIC,PBiCG,DILU,1,scatter,
0.3644,120,65,48,1,4,scotch,RapidCFD-dev,system,Nvcc,DP,32,Opt,SYSTEMOPENMPI,2,0.05,PCG,DIC,PCG,DIC,PBiCG,DILU,0,compact,
0.36,120,65,48,1,4,scotch,RapidCFD-dev,system,Nvcc,DP,32,Opt,SYSTEMOPENMPI,2,0.05,PCG,DIC,PCG,DIC,PBiCG,DILU,0,scatter,
0.4608,120,65,48,1,4,scotch,RapidCFD-dev,system,Nvcc,DP,32,Opt,SYSTEMOPENMPI,2,0.05,PCG,DIC,PCG,DIC,PBiCG,DILU,1,compact,
0.4638,120,65,48,1,4,scotch,RapidCFD-dev,system,Nvcc,DP,32,Opt,SYSTEMOPENMPI,2,0.05,PCG,DIC,PCG,DIC,PBiCG,DILU,1,scatter,
0.3524,120,65,48,1,4,scotch,RapidCFD-dev,system,Nvcc,SP,32,Opt,SYSTEMOPENMPI,2,0.05,PCG,DIC,PCG,DIC,PBiCG,DILU,0,compact,
0.3486,120,65,48,1,4,scotch,RapidCFD-dev,system,Nvcc,SP,32,Opt,SYSTEMOPENMPI,2,0.05,PCG,DIC,PCG,DIC,PBiCG,DILU,0,scatter,
0.4652,120,65,48,1,4,scotch,RapidCFD-dev,system,Nvcc,SP,32,Opt,SYSTEMOPENMPI,2,0.05,PCG,DIC,PCG,DIC,PBiCG,DILU,1,compact,
0.4712,120,65,48,1,4,scotch,RapidCFD-dev,system,Nvcc,SP,32,Opt,SYSTEMOPENMPI,2,0.05,PCG,DIC,PCG,DIC,PBiCG,DILU,1,scatter,
0.3266,120,65,48,2,1,scotch,RapidCFD-dev,system,Nvcc,DP,32,Opt,SYSTEMOPENMPI,2,0.05,PCG,DIC,PCG,DIC,PBiCG,DILU,0,compact,
0.326,120,65,48,2,1,scotch,RapidCFD-dev,system,Nvcc,DP,32,Opt,SYSTEMOPENMPI,2,0.05,PCG,DIC,PCG,DIC,PBiCG,DILU,0,scatter,
0.4012,120,65,48,2,1,scotch,RapidCFD-dev,system,Nvcc,DP,32,Opt,SYSTEMOPENMPI,2,0.05,PCG,DIC,PCG,DIC,PBiCG,DILU,1,compact,
0.3994,120,65,48,2,1,scotch,RapidCFD-dev,system,Nvcc,DP,32,Opt,SYSTEMOPENMPI,2,0.05,PCG,DIC,PCG,DIC,PBiCG,DILU,1,scatter,
0.3258,120,65,48,2,1,scotch,RapidCFD-dev,system,Nvcc,SP,32,Opt,SYSTEMOPENMPI,2,0.05,PCG,DIC,PCG,DIC,PBiCG,DILU,0,compact,
0.3228,120,65,48,2,1,scotch,RapidCFD-dev,system,Nvcc,SP,32,Opt,SYSTEMOPENMPI,2,0.05,PCG,DIC,PCG,DIC,PBiCG,DILU,0,scatter,
0.3564,120,65,48,2,1,scotch,RapidCFD-dev,system,Nvcc,SP,32,Opt,SYSTEMOPENMPI,2,0.05,PCG,DIC,PCG,DIC,PBiCG,DILU,1,compact,
0.3646,120,65,48,2,1,scotch,RapidCFD-dev,system,Nvcc,SP,32,Opt,SYSTEMOPENMPI,2,0.05,PCG,DIC,PCG,DIC,PBiCG,DILU,1,scatter,
0.3604,120,65,48,2,2,scotch,RapidCFD-dev,system,Nvcc,DP,32,Opt,SYSTEMOPENMPI,2,0.05,PCG,DIC,PCG,DIC,PBiCG,DILU,0,compact,
0.3558,120,65,48,2,2,scotch,RapidCFD-dev,system,Nvcc,DP,32,Opt,SYSTEMOPENMPI,2,0.05,PCG,DIC,PCG,DIC,PBiCG,DILU,0,scatter,
0.5514,120,65,48,2,2,scotch,RapidCFD-dev,system,Nvcc,DP,32,Opt,SYSTEMOPENMPI,2,0.05,PCG,DIC,PCG,DIC,PBiCG,DILU,1,compact,
0.5498,120,65,48,2,2,scotch,RapidCFD-dev,system,Nvcc,DP,32,Opt,SYSTEMOPENMPI,2,0.05,PCG,DIC,PCG,DIC,PBiCG,DILU,1,scatter,
0.3546,120,65,48,2,2,scotch,RapidCFD-dev,system,Nvcc,SP,32,Opt,SYSTEMOPENMPI,2,0.05,PCG,DIC,PCG,DIC,PBiCG,DILU,0,compact,
0.3504,120,65,48,2,2,scotch,RapidCFD-dev,system,Nvcc,SP,32,Opt,SYSTEMOPENMPI,2,0.05,PCG,DIC,PCG,DIC,PBiCG,DILU,0,scatter,
0.5332,120,65,48,2,2,scotch,RapidCFD-dev,system,Nvcc,SP,32,Opt,SYSTEMOPENMPI,2,0.05,PCG,DIC,PCG,DIC,PBiCG,DILU,1,compact,
0.5306,120,65,48,2,2,scotch,RapidCFD-dev,system,Nvcc,SP,32,Opt,SYSTEMOPENMPI,2,0.05,PCG,DIC,PCG,DIC,PBiCG,DILU,1,scatter,
0.3758,120,65,48,2,4,scotch,RapidCFD-dev,system,Nvcc,DP,32,Opt,SYSTEMOPENMPI,2,0.05,PCG,DIC,PCG,DIC,PBiCG,DILU,0,compact,
0.36,120,65,48,2,4,scotch,RapidCFD-dev,system,Nvcc,DP,32,Opt,SYSTEMOPENMPI,2,0.05,PCG,DIC,PCG,DIC,PBiCG,DILU,0,scatter,
1.5464,120,65,48,2,4,scotch,RapidCFD-dev,system,Nvcc,DP,32,Opt,SYSTEMOPENMPI,2,0.05,PCG,DIC,PCG,DIC,PBiCG,DILU,1,compact,
1.5444,120,65,48,2,4,scotch,RapidCFD-dev,system,Nvcc,DP,32,Opt,SYSTEMOPENMPI,2,0.05,PCG,DIC,PCG,DIC,PBiCG,DILU,1,scatter,
0.3764,120,65,48,2,4,scotch,RapidCFD-dev,system,Nvcc,SP,32,Opt,SYSTEMOPENMPI,2,0.05,PCG,DIC,PCG,DIC,PBiCG,DILU,0,compact,
0.3866,120,65,48,2,4,scotch,RapidCFD-dev,system,Nvcc,SP,32,Opt,SYSTEMOPENMPI,2,0.05,PCG,DIC,PCG,DIC,PBiCG,DILU,0,scatter,
2.4866,120,65,48,2,4,scotch,RapidCFD-dev,system,Nvcc,SP,32,Opt,SYSTEMOPENMPI,2,0.05,PCG,DIC,PCG,DIC,PBiCG,DILU,1,compact,
2.5082,120,65,48,2,4,scotch,RapidCFD-dev,system,Nvcc,SP,32,Opt,SYSTEMOPENMPI,2,0.05,PCG,DIC,PCG,DIC,PBiCG,DILU,1,scatter,
