{
    "mesh.sh":
    {
	"mx": [ 480 ],
	"my": [ 260 ],
	"mz": [ 192 ]
    },
    "decomposeParDict.sh":
    {
	"decomposeParDict_node": [ 1, 2, 4 ],
	"decomposeParDict_ppn": [ 1, 2, 4 ],
	"decomposeParDict_method": [ "scotch" ]
    },
    "solver.sh":
    {
	"OpenFOAM_VERSION": [ "RapidCFD-dev" ],
	"WM_COMPILER_TYPE": [ "system" ],
	"WM_COMPILER": [ "Nvcc" ],
	"WM_PRECISION_OPTION": [ "DP", "SP" ],
	"WM_LABEL_SIZE": [ 32 ],
	"WM_COMPILE_OPTION": [ "Opt" ],
	"WM_MPLIB": [ "SYSTEMOPENMPI" ],
	"favourSpeedOverMemory": [ "2" ],
	"fvSolution_solvers_p_relTol": [ 0.05 ],
	"fvSolution_solvers_p_solver": [ "PCG" ],
	"fvSolution_solvers_p_preconditioner": [ "DIC" ],
	"fvSolution_solvers_pFinal_solver": [ "PCG" ],
	"fvSolution_solvers_pFinal_preconditioner": [ "DIC" ],
	"fvSolution_solvers_UFinal_solver": [ "PBiCG" ],
	"fvSolution_solvers_UFinal_preconditioner": [ "DILU" ],
	"gpuDirectTransfer": [ "0", "1" ],
	"policy": [ "compact", "scatter" ],
	"profiling": [ "" ]
    }
}
