#Log,Host,Node,Proc,Case,TimeSteps,InitTime[s],LastTime[s],Time[s],AveTime[s],SM
cases/proc_72/cases/Gcc12.4.0-PCG_CLASSICAL_V_JACOBI/log.icoFoam.256328,Miyabi-G,1,72,Gcc12.4.0-PCG_CLASSICAL_V_JACOBI,2,15.1,20.73,5.63,5.63,132
cases/proc_72/cases/Gcc12.4.0-PCG_CLASSICAL_V_JACOBI/log.icoFoam.256329,Miyabi-G,1,72,Gcc12.4.0-PCG_CLASSICAL_V_JACOBI,2,14.78,20.41,5.63,5.63,132
cases/proc_72/cases/Gcc12.4.0-PCG_CLASSICAL_V_JACOBI/log.icoFoam.256330,Miyabi-G,1,72,Gcc12.4.0-PCG_CLASSICAL_V_JACOBI,2,14.23,19.88,5.65,5.65,132
cases/proc_72/cases/Gcc12.4.0-PCG_CLASSICAL_V_JACOBI/log.icoFoam.256331,Miyabi-G,1,72,Gcc12.4.0-PCG_CLASSICAL_V_JACOBI,2,15.44,21.02,5.58,5.58,132
cases/proc_72/cases/Gcc12.4.0-PCG_CLASSICAL_V_JACOBI/log.icoFoam.256332,Miyabi-G,1,72,Gcc12.4.0-PCG_CLASSICAL_V_JACOBI,2,14.57,20.19,5.62,5.62,132
cases/proc_72/cases/GccModule-PCG_CLASSICAL_V_JACOBI/log.icoFoam.256049,Miyabi-G,1,72,GccModule-PCG_CLASSICAL_V_JACOBI,2,16.55,22.22,5.67,5.67,132
cases/proc_72/cases/GccModule-PCG_CLASSICAL_V_JACOBI/log.icoFoam.256050,Miyabi-G,1,72,GccModule-PCG_CLASSICAL_V_JACOBI,2,15.09,20.76,5.67,5.67,132
cases/proc_72/cases/GccModule-PCG_CLASSICAL_V_JACOBI/log.icoFoam.256051,Miyabi-G,1,72,GccModule-PCG_CLASSICAL_V_JACOBI,2,14.81,20.47,5.66,5.66,132
cases/proc_72/cases/GccModule-PCG_CLASSICAL_V_JACOBI/log.icoFoam.256052,Miyabi-G,1,72,GccModule-PCG_CLASSICAL_V_JACOBI,2,15.71,21.39,5.68,5.68,132
cases/proc_72/cases/GccModule-PCG_CLASSICAL_V_JACOBI/log.icoFoam.256053,Miyabi-G,1,72,GccModule-PCG_CLASSICAL_V_JACOBI,2,15.64,21.24,5.6,5.6,132
cases/proc_72/cases/Gcc-PCG_CLASSICAL_V_JACOBI/log.icoFoam.238144,Miyabi-G,1,72,Gcc-PCG_CLASSICAL_V_JACOBI,2,14.84,20.42,5.58,5.58,132
cases/proc_72/cases/Gcc-PCG_CLASSICAL_V_JACOBI/log.icoFoam.238369,Miyabi-G,1,72,Gcc-PCG_CLASSICAL_V_JACOBI,2,15.16,20.81,5.65,5.65,132
cases/proc_72/cases/Gcc-PCG_CLASSICAL_V_JACOBI/log.icoFoam.238370,Miyabi-G,1,72,Gcc-PCG_CLASSICAL_V_JACOBI,2,14.92,20.48,5.56,5.56,132
cases/proc_72/cases/Gcc-PCG_CLASSICAL_V_JACOBI/log.icoFoam.238371,Miyabi-G,1,72,Gcc-PCG_CLASSICAL_V_JACOBI,2,14.39,20.1,5.71,5.71,132
cases/proc_72/cases/Gcc-PCG_CLASSICAL_V_JACOBI/log.icoFoam.238372,Miyabi-G,1,72,Gcc-PCG_CLASSICAL_V_JACOBI,2,14.92,20.57,5.65,5.65,132
cases/proc_72/cases/NvidiaO3-PCG_CLASSICAL_V_JACOBI/log.icoFoam.239706,Miyabi-G,1,72,NvidiaO3-PCG_CLASSICAL_V_JACOBI,2,14.5,20.06,5.56,5.56,132
cases/proc_72/cases/NvidiaO3-PCG_CLASSICAL_V_JACOBI/log.icoFoam.240428,Miyabi-G,1,72,NvidiaO3-PCG_CLASSICAL_V_JACOBI,2,15.58,21.13,5.55,5.55,132
cases/proc_72/cases/NvidiaO3-PCG_CLASSICAL_V_JACOBI/log.icoFoam.240429,Miyabi-G,1,72,NvidiaO3-PCG_CLASSICAL_V_JACOBI,2,14.75,20.41,5.66,5.66,132
cases/proc_72/cases/NvidiaO3-PCG_CLASSICAL_V_JACOBI/log.icoFoam.240430,Miyabi-G,1,72,NvidiaO3-PCG_CLASSICAL_V_JACOBI,2,14.98,20.57,5.59,5.59,132
cases/proc_72/cases/NvidiaO3-PCG_CLASSICAL_V_JACOBI/log.icoFoam.240431,Miyabi-G,1,72,NvidiaO3-PCG_CLASSICAL_V_JACOBI,2,15.07,20.61,5.54,5.54,132
cases/proc_144/cases/Gcc12.4.0-PCG_CLASSICAL_V_JACOBI/log.icoFoam.256333,Miyabi-G,2,144,Gcc12.4.0-PCG_CLASSICAL_V_JACOBI,2,10.85,14.24,3.39,3.39,132
cases/proc_144/cases/Gcc12.4.0-PCG_CLASSICAL_V_JACOBI/log.icoFoam.256334,Miyabi-G,2,144,Gcc12.4.0-PCG_CLASSICAL_V_JACOBI,2,10.57,13.94,3.37,3.37,132
cases/proc_144/cases/Gcc12.4.0-PCG_CLASSICAL_V_JACOBI/log.icoFoam.256335,Miyabi-G,2,144,Gcc12.4.0-PCG_CLASSICAL_V_JACOBI,2,10.38,13.75,3.37,3.37,132
cases/proc_144/cases/Gcc12.4.0-PCG_CLASSICAL_V_JACOBI/log.icoFoam.256336,Miyabi-G,2,144,Gcc12.4.0-PCG_CLASSICAL_V_JACOBI,2,9.77,13.13,3.36,3.36,132
cases/proc_144/cases/Gcc12.4.0-PCG_CLASSICAL_V_JACOBI/log.icoFoam.256337,Miyabi-G,2,144,Gcc12.4.0-PCG_CLASSICAL_V_JACOBI,2,11.14,16.39,5.25,5.25,132
cases/proc_144/cases/GccModule-PCG_CLASSICAL_V_JACOBI/log.icoFoam.256076,Miyabi-G,2,144,GccModule-PCG_CLASSICAL_V_JACOBI,2,10.46,13.84,3.38,3.38,132
cases/proc_144/cases/GccModule-PCG_CLASSICAL_V_JACOBI/log.icoFoam.256097,Miyabi-G,2,144,GccModule-PCG_CLASSICAL_V_JACOBI,2,10.51,13.9,3.39,3.39,132
cases/proc_144/cases/GccModule-PCG_CLASSICAL_V_JACOBI/log.icoFoam.256098,Miyabi-G,2,144,GccModule-PCG_CLASSICAL_V_JACOBI,2,10.12,13.51,3.39,3.39,132
cases/proc_144/cases/GccModule-PCG_CLASSICAL_V_JACOBI/log.icoFoam.256100,Miyabi-G,2,144,GccModule-PCG_CLASSICAL_V_JACOBI,2,10.28,13.69,3.41,3.41,132
cases/proc_144/cases/GccModule-PCG_CLASSICAL_V_JACOBI/log.icoFoam.256109,Miyabi-G,2,144,GccModule-PCG_CLASSICAL_V_JACOBI,2,10.38,13.76,3.38,3.38,132
cases/proc_144/cases/Gcc-PCG_CLASSICAL_V_JACOBI/log.icoFoam.238145,Miyabi-G,2,144,Gcc-PCG_CLASSICAL_V_JACOBI,2,10.42,13.86,3.44,3.44,132
cases/proc_144/cases/Gcc-PCG_CLASSICAL_V_JACOBI/log.icoFoam.238373,Miyabi-G,2,144,Gcc-PCG_CLASSICAL_V_JACOBI,2,10.09,13.61,3.52,3.52,132
cases/proc_144/cases/Gcc-PCG_CLASSICAL_V_JACOBI/log.icoFoam.238374,Miyabi-G,2,144,Gcc-PCG_CLASSICAL_V_JACOBI,2,10.41,13.8,3.39,3.39,132
cases/proc_144/cases/Gcc-PCG_CLASSICAL_V_JACOBI/log.icoFoam.238375,Miyabi-G,2,144,Gcc-PCG_CLASSICAL_V_JACOBI,2,10.29,13.67,3.38,3.38,132
cases/proc_144/cases/Gcc-PCG_CLASSICAL_V_JACOBI/log.icoFoam.238376,Miyabi-G,2,144,Gcc-PCG_CLASSICAL_V_JACOBI,2,9.92,13.32,3.4,3.4,132
cases/proc_144/cases/NvidiaO3-PCG_CLASSICAL_V_JACOBI/log.icoFoam.239707,Miyabi-G,2,144,NvidiaO3-PCG_CLASSICAL_V_JACOBI,2,10.07,13.48,3.41,3.41,132
cases/proc_144/cases/NvidiaO3-PCG_CLASSICAL_V_JACOBI/log.icoFoam.240464,Miyabi-G,2,144,NvidiaO3-PCG_CLASSICAL_V_JACOBI,2,9.79,13.17,3.38,3.38,132
cases/proc_144/cases/NvidiaO3-PCG_CLASSICAL_V_JACOBI/log.icoFoam.240465,Miyabi-G,2,144,NvidiaO3-PCG_CLASSICAL_V_JACOBI,2,9.76,13.13,3.37,3.37,132
cases/proc_144/cases/NvidiaO3-PCG_CLASSICAL_V_JACOBI/log.icoFoam.240466,Miyabi-G,2,144,NvidiaO3-PCG_CLASSICAL_V_JACOBI,2,9.69,13.07,3.38,3.38,132
cases/proc_144/cases/NvidiaO3-PCG_CLASSICAL_V_JACOBI/log.icoFoam.240467,Miyabi-G,2,144,NvidiaO3-PCG_CLASSICAL_V_JACOBI,2,9.65,13.02,3.37,3.37,132
cases/proc_288/cases/Gcc12.4.0-PCG_CLASSICAL_V_JACOBI/log.icoFoam.256338,Miyabi-G,4,288,Gcc12.4.0-PCG_CLASSICAL_V_JACOBI,2,8.62,10.64,2.02,2.02,132
cases/proc_288/cases/Gcc12.4.0-PCG_CLASSICAL_V_JACOBI/log.icoFoam.256339,Miyabi-G,4,288,Gcc12.4.0-PCG_CLASSICAL_V_JACOBI,2,7.75,9.84,2.09,2.09,132
cases/proc_288/cases/Gcc12.4.0-PCG_CLASSICAL_V_JACOBI/log.icoFoam.256340,Miyabi-G,4,288,Gcc12.4.0-PCG_CLASSICAL_V_JACOBI,2,7.44,9.46,2.02,2.02,132
cases/proc_288/cases/Gcc12.4.0-PCG_CLASSICAL_V_JACOBI/log.icoFoam.256341,Miyabi-G,4,288,Gcc12.4.0-PCG_CLASSICAL_V_JACOBI,2,7.94,9.94,2,2,132
cases/proc_288/cases/Gcc12.4.0-PCG_CLASSICAL_V_JACOBI/log.icoFoam.256342,Miyabi-G,4,288,Gcc12.4.0-PCG_CLASSICAL_V_JACOBI,2,8.08,10.17,2.09,2.09,132
cases/proc_288/cases/GccModule-PCG_CLASSICAL_V_JACOBI/log.icoFoam.256077,Miyabi-G,4,288,GccModule-PCG_CLASSICAL_V_JACOBI,2,7.57,9.58,2.01,2.01,132
cases/proc_288/cases/GccModule-PCG_CLASSICAL_V_JACOBI/log.icoFoam.256101,Miyabi-G,4,288,GccModule-PCG_CLASSICAL_V_JACOBI,2,7.5,9.52,2.02,2.02,132
cases/proc_288/cases/GccModule-PCG_CLASSICAL_V_JACOBI/log.icoFoam.256102,Miyabi-G,4,288,GccModule-PCG_CLASSICAL_V_JACOBI,2,7.54,9.72,2.18,2.18,132
cases/proc_288/cases/GccModule-PCG_CLASSICAL_V_JACOBI/log.icoFoam.256103,Miyabi-G,4,288,GccModule-PCG_CLASSICAL_V_JACOBI,2,8.08,10.1,2.02,2.02,132
cases/proc_288/cases/GccModule-PCG_CLASSICAL_V_JACOBI/log.icoFoam.256104,Miyabi-G,4,288,GccModule-PCG_CLASSICAL_V_JACOBI,2,8.17,10.33,2.16,2.16,132
cases/proc_288/cases/Gcc-PCG_CLASSICAL_V_JACOBI/log.icoFoam.238146,Miyabi-G,4,288,Gcc-PCG_CLASSICAL_V_JACOBI,2,7.32,9.37,2.05,2.05,132
cases/proc_288/cases/Gcc-PCG_CLASSICAL_V_JACOBI/log.icoFoam.238377,Miyabi-G,4,288,Gcc-PCG_CLASSICAL_V_JACOBI,2,7.93,9.94,2.01,2.01,132
cases/proc_288/cases/Gcc-PCG_CLASSICAL_V_JACOBI/log.icoFoam.238378,Miyabi-G,4,288,Gcc-PCG_CLASSICAL_V_JACOBI,2,7.48,9.5,2.02,2.02,132
cases/proc_288/cases/Gcc-PCG_CLASSICAL_V_JACOBI/log.icoFoam.238379,Miyabi-G,4,288,Gcc-PCG_CLASSICAL_V_JACOBI,2,7.19,9.2,2.01,2.01,132
cases/proc_288/cases/Gcc-PCG_CLASSICAL_V_JACOBI/log.icoFoam.238380,Miyabi-G,4,288,Gcc-PCG_CLASSICAL_V_JACOBI,2,7.23,9.25,2.02,2.02,132
cases/proc_288/cases/NvidiaO3-PCG_CLASSICAL_V_JACOBI/log.icoFoam.239708,Miyabi-G,4,288,NvidiaO3-PCG_CLASSICAL_V_JACOBI,2,7.3,9.3,2,2,132
cases/proc_288/cases/NvidiaO3-PCG_CLASSICAL_V_JACOBI/log.icoFoam.240575,Miyabi-G,4,288,NvidiaO3-PCG_CLASSICAL_V_JACOBI,2,7.56,9.56,2,2,132
cases/proc_288/cases/NvidiaO3-PCG_CLASSICAL_V_JACOBI/log.icoFoam.240576,Miyabi-G,4,288,NvidiaO3-PCG_CLASSICAL_V_JACOBI,2,7.23,9.37,2.14,2.14,132
cases/proc_288/cases/NvidiaO3-PCG_CLASSICAL_V_JACOBI/log.icoFoam.240577,Miyabi-G,4,288,NvidiaO3-PCG_CLASSICAL_V_JACOBI,2,8.89,10.92,2.03,2.03,132
cases/proc_288/cases/NvidiaO3-PCG_CLASSICAL_V_JACOBI/log.icoFoam.240578,Miyabi-G,4,288,NvidiaO3-PCG_CLASSICAL_V_JACOBI,2,7.29,9.3,2.01,2.01,132
