{
    "mesh.sh":
    {
	"mx": [ 240 ],
	"my": [ 130 ],
	"mz": [ 96 ]
    },
    "decomposeParDict.sh":
    {
	"decomposeParDict_node": [ 1, 2, 4, 8, 12, 24 ],
	"decomposeParDict_ppn": [ 48 ],
	"decomposeParDict_method": [ "scotch" ]
    },
    "solver.sh":
    {
	"OpenFOAM_VERSION": [ "OpenFOAM-v1612+" ],
	"WM_COMPILER_TYPE": [ "system" ],
	"WM_COMPILER": [ "Fujitsuclang" ],
	"WM_PRECISION_OPTION": [ "DP" ],
	"WM_LABEL_SIZE": [ 32 ],
	"WM_COMPILE_OPTION": [ "581005915ff75e5b8b0640bb32c6f02e", "2a24e1109a4bdff6a0f042814e86e201" ],
	"WM_MPLIB": [ "FJMPI" ],
	"fvSolution_solvers_p_relTol": [ 0.05 ],
	"fvSolution_solvers_p_solver": [ "PCG" ],
	"fvSolution_solvers_p_preconditioner": [ "DIC" ],
	"fvSolution_solvers_pFinal_solver": [ "PCG" ],
	"fvSolution_solvers_pFinal_preconditioner": [ "DIC" ],
	"fvSolution_solvers_UFinal_solver": [ "PBiCG" ],
	"fvSolution_solvers_UFinal_preconditioner": [ "DILU" ],
	"profiling": [ "" ],
	"tcs_version": [ "1.2.26" ]
    }
}
