#Value,mx,my,mz,decomposeParDict_node,decomposeParDict_ppn,decomposeParDict_method,fvSolution_solvers_p_relTol,fvSolution_solvers_p_solver,fvSolution_solvers_p_preconditioner,fvSolution_solvers_pFinal_solver,fvSolution_solvers_pFinal_preconditioner,fvSolution_solvers_UFinal_solver,fvSolution_solvers_UFinal_preconditioner,WM_COMPILE_OPTION
56.2638,480,260,192,1,40,scotch,0.05,PCG,DIC,PCG,DIC,PBiCG,DILU,d98ed66b3af59cad3802ce787865de91
56.2338,480,260,192,1,40,scotch,0.05,PCG,DIC,PCG,DIC,PBiCG,DILU,e10ed177925dde7b122fe3820d51d784
56.4163,480,260,192,1,40,scotch,0.05,PCG,DIC,PCG,DIC,PBiCG,DILU,3337ff6850c6d522a2a2c589856dc227
55.865,480,260,192,1,40,scotch,0.05,PCG,DIC,PCG,DIC,PBiCG,DILU,fa51e10fb10b88932431dddc7806aeb9
56.2587,480,260,192,1,40,scotch,0.05,PCG,DIC,PCG,DIC,PBiCG,DILU,33cdc08b167ef09b117ec10935ea06f7
56.4587,480,260,192,1,40,scotch,0.05,PCG,DIC,PCG,DIC,PBiCG,DILU,9557a4bf6544d4239d70ba572d3c102a
56.4,480,260,192,1,40,scotch,0.05,PCG,DIC,PCG,DIC,PBiCG,DILU,a1021cee72a5cfd3ac5513e17fde1851
57.2313,480,260,192,1,40,scotch,0.05,PCG,DIC,PCG,DIC,PBiCG,DILU,88446eff28b29e8516d36050b6312428
57.035,480,260,192,1,40,scotch,0.05,PCG,DIC,PCG,DIC,PBiCG,DILU,6cc6e1ccc8e615a505ae23547cafe61f
53.38,480,260,192,1,80,scotch,0.05,PCG,DIC,PCG,DIC,PBiCG,DILU,d98ed66b3af59cad3802ce787865de91
53.375,480,260,192,1,80,scotch,0.05,PCG,DIC,PCG,DIC,PBiCG,DILU,e10ed177925dde7b122fe3820d51d784
53.3663,480,260,192,1,80,scotch,0.05,PCG,DIC,PCG,DIC,PBiCG,DILU,3337ff6850c6d522a2a2c589856dc227
53.395,480,260,192,1,80,scotch,0.05,PCG,DIC,PCG,DIC,PBiCG,DILU,fa51e10fb10b88932431dddc7806aeb9
53.35,480,260,192,1,80,scotch,0.05,PCG,DIC,PCG,DIC,PBiCG,DILU,33cdc08b167ef09b117ec10935ea06f7
53.3625,480,260,192,1,80,scotch,0.05,PCG,DIC,PCG,DIC,PBiCG,DILU,9557a4bf6544d4239d70ba572d3c102a
53.355,480,260,192,1,80,scotch,0.05,PCG,DIC,PCG,DIC,PBiCG,DILU,a1021cee72a5cfd3ac5513e17fde1851
53.4012,480,260,192,1,80,scotch,0.05,PCG,DIC,PCG,DIC,PBiCG,DILU,88446eff28b29e8516d36050b6312428
53.3975,480,260,192,1,80,scotch,0.05,PCG,DIC,PCG,DIC,PBiCG,DILU,6cc6e1ccc8e615a505ae23547cafe61f
