#Value,mx,my,mz,node,ppn,method,OpenFOAM_VERSION,WM_COMPILER_TYPE,WM_COMPILER,WM_PRECISION_OPTION,WM_LABEL_SIZE,WM_COMPILE_OPTION,WM_MPLIB,favourSpeedOverMemory,fvSolution_solvers_p_relTol,fvSolution_solvers_p_solver,fvSolution_solvers_p_preconditioner,fvSolution_solvers_pFinal_solver,fvSolution_solvers_pFinal_preconditioner,fvSolution_solvers_UFinal_solver,fvSolution_solvers_UFinal_preconditioner,gpuDirectTransfer,policy,profiling
60.195,762,412,306,4,1,scotch,RapidCFD-dev,system,Nvcc11.2.1Gcc4.8.5,DP,32,Opt,SYSTEMOPENMPI,2,0.05,PCG,DIC,PCG,DIC,PBiCG,DILU,0,compact,
60.45,762,412,306,4,1,scotch,RapidCFD-dev,system,Nvcc11.2.1Gcc4.8.5,DP,32,Opt,SYSTEMOPENMPI,2,0.05,PCG,DIC,PCG,DIC,PBiCG,DILU,0,scatter,
30.58,762,412,306,4,1,scotch,RapidCFD-dev,system,Nvcc11.2.1Gcc4.8.5,SP,32,Opt,SYSTEMOPENMPI,2,0.05,PCG,DIC,PCG,DIC,PBiCG,DILU,0,compact,
30.655,762,412,306,4,1,scotch,RapidCFD-dev,system,Nvcc11.2.1Gcc4.8.5,SP,32,Opt,SYSTEMOPENMPI,2,0.05,PCG,DIC,PCG,DIC,PBiCG,DILU,0,scatter,
34.13,762,412,306,8,1,scotch,RapidCFD-dev,system,Nvcc11.2.1Gcc4.8.5,DP,32,Opt,SYSTEMOPENMPI,2,0.05,PCG,DIC,PCG,DIC,PBiCG,DILU,0,compact,
34.175,762,412,306,8,1,scotch,RapidCFD-dev,system,Nvcc11.2.1Gcc4.8.5,DP,32,Opt,SYSTEMOPENMPI,2,0.05,PCG,DIC,PCG,DIC,PBiCG,DILU,0,scatter,
18.675,762,412,306,8,1,scotch,RapidCFD-dev,system,Nvcc11.2.1Gcc4.8.5,SP,32,Opt,SYSTEMOPENMPI,2,0.05,PCG,DIC,PCG,DIC,PBiCG,DILU,0,compact,
18.7,762,412,306,8,1,scotch,RapidCFD-dev,system,Nvcc11.2.1Gcc4.8.5,SP,32,Opt,SYSTEMOPENMPI,2,0.05,PCG,DIC,PCG,DIC,PBiCG,DILU,0,scatter,
