#Value,mx,my,mz,node,ppn,method,OpenFOAM_VERSION,WM_COMPILER_TYPE,WM_COMPILER,WM_PRECISION_OPTION,WM_LABEL_SIZE,WM_COMPILE_OPTION,WM_MPLIB,favourSpeedOverMemory,fvSolution_solvers_p_relTol,fvSolution_solvers_p_solver,fvSolution_solvers_p_preconditioner,fvSolution_solvers_pFinal_solver,fvSolution_solvers_pFinal_preconditioner,fvSolution_solvers_UFinal_solver,fvSolution_solvers_UFinal_preconditioner,gpuDirectTransfer,policy,profiling
63.035,762,412,306,4,1,scotch,RapidCFD-dev,system,Nvcc11.2.1Gcc4.8.5,DP,32,Opt,SYSTEMOPENMPI,0,0.05,PCG,DIC,PCG,DIC,PBiCG,DILU,1,compact,
63.09,762,412,306,4,1,scotch,RapidCFD-dev,system,Nvcc11.2.1Gcc4.8.5,DP,32,Opt,SYSTEMOPENMPI,0,0.05,PCG,DIC,PCG,DIC,PBiCG,DILU,1,scatter,
63.55,762,412,306,4,1,scotch,RapidCFD-dev,system,Nvcc11.2.1Gcc4.8.5,DP,32,Opt,SYSTEMOPENMPI,1,0.05,PCG,DIC,PCG,DIC,PBiCG,DILU,1,compact,
63.125,762,412,306,4,1,scotch,RapidCFD-dev,system,Nvcc11.2.1Gcc4.8.5,DP,32,Opt,SYSTEMOPENMPI,1,0.05,PCG,DIC,PCG,DIC,PBiCG,DILU,1,scatter,
63.525,762,412,306,4,1,scotch,RapidCFD-dev,system,Nvcc11.2.1Gcc4.8.5,DP,32,Opt,SYSTEMOPENMPI,2,0.05,PCG,DIC,PCG,DIC,PBiCG,DILU,1,compact,
63.53,762,412,306,4,1,scotch,RapidCFD-dev,system,Nvcc11.2.1Gcc4.8.5,DP,32,Opt,SYSTEMOPENMPI,2,0.05,PCG,DIC,PCG,DIC,PBiCG,DILU,1,scatter,
31.515,762,412,306,4,1,scotch,RapidCFD-dev,system,Nvcc11.2.1Gcc4.8.5,SP,32,Opt,SYSTEMOPENMPI,0,0.05,PCG,DIC,PCG,DIC,PBiCG,DILU,1,compact,
31.495,762,412,306,4,1,scotch,RapidCFD-dev,system,Nvcc11.2.1Gcc4.8.5,SP,32,Opt,SYSTEMOPENMPI,0,0.05,PCG,DIC,PCG,DIC,PBiCG,DILU,1,scatter,
31.89,762,412,306,4,1,scotch,RapidCFD-dev,system,Nvcc11.2.1Gcc4.8.5,SP,32,Opt,SYSTEMOPENMPI,1,0.05,PCG,DIC,PCG,DIC,PBiCG,DILU,1,compact,
31.545,762,412,306,4,1,scotch,RapidCFD-dev,system,Nvcc11.2.1Gcc4.8.5,SP,32,Opt,SYSTEMOPENMPI,1,0.05,PCG,DIC,PCG,DIC,PBiCG,DILU,1,scatter,
31.515,762,412,306,4,1,scotch,RapidCFD-dev,system,Nvcc11.2.1Gcc4.8.5,SP,32,Opt,SYSTEMOPENMPI,2,0.05,PCG,DIC,PCG,DIC,PBiCG,DILU,1,compact,
31.54,762,412,306,4,1,scotch,RapidCFD-dev,system,Nvcc11.2.1Gcc4.8.5,SP,32,Opt,SYSTEMOPENMPI,2,0.05,PCG,DIC,PCG,DIC,PBiCG,DILU,1,scatter,
35.895,762,412,306,8,1,scotch,RapidCFD-dev,system,Nvcc11.2.1Gcc4.8.5,DP,32,Opt,SYSTEMOPENMPI,0,0.05,PCG,DIC,PCG,DIC,PBiCG,DILU,1,compact,
36.085,762,412,306,8,1,scotch,RapidCFD-dev,system,Nvcc11.2.1Gcc4.8.5,DP,32,Opt,SYSTEMOPENMPI,0,0.05,PCG,DIC,PCG,DIC,PBiCG,DILU,1,scatter,
36.04,762,412,306,8,1,scotch,RapidCFD-dev,system,Nvcc11.2.1Gcc4.8.5,DP,32,Opt,SYSTEMOPENMPI,1,0.05,PCG,DIC,PCG,DIC,PBiCG,DILU,1,compact,
36.09,762,412,306,8,1,scotch,RapidCFD-dev,system,Nvcc11.2.1Gcc4.8.5,DP,32,Opt,SYSTEMOPENMPI,1,0.05,PCG,DIC,PCG,DIC,PBiCG,DILU,1,scatter,
36.135,762,412,306,8,1,scotch,RapidCFD-dev,system,Nvcc11.2.1Gcc4.8.5,DP,32,Opt,SYSTEMOPENMPI,2,0.05,PCG,DIC,PCG,DIC,PBiCG,DILU,1,compact,
36.09,762,412,306,8,1,scotch,RapidCFD-dev,system,Nvcc11.2.1Gcc4.8.5,DP,32,Opt,SYSTEMOPENMPI,2,0.05,PCG,DIC,PCG,DIC,PBiCG,DILU,1,scatter,
19.395,762,412,306,8,1,scotch,RapidCFD-dev,system,Nvcc11.2.1Gcc4.8.5,SP,32,Opt,SYSTEMOPENMPI,0,0.05,PCG,DIC,PCG,DIC,PBiCG,DILU,1,compact,
19.45,762,412,306,8,1,scotch,RapidCFD-dev,system,Nvcc11.2.1Gcc4.8.5,SP,32,Opt,SYSTEMOPENMPI,0,0.05,PCG,DIC,PCG,DIC,PBiCG,DILU,1,scatter,
19.415,762,412,306,8,1,scotch,RapidCFD-dev,system,Nvcc11.2.1Gcc4.8.5,SP,32,Opt,SYSTEMOPENMPI,1,0.05,PCG,DIC,PCG,DIC,PBiCG,DILU,1,compact,
19.49,762,412,306,8,1,scotch,RapidCFD-dev,system,Nvcc11.2.1Gcc4.8.5,SP,32,Opt,SYSTEMOPENMPI,1,0.05,PCG,DIC,PCG,DIC,PBiCG,DILU,1,scatter,
19.34,762,412,306,8,1,scotch,RapidCFD-dev,system,Nvcc11.2.1Gcc4.8.5,SP,32,Opt,SYSTEMOPENMPI,2,0.05,PCG,DIC,PCG,DIC,PBiCG,DILU,1,compact,
19.32,762,412,306,8,1,scotch,RapidCFD-dev,system,Nvcc11.2.1Gcc4.8.5,SP,32,Opt,SYSTEMOPENMPI,2,0.05,PCG,DIC,PCG,DIC,PBiCG,DILU,1,scatter,
