#Value,mx,my,mz,node,ppn,method,OpenFOAM_VERSION,WM_COMPILER_TYPE,WM_COMPILER,WM_PRECISION_OPTION,WM_LABEL_SIZE,WM_COMPILE_OPTION,WM_MPLIB,favourSpeedOverMemory,fvSolution_solvers_p_relTol,fvSolution_solvers_p_solver,fvSolution_solvers_p_preconditioner,fvSolution_solvers_pFinal_solver,fvSolution_solvers_pFinal_preconditioner,fvSolution_solvers_UFinal_solver,fvSolution_solvers_UFinal_preconditioner,gpuDirectTransfer,policy,profiling
63.15,762,412,306,2,2,scotch,RapidCFD-dev,system,Nvcc11.2.1Gcc4.8.5,DP,32,Opt,SYSTEMOPENMPI,0,0.05,PCG,DIC,PCG,DIC,PBiCG,DILU,1,compact,
61.075,762,412,306,2,2,scotch,RapidCFD-dev,system,Nvcc11.2.1Gcc4.8.5,DP,32,Opt,SYSTEMOPENMPI,0,0.05,PCG,DIC,PCG,DIC,PBiCG,DILU,1,scatter,
63.12,762,412,306,2,2,scotch,RapidCFD-dev,system,Nvcc11.2.1Gcc4.8.5,DP,32,Opt,SYSTEMOPENMPI,1,0.05,PCG,DIC,PCG,DIC,PBiCG,DILU,1,compact,
61.695,762,412,306,2,2,scotch,RapidCFD-dev,system,Nvcc11.2.1Gcc4.8.5,DP,32,Opt,SYSTEMOPENMPI,1,0.05,PCG,DIC,PCG,DIC,PBiCG,DILU,1,scatter,
63.23,762,412,306,2,2,scotch,RapidCFD-dev,system,Nvcc11.2.1Gcc4.8.5,DP,32,Opt,SYSTEMOPENMPI,2,0.05,PCG,DIC,PCG,DIC,PBiCG,DILU,1,compact,
61.4,762,412,306,2,2,scotch,RapidCFD-dev,system,Nvcc11.2.1Gcc4.8.5,DP,32,Opt,SYSTEMOPENMPI,2,0.05,PCG,DIC,PCG,DIC,PBiCG,DILU,1,scatter,
31.745,762,412,306,2,2,scotch,RapidCFD-dev,system,Nvcc11.2.1Gcc4.8.5,SP,32,Opt,SYSTEMOPENMPI,0,0.05,PCG,DIC,PCG,DIC,PBiCG,DILU,1,compact,
30.84,762,412,306,2,2,scotch,RapidCFD-dev,system,Nvcc11.2.1Gcc4.8.5,SP,32,Opt,SYSTEMOPENMPI,0,0.05,PCG,DIC,PCG,DIC,PBiCG,DILU,1,scatter,
31.68,762,412,306,2,2,scotch,RapidCFD-dev,system,Nvcc11.2.1Gcc4.8.5,SP,32,Opt,SYSTEMOPENMPI,1,0.05,PCG,DIC,PCG,DIC,PBiCG,DILU,1,compact,
30.925,762,412,306,2,2,scotch,RapidCFD-dev,system,Nvcc11.2.1Gcc4.8.5,SP,32,Opt,SYSTEMOPENMPI,1,0.05,PCG,DIC,PCG,DIC,PBiCG,DILU,1,scatter,
31.81,762,412,306,2,2,scotch,RapidCFD-dev,system,Nvcc11.2.1Gcc4.8.5,SP,32,Opt,SYSTEMOPENMPI,2,0.05,PCG,DIC,PCG,DIC,PBiCG,DILU,1,compact,
30.91,762,412,306,2,2,scotch,RapidCFD-dev,system,Nvcc11.2.1Gcc4.8.5,SP,32,Opt,SYSTEMOPENMPI,2,0.05,PCG,DIC,PCG,DIC,PBiCG,DILU,1,scatter,
38.8,762,412,306,4,2,scotch,RapidCFD-dev,system,Nvcc11.2.1Gcc4.8.5,DP,32,Opt,SYSTEMOPENMPI,0,0.05,PCG,DIC,PCG,DIC,PBiCG,DILU,1,compact,
36.66,762,412,306,4,2,scotch,RapidCFD-dev,system,Nvcc11.2.1Gcc4.8.5,DP,32,Opt,SYSTEMOPENMPI,0,0.05,PCG,DIC,PCG,DIC,PBiCG,DILU,1,scatter,
38.51,762,412,306,4,2,scotch,RapidCFD-dev,system,Nvcc11.2.1Gcc4.8.5,DP,32,Opt,SYSTEMOPENMPI,1,0.05,PCG,DIC,PCG,DIC,PBiCG,DILU,1,compact,
36.425,762,412,306,4,2,scotch,RapidCFD-dev,system,Nvcc11.2.1Gcc4.8.5,DP,32,Opt,SYSTEMOPENMPI,1,0.05,PCG,DIC,PCG,DIC,PBiCG,DILU,1,scatter,
38.78,762,412,306,4,2,scotch,RapidCFD-dev,system,Nvcc11.2.1Gcc4.8.5,DP,32,Opt,SYSTEMOPENMPI,2,0.05,PCG,DIC,PCG,DIC,PBiCG,DILU,1,compact,
36.695,762,412,306,4,2,scotch,RapidCFD-dev,system,Nvcc11.2.1Gcc4.8.5,DP,32,Opt,SYSTEMOPENMPI,2,0.05,PCG,DIC,PCG,DIC,PBiCG,DILU,1,scatter,
21.28,762,412,306,4,2,scotch,RapidCFD-dev,system,Nvcc11.2.1Gcc4.8.5,SP,32,Opt,SYSTEMOPENMPI,0,0.05,PCG,DIC,PCG,DIC,PBiCG,DILU,1,compact,
20.475,762,412,306,4,2,scotch,RapidCFD-dev,system,Nvcc11.2.1Gcc4.8.5,SP,32,Opt,SYSTEMOPENMPI,0,0.05,PCG,DIC,PCG,DIC,PBiCG,DILU,1,scatter,
30.065,762,412,306,4,2,scotch,RapidCFD-dev,system,Nvcc11.2.1Gcc4.8.5,SP,32,Opt,SYSTEMOPENMPI,1,0.05,PCG,DIC,PCG,DIC,PBiCG,DILU,1,compact,
20.23,762,412,306,4,2,scotch,RapidCFD-dev,system,Nvcc11.2.1Gcc4.8.5,SP,32,Opt,SYSTEMOPENMPI,1,0.05,PCG,DIC,PCG,DIC,PBiCG,DILU,1,scatter,
21.155,762,412,306,4,2,scotch,RapidCFD-dev,system,Nvcc11.2.1Gcc4.8.5,SP,32,Opt,SYSTEMOPENMPI,2,0.05,PCG,DIC,PCG,DIC,PBiCG,DILU,1,compact,
20.25,762,412,306,4,2,scotch,RapidCFD-dev,system,Nvcc11.2.1Gcc4.8.5,SP,32,Opt,SYSTEMOPENMPI,2,0.05,PCG,DIC,PCG,DIC,PBiCG,DILU,1,scatter,
18.345,762,412,306,8,2,scotch,RapidCFD-dev,system,Nvcc11.2.1Gcc4.8.5,DP,32,Opt,SYSTEMOPENMPI,0,0.05,PCG,DIC,PCG,DIC,PBiCG,DILU,1,compact,
17.055,762,412,306,8,2,scotch,RapidCFD-dev,system,Nvcc11.2.1Gcc4.8.5,DP,32,Opt,SYSTEMOPENMPI,0,0.05,PCG,DIC,PCG,DIC,PBiCG,DILU,1,scatter,
18.295,762,412,306,8,2,scotch,RapidCFD-dev,system,Nvcc11.2.1Gcc4.8.5,DP,32,Opt,SYSTEMOPENMPI,1,0.05,PCG,DIC,PCG,DIC,PBiCG,DILU,1,compact,
16.925,762,412,306,8,2,scotch,RapidCFD-dev,system,Nvcc11.2.1Gcc4.8.5,DP,32,Opt,SYSTEMOPENMPI,1,0.05,PCG,DIC,PCG,DIC,PBiCG,DILU,1,scatter,
18.315,762,412,306,8,2,scotch,RapidCFD-dev,system,Nvcc11.2.1Gcc4.8.5,DP,32,Opt,SYSTEMOPENMPI,2,0.05,PCG,DIC,PCG,DIC,PBiCG,DILU,1,compact,
17.055,762,412,306,8,2,scotch,RapidCFD-dev,system,Nvcc11.2.1Gcc4.8.5,DP,32,Opt,SYSTEMOPENMPI,2,0.05,PCG,DIC,PCG,DIC,PBiCG,DILU,1,scatter,
13.125,762,412,306,8,2,scotch,RapidCFD-dev,system,Nvcc11.2.1Gcc4.8.5,SP,32,Opt,SYSTEMOPENMPI,0,0.05,PCG,DIC,PCG,DIC,PBiCG,DILU,1,compact,
12.235,762,412,306,8,2,scotch,RapidCFD-dev,system,Nvcc11.2.1Gcc4.8.5,SP,32,Opt,SYSTEMOPENMPI,0,0.05,PCG,DIC,PCG,DIC,PBiCG,DILU,1,scatter,
13.13,762,412,306,8,2,scotch,RapidCFD-dev,system,Nvcc11.2.1Gcc4.8.5,SP,32,Opt,SYSTEMOPENMPI,1,0.05,PCG,DIC,PCG,DIC,PBiCG,DILU,1,compact,
12.3,762,412,306,8,2,scotch,RapidCFD-dev,system,Nvcc11.2.1Gcc4.8.5,SP,32,Opt,SYSTEMOPENMPI,1,0.05,PCG,DIC,PCG,DIC,PBiCG,DILU,1,scatter,
13.125,762,412,306,8,2,scotch,RapidCFD-dev,system,Nvcc11.2.1Gcc4.8.5,SP,32,Opt,SYSTEMOPENMPI,2,0.05,PCG,DIC,PCG,DIC,PBiCG,DILU,1,compact,
12.375,762,412,306,8,2,scotch,RapidCFD-dev,system,Nvcc11.2.1Gcc4.8.5,SP,32,Opt,SYSTEMOPENMPI,2,0.05,PCG,DIC,PCG,DIC,PBiCG,DILU,1,scatter,
