#Value,mx,my,mz,node,ppn,method,OpenFOAM_VERSION,WM_COMPILER_TYPE,WM_COMPILER,WM_PRECISION_OPTION,WM_LABEL_SIZE,WM_COMPILE_OPTION,WM_MPLIB,favourSpeedOverMemory,fvSolution_solvers_p_relTol,fvSolution_solvers_p_solver,fvSolution_solvers_p_preconditioner,fvSolution_solvers_pFinal_solver,fvSolution_solvers_pFinal_preconditioner,fvSolution_solvers_UFinal_solver,fvSolution_solvers_UFinal_preconditioner,gpuDirectTransfer,policy,profiling
16.33,762,412,306,4,4,scotch,RapidCFD-dev,system,Nvcc11.2.1Gcc4.8.5,DP,32,Opt,SYSTEMOPENMPI,2,0.05,PCG,DIC,PCG,DIC,PBiCG,DILU,0,compact,
16.09,762,412,306,4,4,scotch,RapidCFD-dev,system,Nvcc11.2.1Gcc4.8.5,DP,32,Opt,SYSTEMOPENMPI,2,0.05,PCG,DIC,PCG,DIC,PBiCG,DILU,0,scatter,
11.81,762,412,306,4,4,scotch,RapidCFD-dev,system,Nvcc11.2.1Gcc4.8.5,SP,32,Opt,SYSTEMOPENMPI,2,0.05,PCG,DIC,PCG,DIC,PBiCG,DILU,0,compact,
11.61,762,412,306,4,4,scotch,RapidCFD-dev,system,Nvcc11.2.1Gcc4.8.5,SP,32,Opt,SYSTEMOPENMPI,2,0.05,PCG,DIC,PCG,DIC,PBiCG,DILU,0,scatter,
13.065,762,412,306,8,4,scotch,RapidCFD-dev,system,Nvcc11.2.1Gcc4.8.5,DP,32,Opt,SYSTEMOPENMPI,2,0.05,PCG,DIC,PCG,DIC,PBiCG,DILU,0,compact,
12.975,762,412,306,8,4,scotch,RapidCFD-dev,system,Nvcc11.2.1Gcc4.8.5,DP,32,Opt,SYSTEMOPENMPI,2,0.05,PCG,DIC,PCG,DIC,PBiCG,DILU,0,scatter,
8.175,762,412,306,8,4,scotch,RapidCFD-dev,system,Nvcc11.2.1Gcc4.8.5,SP,32,Opt,SYSTEMOPENMPI,2,0.05,PCG,DIC,PCG,DIC,PBiCG,DILU,0,compact,
8.04,762,412,306,8,4,scotch,RapidCFD-dev,system,Nvcc11.2.1Gcc4.8.5,SP,32,Opt,SYSTEMOPENMPI,2,0.05,PCG,DIC,PCG,DIC,PBiCG,DILU,0,scatter,
