#Value,mx,my,mz,node,ppn,method,OpenFOAM_VERSION,WM_COMPILER_TYPE,WM_COMPILER,WM_PRECISION_OPTION,WM_LABEL_SIZE,WM_COMPILE_OPTION,WM_MPLIB,fvSolution_solvers_p_relTol,fvSolution_solvers_p_solver,fvSolution_solvers_p_preconditioner,fvSolution_solvers_pFinal_solver,fvSolution_solvers_pFinal_preconditioner,fvSolution_solvers_UFinal_solver,fvSolution_solvers_UFinal_preconditioner,profiling,tcs_version
8.53,480,260,192,2:noncont,48,scotch,openfoam/v1812-tune,system,Fcc,DP,32,Opt,FJMPI,0.05,PCG,DIC,PCG,DIC,PBiCG,DILU,,1.2.31
8.5225,480,260,192,2:mesh,48,scotch,openfoam/v1812-tune,system,Fcc,DP,32,Opt,FJMPI,0.05,PCG,DIC,PCG,DIC,PBiCG,DILU,,1.2.31
3.965,480,260,192,4:noncont,48,scotch,openfoam/v1812-tune,system,Fcc,DP,32,Opt,FJMPI,0.05,PCG,DIC,PCG,DIC,PBiCG,DILU,,1.2.31
3.95875,480,260,192,4:mesh,48,scotch,openfoam/v1812-tune,system,Fcc,DP,32,Opt,FJMPI,0.05,PCG,DIC,PCG,DIC,PBiCG,DILU,,1.2.31
3.95625,480,260,192,2x2:mesh,48,scotch,openfoam/v1812-tune,system,Fcc,DP,32,Opt,FJMPI,0.05,PCG,DIC,PCG,DIC,PBiCG,DILU,,1.2.31
2.05625,480,260,192,8:noncont,48,scotch,openfoam/v1812-tune,system,Fcc,DP,32,Opt,FJMPI,0.05,PCG,DIC,PCG,DIC,PBiCG,DILU,,1.2.31
2.055,480,260,192,8:mesh,48,scotch,openfoam/v1812-tune,system,Fcc,DP,32,Opt,FJMPI,0.05,PCG,DIC,PCG,DIC,PBiCG,DILU,,1.2.31
2.0625,480,260,192,2x4:mesh,48,scotch,openfoam/v1812-tune,system,Fcc,DP,32,Opt,FJMPI,0.05,PCG,DIC,PCG,DIC,PBiCG,DILU,,1.2.31
2.0625,480,260,192,2x2x2:mesh,48,scotch,openfoam/v1812-tune,system,Fcc,DP,32,Opt,FJMPI,0.05,PCG,DIC,PCG,DIC,PBiCG,DILU,,1.2.31
2.41875,480,260,192,12:noncont,48,scotch,openfoam/v1812-tune,system,Fcc,DP,32,Opt,FJMPI,0.05,PCG,DIC,PCG,DIC,PBiCG,DILU,,1.2.31
2.42,480,260,192,12:mesh,48,scotch,openfoam/v1812-tune,system,Fcc,DP,32,Opt,FJMPI,0.05,PCG,DIC,PCG,DIC,PBiCG,DILU,,1.2.31
2.435,480,260,192,12:torus,48,scotch,openfoam/v1812-tune,system,Fcc,DP,32,Opt,FJMPI,0.05,PCG,DIC,PCG,DIC,PBiCG,DILU,,1.2.31
2.42,480,260,192,3x4:mesh,48,scotch,openfoam/v1812-tune,system,Fcc,DP,32,Opt,FJMPI,0.05,PCG,DIC,PCG,DIC,PBiCG,DILU,,1.2.31
2.42,480,260,192,3x4:torus,48,scotch,openfoam/v1812-tune,system,Fcc,DP,32,Opt,FJMPI,0.05,PCG,DIC,PCG,DIC,PBiCG,DILU,,1.2.31
2.4225,480,260,192,2x6:mesh,48,scotch,openfoam/v1812-tune,system,Fcc,DP,32,Opt,FJMPI,0.05,PCG,DIC,PCG,DIC,PBiCG,DILU,,1.2.31
2.425,480,260,192,2x6:torus,48,scotch,openfoam/v1812-tune,system,Fcc,DP,32,Opt,FJMPI,0.05,PCG,DIC,PCG,DIC,PBiCG,DILU,,1.2.31
2.43875,480,260,192,2x2x3:mesh,48,scotch,openfoam/v1812-tune,system,Fcc,DP,32,Opt,FJMPI,0.05,PCG,DIC,PCG,DIC,PBiCG,DILU,,1.2.31
2.4175,480,260,192,2x2x3:torus,48,scotch,openfoam/v1812-tune,system,Fcc,DP,32,Opt,FJMPI,0.05,PCG,DIC,PCG,DIC,PBiCG,DILU,,1.2.31
0.78125,480,260,192,24:noncont,48,scotch,openfoam/v1812-tune,system,Fcc,DP,32,Opt,FJMPI,0.05,PCG,DIC,PCG,DIC,PBiCG,DILU,,1.2.31
0.7775,480,260,192,24:mesh,48,scotch,openfoam/v1812-tune,system,Fcc,DP,32,Opt,FJMPI,0.05,PCG,DIC,PCG,DIC,PBiCG,DILU,,1.2.31
0.78,480,260,192,24:torus,48,scotch,openfoam/v1812-tune,system,Fcc,DP,32,Opt,FJMPI,0.05,PCG,DIC,PCG,DIC,PBiCG,DILU,,1.2.31
0.785,480,260,192,4x6:mesh,48,scotch,openfoam/v1812-tune,system,Fcc,DP,32,Opt,FJMPI,0.05,PCG,DIC,PCG,DIC,PBiCG,DILU,,1.2.31
0.7775,480,260,192,4x6:torus,48,scotch,openfoam/v1812-tune,system,Fcc,DP,32,Opt,FJMPI,0.05,PCG,DIC,PCG,DIC,PBiCG,DILU,,1.2.31
0.795,480,260,192,3x8:mesh,48,scotch,openfoam/v1812-tune,system,Fcc,DP,32,Opt,FJMPI,0.05,PCG,DIC,PCG,DIC,PBiCG,DILU,,1.2.31
0.77375,480,260,192,3x8:torus,48,scotch,openfoam/v1812-tune,system,Fcc,DP,32,Opt,FJMPI,0.05,PCG,DIC,PCG,DIC,PBiCG,DILU,,1.2.31
0.77375,480,260,192,2x12:mesh,48,scotch,openfoam/v1812-tune,system,Fcc,DP,32,Opt,FJMPI,0.05,PCG,DIC,PCG,DIC,PBiCG,DILU,,1.2.31
0.78,480,260,192,2x12:torus,48,scotch,openfoam/v1812-tune,system,Fcc,DP,32,Opt,FJMPI,0.05,PCG,DIC,PCG,DIC,PBiCG,DILU,,1.2.31
0.77875,480,260,192,2x3x4:mesh,48,scotch,openfoam/v1812-tune,system,Fcc,DP,32,Opt,FJMPI,0.05,PCG,DIC,PCG,DIC,PBiCG,DILU,,1.2.31
0.78125,480,260,192,2x3x4:torus,48,scotch,openfoam/v1812-tune,system,Fcc,DP,32,Opt,FJMPI,0.05,PCG,DIC,PCG,DIC,PBiCG,DILU,,1.2.31
0.6525,480,260,192,48:noncont,48,scotch,openfoam/v1812-tune,system,Fcc,DP,32,Opt,FJMPI,0.05,PCG,DIC,PCG,DIC,PBiCG,DILU,,1.2.31
0.6575,480,260,192,48:mesh,48,scotch,openfoam/v1812-tune,system,Fcc,DP,32,Opt,FJMPI,0.05,PCG,DIC,PCG,DIC,PBiCG,DILU,,1.2.31
0.66125,480,260,192,48:torus,48,scotch,openfoam/v1812-tune,system,Fcc,DP,32,Opt,FJMPI,0.05,PCG,DIC,PCG,DIC,PBiCG,DILU,,1.2.31
0.65625,480,260,192,6x8:mesh,48,scotch,openfoam/v1812-tune,system,Fcc,DP,32,Opt,FJMPI,0.05,PCG,DIC,PCG,DIC,PBiCG,DILU,,1.2.31
0.64875,480,260,192,6x8:torus,48,scotch,openfoam/v1812-tune,system,Fcc,DP,32,Opt,FJMPI,0.05,PCG,DIC,PCG,DIC,PBiCG,DILU,,1.2.31
0.6625,480,260,192,4x12:mesh,48,scotch,openfoam/v1812-tune,system,Fcc,DP,32,Opt,FJMPI,0.05,PCG,DIC,PCG,DIC,PBiCG,DILU,,1.2.31
0.65,480,260,192,4x12:torus,48,scotch,openfoam/v1812-tune,system,Fcc,DP,32,Opt,FJMPI,0.05,PCG,DIC,PCG,DIC,PBiCG,DILU,,1.2.31
0.69,480,260,192,3x16:mesh,48,scotch,openfoam/v1812-tune,system,Fcc,DP,32,Opt,FJMPI,0.05,PCG,DIC,PCG,DIC,PBiCG,DILU,,1.2.31
0.66,480,260,192,3x16:torus,48,scotch,openfoam/v1812-tune,system,Fcc,DP,32,Opt,FJMPI,0.05,PCG,DIC,PCG,DIC,PBiCG,DILU,,1.2.31
0.64125,480,260,192,3x4x4:mesh,48,scotch,openfoam/v1812-tune,system,Fcc,DP,32,Opt,FJMPI,0.05,PCG,DIC,PCG,DIC,PBiCG,DILU,,1.2.31
0.64375,480,260,192,3x4x4:torus,48,scotch,openfoam/v1812-tune,system,Fcc,DP,32,Opt,FJMPI,0.05,PCG,DIC,PCG,DIC,PBiCG,DILU,,1.2.31
0.66625,480,260,192,2x3x8:mesh,48,scotch,openfoam/v1812-tune,system,Fcc,DP,32,Opt,FJMPI,0.05,PCG,DIC,PCG,DIC,PBiCG,DILU,,1.2.31
0.65,480,260,192,2x3x8:torus,48,scotch,openfoam/v1812-tune,system,Fcc,DP,32,Opt,FJMPI,0.05,PCG,DIC,PCG,DIC,PBiCG,DILU,,1.2.31
0.66375,480,260,192,2x4x6:mesh,48,scotch,openfoam/v1812-tune,system,Fcc,DP,32,Opt,FJMPI,0.05,PCG,DIC,PCG,DIC,PBiCG,DILU,,1.2.31
0.65625,480,260,192,2x4x6:torus,48,scotch,openfoam/v1812-tune,system,Fcc,DP,32,Opt,FJMPI,0.05,PCG,DIC,PCG,DIC,PBiCG,DILU,,1.2.31
