#Value,mx,my,mz,node,ppn,method,OpenFOAM_VERSION,WM_COMPILER_TYPE,WM_COMPILER,WM_PRECISION_OPTION,WM_LABEL_SIZE,WM_COMPILE_OPTION,WM_MPLIB,favourSpeedOverMemory,fvSolution_solvers_p_relTol,fvSolution_solvers_p_solver,fvSolution_solvers_p_preconditioner,fvSolution_solvers_pFinal_solver,fvSolution_solvers_pFinal_preconditioner,fvSolution_solvers_UFinal_solver,fvSolution_solvers_UFinal_preconditioner,gpuDirectTransfer,policy,profiling
18.67,762,412,306,4,4,scotch,RapidCFD-dev,system,Nvcc11.2.1Gcc4.8.5,DP,32,Opt,SYSTEMOPENMPI,2,0.05,PCG,DIC,PCG,DIC,PBiCG,DILU,1,compact,
18.49,762,412,306,4,4,scotch,RapidCFD-dev,system,Nvcc11.2.1Gcc4.8.5,DP,32,Opt,SYSTEMOPENMPI,2,0.05,PCG,DIC,PCG,DIC,PBiCG,DILU,1,scatter,
13.38,762,412,306,4,4,scotch,RapidCFD-dev,system,Nvcc11.2.1Gcc4.8.5,SP,32,Opt,SYSTEMOPENMPI,2,0.05,PCG,DIC,PCG,DIC,PBiCG,DILU,1,compact,
13.5,762,412,306,4,4,scotch,RapidCFD-dev,system,Nvcc11.2.1Gcc4.8.5,SP,32,Opt,SYSTEMOPENMPI,2,0.05,PCG,DIC,PCG,DIC,PBiCG,DILU,1,scatter,
17.115,762,412,306,8,4,scotch,RapidCFD-dev,system,Nvcc11.2.1Gcc4.8.5,DP,32,Opt,SYSTEMOPENMPI,2,0.05,PCG,DIC,PCG,DIC,PBiCG,DILU,1,compact,
16.685,762,412,306,8,4,scotch,RapidCFD-dev,system,Nvcc11.2.1Gcc4.8.5,DP,32,Opt,SYSTEMOPENMPI,2,0.05,PCG,DIC,PCG,DIC,PBiCG,DILU,1,scatter,
12.205,762,412,306,8,4,scotch,RapidCFD-dev,system,Nvcc11.2.1Gcc4.8.5,SP,32,Opt,SYSTEMOPENMPI,2,0.05,PCG,DIC,PCG,DIC,PBiCG,DILU,1,compact,
11.935,762,412,306,8,4,scotch,RapidCFD-dev,system,Nvcc11.2.1Gcc4.8.5,SP,32,Opt,SYSTEMOPENMPI,2,0.05,PCG,DIC,PCG,DIC,PBiCG,DILU,1,scatter,
