#Value,mx,my,mz,decomposeParDict_node,decomposeParDict_ppn,decomposeParDict_method,OpenFOAM_VERSION,WM_COMPILER_TYPE,WM_COMPILER,WM_PRECISION_OPTION,WM_LABEL_SIZE,WM_COMPILE_OPTION,WM_MPLIB,fvSolution_solvers_p_relTol,fvSolution_solvers_p_solver,fvSolution_solvers_p_preconditioner,fvSolution_solvers_pFinal_solver,fvSolution_solvers_pFinal_preconditioner,fvSolution_solvers_UFinal_solver,fvSolution_solvers_UFinal_preconditioner,profiling,tcs_version
1.398,240,130,96,1,48,scotch,openfoam/v1812-tune,system,Fcc,DP,32,Opt,FJMPI,0.05,PCG,DIC,PCG,DIC,PBiCG,DILU,,1.2.30
1.3976,240,130,96,1,48,scotch,openfoam/v1812-tune,system,Fcc,DP,32,Opt,FJMPI,0.05,PCG,DIC,PCG,FDIC,PBiCG,DILU,,1.2.30
1.396,240,130,96,1,48,scotch,openfoam/v1812-tune,system,Fcc,DP,32,Opt,FJMPI,0.05,PCG,FDIC,PCG,DIC,PBiCG,DILU,,1.2.30
1.3976,240,130,96,1,48,scotch,openfoam/v1812-tune,system,Fcc,DP,32,Opt,FJMPI,0.05,PCG,FDIC,PCG,FDIC,PBiCG,DILU,,1.2.30
0.6564,240,130,96,2,48,scotch,openfoam/v1812-tune,system,Fcc,DP,32,Opt,FJMPI,0.05,PCG,DIC,PCG,DIC,PBiCG,DILU,,1.2.30
0.6566,240,130,96,2,48,scotch,openfoam/v1812-tune,system,Fcc,DP,32,Opt,FJMPI,0.05,PCG,DIC,PCG,FDIC,PBiCG,DILU,,1.2.30
0.6592,240,130,96,2,48,scotch,openfoam/v1812-tune,system,Fcc,DP,32,Opt,FJMPI,0.05,PCG,FDIC,PCG,DIC,PBiCG,DILU,,1.2.30
0.6552,240,130,96,2,48,scotch,openfoam/v1812-tune,system,Fcc,DP,32,Opt,FJMPI,0.05,PCG,FDIC,PCG,FDIC,PBiCG,DILU,,1.2.30
0.5574,240,130,96,4,48,scotch,openfoam/v1812-tune,system,Fcc,DP,32,Opt,FJMPI,0.05,PCG,DIC,PCG,DIC,PBiCG,DILU,,1.2.30
0.5564,240,130,96,4,48,scotch,openfoam/v1812-tune,system,Fcc,DP,32,Opt,FJMPI,0.05,PCG,DIC,PCG,FDIC,PBiCG,DILU,,1.2.30
0.556,240,130,96,4,48,scotch,openfoam/v1812-tune,system,Fcc,DP,32,Opt,FJMPI,0.05,PCG,FDIC,PCG,DIC,PBiCG,DILU,,1.2.30
0.5588,240,130,96,4,48,scotch,openfoam/v1812-tune,system,Fcc,DP,32,Opt,FJMPI,0.05,PCG,FDIC,PCG,FDIC,PBiCG,DILU,,1.2.30
0.3306,240,130,96,8,48,scotch,openfoam/v1812-tune,system,Fcc,DP,32,Opt,FJMPI,0.05,PCG,DIC,PCG,DIC,PBiCG,DILU,,1.2.30
0.3318,240,130,96,8,48,scotch,openfoam/v1812-tune,system,Fcc,DP,32,Opt,FJMPI,0.05,PCG,DIC,PCG,FDIC,PBiCG,DILU,,1.2.30
0.3314,240,130,96,8,48,scotch,openfoam/v1812-tune,system,Fcc,DP,32,Opt,FJMPI,0.05,PCG,FDIC,PCG,DIC,PBiCG,DILU,,1.2.30
0.3296,240,130,96,8,48,scotch,openfoam/v1812-tune,system,Fcc,DP,32,Opt,FJMPI,0.05,PCG,FDIC,PCG,FDIC,PBiCG,DILU,,1.2.30
0.159,240,130,96,12,48,scotch,openfoam/v1812-tune,system,Fcc,DP,32,Opt,FJMPI,0.05,PCG,DIC,PCG,DIC,PBiCG,DILU,,1.2.30
0.1582,240,130,96,12,48,scotch,openfoam/v1812-tune,system,Fcc,DP,32,Opt,FJMPI,0.05,PCG,DIC,PCG,FDIC,PBiCG,DILU,,1.2.30
0.1596,240,130,96,12,48,scotch,openfoam/v1812-tune,system,Fcc,DP,32,Opt,FJMPI,0.05,PCG,FDIC,PCG,DIC,PBiCG,DILU,,1.2.30
0.161,240,130,96,12,48,scotch,openfoam/v1812-tune,system,Fcc,DP,32,Opt,FJMPI,0.05,PCG,FDIC,PCG,FDIC,PBiCG,DILU,,1.2.30
0.1248,240,130,96,24,48,scotch,openfoam/v1812-tune,system,Fcc,DP,32,Opt,FJMPI,0.05,PCG,DIC,PCG,DIC,PBiCG,DILU,,1.2.30
0.1248,240,130,96,24,48,scotch,openfoam/v1812-tune,system,Fcc,DP,32,Opt,FJMPI,0.05,PCG,DIC,PCG,FDIC,PBiCG,DILU,,1.2.30
0.1244,240,130,96,24,48,scotch,openfoam/v1812-tune,system,Fcc,DP,32,Opt,FJMPI,0.05,PCG,FDIC,PCG,DIC,PBiCG,DILU,,1.2.30
0.123,240,130,96,24,48,scotch,openfoam/v1812-tune,system,Fcc,DP,32,Opt,FJMPI,0.05,PCG,FDIC,PCG,FDIC,PBiCG,DILU,,1.2.30
