{
    "config_version": 2, 
    "solver": {
        "preconditioner": {
            "scope": "amg", 
            "solver": "NOSOLVER"
        }, 
        "use_scalar_norm": 1, 
        "solver": "FGMRES", 
        "print_solve_stats": 1, 
        "obtain_timings": 1, 
        "monitor_residual": 1, 
        "convergence": "ABSOLUTE", 
        "scope": "main", 
        "tolerance": 1e-4, 
        "max_iters": 10000, 
        "store_res_history": 1, 
        "norm": "L1_SCALED"
    }
}
