{
    "config_version": 2, 
    "solver": {
        "print_grid_stats": 1, 
        "algorithm": "AGGREGATION", 
        "coarseAgenerator": "THRUST", 
        "solver": "AMG", 
        "smoother": "BLOCK_JACOBI", 
        "print_solve_stats": 1, 
        "presweeps": 1, 
        "selector": "SIZE_2", 
        "obtain_timings": 1, 
        "max_iters": 10000,
	"store_res_history": 1, 
        "monitor_residual": 1, 
        "scope": "main", 
        "postsweeps": 1, 
        "tolerance": 1e-4, 
        "cycle": "V"
    }
}
