{
    "config_version": 2, 
    "solver": {
        "print_grid_stats": 1, 
        "solver": "AMG", 
        "print_solve_stats": 1, 
        "presweeps": 1, 
        "interpolator": "D2",
        "obtain_timings": 1, 
        "max_iters": 10000, 
        "store_res_history": 1, 
        "monitor_residual": 1, 
        "convergence": "ABSOLUTE", 
        "scope": "main", 
        "max_levels": 100, 
        "cycle": "CG", 
        "tolerance": 1e-4, 
        "norm": "L1_SCALED", 
        "postsweeps": 1
    }
}
