#solveBatch,nCases,aveNodeTime,aveNodeTime/aveNodeTimeMin
n32-2.3.0-system-Gcc4_8_5-Opt-INTELMPI2018_1_163-TU,65,0.382818,1
n32-2.3.0-system-Gcc4_8_5-Opt-INTELMPI2018_1_163-lTU,65,0.383277,1.0012
n32-2.3.0-system-Gcc4_8_5-Opt-INTELMPI2018_1_163-LTU,65,0.383825,1.00263
n32-2.3.0-system-Gcc4_8_5-Opt-INTELMPI2018_1_163-,65,0.384434,1.00422
n32-2.3.0-system-Gcc4_8_5-Opt-INTELMPI2018_1_163-pTU,84,2.1361,5.57992
