#Directory,Host,Node,Proc,Case,TimeSteps,InitTime[s],LastTime[s],Time[s],AveTime[s]
cases/proc_80/cases/GccN-40-4-PCG_CLASSICAL_V_JACOBI,II,2,80,GccN-40-4-PCG_CLASSICAL_V_JACOBI,2,50.02,74.58,24.56,24.56
cases/proc_80/cases/GccN-40-4-PCG_CLASSICAL_V_JACOBI,II,2,80,GccN-40-4-PCG_CLASSICAL_V_JACOBI,2,51.29,76.09,24.8,24.8
cases/proc_80/cases/GccN-40-4-PCG_CLASSICAL_V_JACOBI,II,2,80,GccN-40-4-PCG_CLASSICAL_V_JACOBI,2,51.51,76.43,24.92,24.92
cases/proc_80/cases/GccN-40-4-PCG_CLASSICAL_V_JACOBI,II,2,80,GccN-40-4-PCG_CLASSICAL_V_JACOBI,2,51.56,76.28,24.72,24.72
cases/proc_80/cases/GccN-40-4-PCG_CLASSICAL_V_JACOBI,II,2,80,GccN-40-4-PCG_CLASSICAL_V_JACOBI,2,51.79,76.64,24.85,24.85
cases/proc_160/cases/GccN-40-4-PCG_CLASSICAL_V_JACOBI,II,4,160,GccN-40-4-PCG_CLASSICAL_V_JACOBI,2,28.23,41.7,13.47,13.47
cases/proc_160/cases/GccN-40-4-PCG_CLASSICAL_V_JACOBI,II,4,160,GccN-40-4-PCG_CLASSICAL_V_JACOBI,2,28.25,41.63,13.38,13.38
cases/proc_160/cases/GccN-40-4-PCG_CLASSICAL_V_JACOBI,II,4,160,GccN-40-4-PCG_CLASSICAL_V_JACOBI,2,29.91,43.54,13.63,13.63
cases/proc_160/cases/GccN-40-4-PCG_CLASSICAL_V_JACOBI,II,4,160,GccN-40-4-PCG_CLASSICAL_V_JACOBI,2,29.92,43.87,13.95,13.95
cases/proc_160/cases/GccN-40-4-PCG_CLASSICAL_V_JACOBI,II,4,160,GccN-40-4-PCG_CLASSICAL_V_JACOBI,2,30.49,44.51,14.02,14.02
cases/proc_320/cases/Gcc-40-4-PCG_CLASSICAL_V_JACOBI,II,8,320,Gcc-40-4-PCG_CLASSICAL_V_JACOBI,2,26.05,38.71,12.66,12.66
cases/proc_320/cases/Gcc-40-4-PCG_CLASSICAL_V_JACOBI,II,8,320,Gcc-40-4-PCG_CLASSICAL_V_JACOBI,2,26.71,39.15,12.44,12.44
cases/proc_320/cases/Gcc-40-4-PCG_CLASSICAL_V_JACOBI,II,8,320,Gcc-40-4-PCG_CLASSICAL_V_JACOBI,2,26.99,39.72,12.73,12.73
cases/proc_320/cases/Gcc-40-4-PCG_CLASSICAL_V_JACOBI,II,8,320,Gcc-40-4-PCG_CLASSICAL_V_JACOBI,2,27.34,40.13,12.79,12.79
cases/proc_320/cases/Gcc-40-4-PCG_CLASSICAL_V_JACOBI,II,8,320,Gcc-40-4-PCG_CLASSICAL_V_JACOBI,2,27.73,40.45,12.72,12.72
cases/proc_320/cases/GccMod-40-4-PCG_CLASSICAL_V_JACOBI,II,8,320,GccMod-40-4-PCG_CLASSICAL_V_JACOBI,2,24.42,37.19,12.77,12.77
cases/proc_320/cases/GccMod-40-4-PCG_CLASSICAL_V_JACOBI,II,8,320,GccMod-40-4-PCG_CLASSICAL_V_JACOBI,2,25.27,37.92,12.65,12.65
cases/proc_320/cases/GccMod-40-4-PCG_CLASSICAL_V_JACOBI,II,8,320,GccMod-40-4-PCG_CLASSICAL_V_JACOBI,2,25.41,38.13,12.72,12.72
cases/proc_320/cases/GccMod-40-4-PCG_CLASSICAL_V_JACOBI,II,8,320,GccMod-40-4-PCG_CLASSICAL_V_JACOBI,2,25.64,38.2,12.56,12.56
cases/proc_320/cases/GccMod-40-4-PCG_CLASSICAL_V_JACOBI,II,8,320,GccMod-40-4-PCG_CLASSICAL_V_JACOBI,2,26.5,39.6,13.1,13.1
cases/proc_320/cases/GccN-40-4-PCG_CLASSICAL_V_JACOBI,II,8,320,GccN-40-4-PCG_CLASSICAL_V_JACOBI,2,17.96,26.85,8.89,8.89
cases/proc_320/cases/GccN-40-4-PCG_CLASSICAL_V_JACOBI,II,8,320,GccN-40-4-PCG_CLASSICAL_V_JACOBI,2,18.65,27.86,9.21,9.21
cases/proc_320/cases/GccN-40-4-PCG_CLASSICAL_V_JACOBI,II,8,320,GccN-40-4-PCG_CLASSICAL_V_JACOBI,2,18.96,27.69,8.73,8.73
cases/proc_320/cases/GccN-40-4-PCG_CLASSICAL_V_JACOBI,II,8,320,GccN-40-4-PCG_CLASSICAL_V_JACOBI,2,19.14,28.25,9.11,9.11
cases/proc_320/cases/GccN-40-4-PCG_CLASSICAL_V_JACOBI,II,8,320,GccN-40-4-PCG_CLASSICAL_V_JACOBI,2,19.54,28.56,9.02,9.02
cases/proc_320/cases/GccSocket-40-4-PCG_CLASSICAL_V_JACOBI,II,8,320,GccSocket-40-4-PCG_CLASSICAL_V_JACOBI,2,24.93,37.51,12.58,12.58
cases/proc_320/cases/GccSocket-40-4-PCG_CLASSICAL_V_JACOBI,II,8,320,GccSocket-40-4-PCG_CLASSICAL_V_JACOBI,2,26.29,38.99,12.7,12.7
cases/proc_320/cases/GccSocket-40-4-PCG_CLASSICAL_V_JACOBI,II,8,320,GccSocket-40-4-PCG_CLASSICAL_V_JACOBI,2,26.57,39.39,12.82,12.82
cases/proc_320/cases/GccSocket-40-4-PCG_CLASSICAL_V_JACOBI,II,8,320,GccSocket-40-4-PCG_CLASSICAL_V_JACOBI,2,27.11,39.99,12.88,12.88
cases/proc_320/cases/GccSocket-40-4-PCG_CLASSICAL_V_JACOBI,II,8,320,GccSocket-40-4-PCG_CLASSICAL_V_JACOBI,2,27.28,39.88,12.6,12.6
cases/proc_640/cases/Gcc-40-4-PCG_CLASSICAL_V_JACOBI,II,16,640,Gcc-40-4-PCG_CLASSICAL_V_JACOBI,2,16.59,25.29,8.7,8.7
cases/proc_640/cases/Gcc-40-4-PCG_CLASSICAL_V_JACOBI,II,16,640,Gcc-40-4-PCG_CLASSICAL_V_JACOBI,2,18.12,26.29,8.17,8.17
cases/proc_640/cases/Gcc-40-4-PCG_CLASSICAL_V_JACOBI,II,16,640,Gcc-40-4-PCG_CLASSICAL_V_JACOBI,2,18.28,26.84,8.56,8.56
cases/proc_640/cases/Gcc-40-4-PCG_CLASSICAL_V_JACOBI,II,16,640,Gcc-40-4-PCG_CLASSICAL_V_JACOBI,2,18.64,27.04,8.4,8.4
cases/proc_640/cases/Gcc-40-4-PCG_CLASSICAL_V_JACOBI,II,16,640,Gcc-40-4-PCG_CLASSICAL_V_JACOBI,2,19.75,28.15,8.4,8.4
cases/proc_640/cases/GccMod-40-4-PCG_CLASSICAL_V_JACOBI,II,16,640,GccMod-40-4-PCG_CLASSICAL_V_JACOBI,2,15.98,24.56,8.58,8.58
cases/proc_640/cases/GccMod-40-4-PCG_CLASSICAL_V_JACOBI,II,16,640,GccMod-40-4-PCG_CLASSICAL_V_JACOBI,2,17.75,25.98,8.23,8.23
cases/proc_640/cases/GccMod-40-4-PCG_CLASSICAL_V_JACOBI,II,16,640,GccMod-40-4-PCG_CLASSICAL_V_JACOBI,2,18.75,26.89,8.14,8.14
cases/proc_640/cases/GccMod-40-4-PCG_CLASSICAL_V_JACOBI,II,16,640,GccMod-40-4-PCG_CLASSICAL_V_JACOBI,2,19.77,28,8.23,8.23
cases/proc_640/cases/GccMod-40-4-PCG_CLASSICAL_V_JACOBI,II,16,640,GccMod-40-4-PCG_CLASSICAL_V_JACOBI,2,20.45,28.72,8.27,8.27
cases/proc_640/cases/GccN-40-4-PCG_CLASSICAL_V_JACOBI,II,16,640,GccN-40-4-PCG_CLASSICAL_V_JACOBI,2,14.51,22.14,7.63,7.63
cases/proc_640/cases/GccN-40-4-PCG_CLASSICAL_V_JACOBI,II,16,640,GccN-40-4-PCG_CLASSICAL_V_JACOBI,2,14.87,22.32,7.45,7.45
cases/proc_640/cases/GccN-40-4-PCG_CLASSICAL_V_JACOBI,II,16,640,GccN-40-4-PCG_CLASSICAL_V_JACOBI,2,14.95,22.54,7.59,7.59
cases/proc_640/cases/GccN-40-4-PCG_CLASSICAL_V_JACOBI,II,16,640,GccN-40-4-PCG_CLASSICAL_V_JACOBI,2,15.99,23.65,7.66,7.66
cases/proc_640/cases/GccN-40-4-PCG_CLASSICAL_V_JACOBI,II,16,640,GccN-40-4-PCG_CLASSICAL_V_JACOBI,2,16.38,23.93,7.55,7.55
cases/proc_640/cases/GccSocket-40-4-PCG_CLASSICAL_V_JACOBI,II,16,640,GccSocket-40-4-PCG_CLASSICAL_V_JACOBI,2,16.53,24.82,8.29,8.29
cases/proc_640/cases/GccSocket-40-4-PCG_CLASSICAL_V_JACOBI,II,16,640,GccSocket-40-4-PCG_CLASSICAL_V_JACOBI,2,18.53,26.78,8.25,8.25
cases/proc_640/cases/GccSocket-40-4-PCG_CLASSICAL_V_JACOBI,II,16,640,GccSocket-40-4-PCG_CLASSICAL_V_JACOBI,2,18.57,27.04,8.47,8.47
cases/proc_640/cases/GccSocket-40-4-PCG_CLASSICAL_V_JACOBI,II,16,640,GccSocket-40-4-PCG_CLASSICAL_V_JACOBI,2,18.92,27.08,8.16,8.16
cases/proc_640/cases/GccSocket-40-4-PCG_CLASSICAL_V_JACOBI,II,16,640,GccSocket-40-4-PCG_CLASSICAL_V_JACOBI,2,19.91,28.24,8.33,8.33
cases/proc_1280/cases/Gcc-40-4-PCG_CLASSICAL_V_JACOBI,II,32,1280,Gcc-40-4-PCG_CLASSICAL_V_JACOBI,2,12.38,18.79,6.41,6.41
cases/proc_1280/cases/Gcc-40-4-PCG_CLASSICAL_V_JACOBI,II,32,1280,Gcc-40-4-PCG_CLASSICAL_V_JACOBI,2,12.5,18.98,6.48,6.48
cases/proc_1280/cases/Gcc-40-4-PCG_CLASSICAL_V_JACOBI,II,32,1280,Gcc-40-4-PCG_CLASSICAL_V_JACOBI,2,12.8,19.03,6.23,6.23
cases/proc_1280/cases/Gcc-40-4-PCG_CLASSICAL_V_JACOBI,II,32,1280,Gcc-40-4-PCG_CLASSICAL_V_JACOBI,2,13.03,19.68,6.65,6.65
cases/proc_1280/cases/Gcc-40-4-PCG_CLASSICAL_V_JACOBI,II,32,1280,Gcc-40-4-PCG_CLASSICAL_V_JACOBI,2,13.4,19.97,6.57,6.57
cases/proc_1280/cases/GccMod-40-4-PCG_CLASSICAL_V_JACOBI,II,32,1280,GccMod-40-4-PCG_CLASSICAL_V_JACOBI,2,12.8,18.87,6.07,6.07
cases/proc_1280/cases/GccMod-40-4-PCG_CLASSICAL_V_JACOBI,II,32,1280,GccMod-40-4-PCG_CLASSICAL_V_JACOBI,2,12.83,18.77,5.94,5.94
cases/proc_1280/cases/GccMod-40-4-PCG_CLASSICAL_V_JACOBI,II,32,1280,GccMod-40-4-PCG_CLASSICAL_V_JACOBI,2,13.36,19.51,6.15,6.15
cases/proc_1280/cases/GccMod-40-4-PCG_CLASSICAL_V_JACOBI,II,32,1280,GccMod-40-4-PCG_CLASSICAL_V_JACOBI,2,13.44,19.68,6.24,6.24
cases/proc_1280/cases/GccMod-40-4-PCG_CLASSICAL_V_JACOBI,II,32,1280,GccMod-40-4-PCG_CLASSICAL_V_JACOBI,2,13.5,19.69,6.19,6.19
cases/proc_1280/cases/GccN-40-4-PCG_CLASSICAL_V_JACOBI,II,32,1280,GccN-40-4-PCG_CLASSICAL_V_JACOBI,2,13.53,20.1,6.57,6.57
cases/proc_1280/cases/GccN-40-4-PCG_CLASSICAL_V_JACOBI,II,32,1280,GccN-40-4-PCG_CLASSICAL_V_JACOBI,2,13.79,20.12,6.33,6.33
cases/proc_1280/cases/GccN-40-4-PCG_CLASSICAL_V_JACOBI,II,32,1280,GccN-40-4-PCG_CLASSICAL_V_JACOBI,2,14.25,21.8,7.55,7.55
cases/proc_1280/cases/GccN-40-4-PCG_CLASSICAL_V_JACOBI,II,32,1280,GccN-40-4-PCG_CLASSICAL_V_JACOBI,2,14.66,22.22,7.56,7.56
cases/proc_1280/cases/GccN-40-4-PCG_CLASSICAL_V_JACOBI,II,32,1280,GccN-40-4-PCG_CLASSICAL_V_JACOBI,2,15.26,22.14,6.88,6.88
cases/proc_1280/cases/GccSocket-40-4-PCG_CLASSICAL_V_JACOBI,II,32,1280,GccSocket-40-4-PCG_CLASSICAL_V_JACOBI,2,12.66,18.5,5.84,5.84
cases/proc_1280/cases/GccSocket-40-4-PCG_CLASSICAL_V_JACOBI,II,32,1280,GccSocket-40-4-PCG_CLASSICAL_V_JACOBI,2,13.1,19.72,6.62,6.62
cases/proc_1280/cases/GccSocket-40-4-PCG_CLASSICAL_V_JACOBI,II,32,1280,GccSocket-40-4-PCG_CLASSICAL_V_JACOBI,2,13.15,19.21,6.06,6.06
cases/proc_1280/cases/GccSocket-40-4-PCG_CLASSICAL_V_JACOBI,II,32,1280,GccSocket-40-4-PCG_CLASSICAL_V_JACOBI,2,13.49,19.77,6.28,6.28
cases/proc_1280/cases/GccSocket-40-4-PCG_CLASSICAL_V_JACOBI,II,32,1280,GccSocket-40-4-PCG_CLASSICAL_V_JACOBI,2,13.72,21.39,7.67,7.67
cases/proc_2560/cases/Gcc-40-4-PCG_CLASSICAL_V_JACOBI,II,64,2560,Gcc-40-4-PCG_CLASSICAL_V_JACOBI,2,11.51,18.37,6.86,6.86
cases/proc_2560/cases/Gcc-40-4-PCG_CLASSICAL_V_JACOBI,II,64,2560,Gcc-40-4-PCG_CLASSICAL_V_JACOBI,2,11.68,18.49,6.81,6.81
cases/proc_2560/cases/Gcc-40-4-PCG_CLASSICAL_V_JACOBI,II,64,2560,Gcc-40-4-PCG_CLASSICAL_V_JACOBI,2,11.77,18.5,6.73,6.73
cases/proc_2560/cases/Gcc-40-4-PCG_CLASSICAL_V_JACOBI,II,64,2560,Gcc-40-4-PCG_CLASSICAL_V_JACOBI,2,11.97,18.15,6.18,6.18
cases/proc_2560/cases/Gcc-40-4-PCG_CLASSICAL_V_JACOBI,II,64,2560,Gcc-40-4-PCG_CLASSICAL_V_JACOBI,2,12.56,19.71,7.15,7.15
cases/proc_2560/cases/GccMod-40-4-PCG_CLASSICAL_V_JACOBI,II,64,2560,GccMod-40-4-PCG_CLASSICAL_V_JACOBI,2,11.74,18.69,6.95,6.95
cases/proc_2560/cases/GccMod-40-4-PCG_CLASSICAL_V_JACOBI,II,64,2560,GccMod-40-4-PCG_CLASSICAL_V_JACOBI,2,12.12,18.86,6.74,6.74
cases/proc_2560/cases/GccMod-40-4-PCG_CLASSICAL_V_JACOBI,II,64,2560,GccMod-40-4-PCG_CLASSICAL_V_JACOBI,2,12.51,19.02,6.51,6.51
cases/proc_2560/cases/GccMod-40-4-PCG_CLASSICAL_V_JACOBI,II,64,2560,GccMod-40-4-PCG_CLASSICAL_V_JACOBI,2,12.53,19.71,7.18,7.18
cases/proc_2560/cases/GccMod-40-4-PCG_CLASSICAL_V_JACOBI,II,64,2560,GccMod-40-4-PCG_CLASSICAL_V_JACOBI,2,13.63,20.68,7.05,7.05
cases/proc_2560/cases/GccN-40-4-PCG_CLASSICAL_V_JACOBI,II,64,2560,GccN-40-4-PCG_CLASSICAL_V_JACOBI,2,12.18,17.05,4.87,4.87
cases/proc_2560/cases/GccN-40-4-PCG_CLASSICAL_V_JACOBI,II,64,2560,GccN-40-4-PCG_CLASSICAL_V_JACOBI,2,13.15,18.02,4.87,4.87
cases/proc_2560/cases/GccN-40-4-PCG_CLASSICAL_V_JACOBI,II,64,2560,GccN-40-4-PCG_CLASSICAL_V_JACOBI,2,13.44,18.52,5.08,5.08
cases/proc_2560/cases/GccN-40-4-PCG_CLASSICAL_V_JACOBI,II,64,2560,GccN-40-4-PCG_CLASSICAL_V_JACOBI,2,13.49,18.37,4.88,4.88
cases/proc_2560/cases/GccN-40-4-PCG_CLASSICAL_V_JACOBI,II,64,2560,GccN-40-4-PCG_CLASSICAL_V_JACOBI,2,14.04,18.84,4.8,4.8
cases/proc_2560/cases/GccSocket-40-4-PCG_CLASSICAL_V_JACOBI,II,64,2560,GccSocket-40-4-PCG_CLASSICAL_V_JACOBI,2,10.76,16.97,6.21,6.21
cases/proc_2560/cases/GccSocket-40-4-PCG_CLASSICAL_V_JACOBI,II,64,2560,GccSocket-40-4-PCG_CLASSICAL_V_JACOBI,2,12,18.55,6.55,6.55
cases/proc_2560/cases/GccSocket-40-4-PCG_CLASSICAL_V_JACOBI,II,64,2560,GccSocket-40-4-PCG_CLASSICAL_V_JACOBI,2,12.37,19.31,6.94,6.94
cases/proc_2560/cases/GccSocket-40-4-PCG_CLASSICAL_V_JACOBI,II,64,2560,GccSocket-40-4-PCG_CLASSICAL_V_JACOBI,2,12.63,19.77,7.14,7.14
cases/proc_2560/cases/GccSocket-40-4-PCG_CLASSICAL_V_JACOBI,II,64,2560,GccSocket-40-4-PCG_CLASSICAL_V_JACOBI,2,12.81,19.44,6.63,6.63
